index,ms,calef,TempC
0,4002.0,255,23.53
1,5004.0,255,23.53
2,6005.0,255,23.53
3,1000.0,255,23.53
4,2000.0,255,23.53
5,3002.0,255,23.53
6,4002.0,255,23.53
7,5004.0,255,23.53
8,6005.0,255,23.53
9,7006.0,255,23.53
10,8007.0,255,23.53
11,9008.0,255,23.53
12,10009.0,255,23.53
13,11011.0,255,23.53
14,12011.0,255,23.53
15,13012.0,255,23.53
16,14014.0,255,23.53
17,15014.0,255,23.53
18,16016.0,255,23.53
19,17016.0,255,23.53
20,18018.0,255,23.53
21,19019.0,255,23.53
22,20020.0,255,23.53
23,21021.0,255,23.53
24,22023.0,255,23.53
25,23023.0,255,23.53
26,24025.0,255,23.53
27,25026.0,255,23.53
28,26027.0,255,23.53
29,27028.0,255,23.53
30,28029.0,255,23.53
31,29030.0,255,23.53
32,30031.0,255,23.53
33,31033.0,255,23.53
34,32033.0,255,23.53
35,33035.0,255,23.53
36,34035.0,255,23.53
37,35037.0,255,23.53
38,36038.0,255,23.53
