index,ms,calef,TempC
0,46049.0,255,37.21
1,1000.0,255,37.21
2,2000.0,255,37.7
3,3002.0,255,37.7
4,4002.0,255,38.19
5,5004.0,255,38.19
6,6005.0,255,38.19
7,7006.0,255,38.68
8,8007.0,255,38.68
9,9008.0,255,39.17
10,10009.0,255,39.17
11,11011.0,255,39.17
12,12011.0,255,39.66
13,13012.0,255,40.14
14,14014.0,255,40.14
15,15014.0,255,40.63
16,16016.0,255,40.63
17,17016.0,255,41.12
18,18018.0,255,41.12
19,19019.0,255,41.61
20,20020.0,255,41.61
21,21021.0,255,41.61
22,22023.0,255,42.1
23,23023.0,0,42.59
24,24025.0,0,42.59
25,25025.0,0,42.59
26,26027.0,0,41.61
27,27027.0,0,41.61
28,28028.0,0,42.1
29,29029.0,0,42.1
30,30030.0,0,42.1
31,31032.0,0,42.59
32,32032.0,0,42.59
33,33034.0,0,43.08
34,34034.0,0,43.08
35,35036.0,0,43.57
36,36036.0,0,43.57
37,37038.0,0,44.05
38,38038.0,0,44.05
39,39040.0,0,44.05
40,40041.0,0,44.05
41,41041.0,0,43.57
42,42043.0,0,43.57
43,43043.0,0,43.57
44,44045.0,0,43.08
