index,ms,calef,TempC
0,2000.0,255,27.44
1,1000.0,255,26.95
2,2000.0,255,26.95
3,3002.0,255,26.95
4,4002.0,255,26.95
5,5004.0,255,26.95
6,6005.0,255,26.95
7,7006.0,255,26.95
8,8007.0,255,26.95
9,9008.0,255,26.95
10,10009.0,255,26.46
11,11011.0,255,26.95
12,12011.0,255,26.46
13,13012.0,255,26.46
14,14014.0,255,26.95
15,15014.0,255,26.95
16,16016.0,255,26.46
17,17016.0,255,26.46
18,18018.0,255,26.46
19,19019.0,255,26.95
20,20020.0,255,26.95
21,21021.0,255,26.95
22,22023.0,255,26.95
23,23023.0,255,26.95
24,24025.0,255,26.95
25,25026.0,255,26.95
26,26027.0,255,26.95
27,27028.0,255,26.95
28,28029.0,255,26.95
29,29030.0,255,26.95
30,30031.0,255,26.95
31,31032.0,255,26.95
32,32033.0,255,26.95
33,33035.0,255,26.95
34,34035.0,255,27.44
