index,ms,calef,TempC,Tsp,cP,cI,cD
0,5999.0,255,26.24,55.0,1095.21,10.24,0.0
1,2000.0,255,20.33,55.0,1454.41,13.59,0.0
2,4000.0,255,24.56,55.0,1173.6,10.97,0.0
3,6000.0,255,26.0,55.0,1101.16,10.29,0.0
4,8000.0,255,26.72,55.0,1067.9,9.98,0.0
5,9999.0,255,27.0,55.0,1054.19,9.85,0.0
6,11999.0,255,27.31,59.0,1041.14,9.73,0.0
7,13999.0,255,27.47,59.0,1184.12,11.07,0.0
8,15998.0,255,27.6,59.0,1178.99,11.02,0.0
9,17999.0,255,27.71,55.0,1024.34,9.57,0.0
10,19999.0,255,27.8,55.0,1020.67,9.54,0.0
11,22000.0,255,27.86,55.0,1018.31,9.52,0.0
12,24000.0,255,27.93,55.0,1015.8,9.49,0.0
13,26000.0,255,27.98,59.0,1014.2,9.48,0.0
14,28000.0,255,28.03,55.0,1011.88,9.46,0.0
15,30000.0,255,28.07,59.0,1010.32,9.44,0.0
16,32000.0,255,28.12,59.0,1158.53,10.83,0.0
17,33999.0,255,28.18,55.0,1006.55,9.41,0.0
18,35999.0,255,28.21,55.0,1004.79,9.39,0.0
19,37999.0,255,28.24,55.0,1003.95,9.38,0.0
20,40000.0,255,28.27,55.0,1002.48,9.37,0.0
21,42000.0,255,28.3,55.0,1001.49,9.36,0.0
22,43999.0,255,28.31,55.0,1000.92,9.35,0.0
23,45999.0,255,28.33,55.0,1000.08,9.35,0.0
24,48000.0,255,28.34,55.0,999.62,9.34,0.0
25,50000.0,255,28.36,55.0,999.19,9.34,0.0
26,52000.0,255,28.37,55.0,998.8,9.33,0.0
27,53999.0,255,28.37,55.0,998.71,9.33,0.0
28,56000.0,255,28.38,55.0,998.36,9.33,0.0
29,57999.0,255,28.38,55.0,998.3,9.33,0.0
30,59999.0,255,28.39,55.0,997.71,9.32,0.0
31,61999.0,255,28.4,55.0,997.68,9.32,0.0
32,64000.0,255,28.4,55.0,997.39,9.32,0.0
33,66000.0,255,28.4,55.0,997.37,9.32,0.0
34,67999.0,255,28.4,55.0,997.36,9.32,0.0
35,70000.0,255,28.41,55.0,997.1,9.32,0.0
36,71999.0,255,28.41,55.0,997.09,9.32,0.0
37,73999.0,255,28.42,55.0,996.85,9.32,0.0
38,75999.0,255,28.42,55.0,996.86,9.32,0.0
39,78000.0,255,28.42,55.0,996.63,9.31,0.0
40,79998.0,255,28.42,55.0,996.64,9.31,0.0
41,81999.0,255,28.43,55.0,996.43,9.31,0.0
42,84000.0,255,28.43,55.0,996.45,9.31,0.0
43,85999.0,255,28.43,55.0,996.47,9.31,0.0
44,87999.0,255,28.42,55.0,996.49,9.31,0.0
45,89999.0,255,28.4,55.0,997.16,9.32,0.0
46,91999.0,255,28.39,55.0,997.59,9.32,0.0
47,94000.0,255,28.38,55.0,998.22,9.33,0.0
48,96000.0,255,28.36,55.0,998.82,9.33,0.0
49,97999.0,255,28.33,55.0,999.62,9.34,0.0
50,99999.0,255,28.31,55.0,1000.37,9.35,0.0
51,101999.0,255,28.3,55.0,1001.1,9.36,0.0
