index,ms,calef,TempC
0,3002.0,255,21.24
1,1000.0,255,16.37
2,2000.0,255,19.67
3,3002.0,255,21.1
4,4003.0,255,21.96
5,5005.0,255,22.47
6,6006.0,255,22.85
7,7007.0,255,23.14
8,8008.0,255,23.36
9,9010.0,255,23.53
10,10011.0,255,23.72
11,11013.0,255,23.88
12,12013.0,255,24.01
13,13015.0,255,24.12
14,14016.0,255,24.23
15,15017.0,255,24.33
16,16019.0,255,24.43
17,17019.0,255,24.53
18,18021.0,255,24.61
19,19022.0,255,24.69
20,20024.0,255,24.79
21,21025.0,255,24.87
22,22027.0,255,24.94
23,23027.0,255,25.01
24,24029.0,255,25.08
25,25030.0,255,25.14
26,26032.0,255,25.21
27,27033.0,255,25.28
28,28035.0,255,25.35
29,29035.0,255,25.41
30,30036.0,255,25.47
31,31038.0,255,25.52
32,32039.0,255,25.57
33,33041.0,255,25.63
34,34042.0,255,25.69
35,35043.0,255,25.75
36,36044.0,255,25.8
37,37046.0,255,25.86
38,38047.0,255,25.92
39,39049.0,255,25.97
40,40050.0,255,26.03
41,41051.0,255,26.09
42,42052.0,255,26.14
43,43054.0,255,26.2
44,44055.0,255,26.25
45,45057.0,255,26.29
46,46058.0,255,26.34
47,47058.0,255,26.4
48,48060.0,255,26.45
49,49061.0,255,26.51
50,50063.0,255,26.56
51,51064.0,255,26.61
52,52066.0,255,26.66
53,53066.0,255,26.7
54,54068.0,255,26.75
55,55069.0,255,26.81
56,56071.0,255,26.86
57,57072.0,255,26.91
58,58074.0,255,26.96
59,59074.0,255,27.01
60,60076.0,255,27.06
61,61077.0,255,27.11
62,62078.0,255,27.15
63,63080.0,255,27.19
64,64081.0,255,27.23
65,65082.0,255,27.28
66,66083.0,255,27.32
67,67085.0,255,27.36
68,68086.0,255,27.4
69,69088.0,255,27.45
70,70089.0,255,27.49
71,71090.0,255,27.54
72,72091.0,255,27.58
73,73093.0,255,27.62
74,74094.0,255,27.67
75,75096.0,255,27.72
76,76097.0,255,27.77
77,77099.0,255,27.82
78,78099.0,255,27.87
79,79100.0,255,27.91
80,80102.0,255,27.96
81,81103.0,255,28.0
82,82105.0,255,28.05
83,83106.0,255,28.09
84,84107.0,255,28.14
85,85108.0,255,28.2
86,86110.0,255,28.24
87,87111.0,255,28.29
88,88113.0,255,28.34
89,89114.0,255,28.38
90,90115.0,255,28.43
91,91116.0,255,28.47
92,92118.0,255,28.52
93,93119.0,255,28.57
94,94120.0,255,28.62
95,95122.0,255,28.67
96,96122.0,255,28.72
97,97124.0,255,28.77
98,98125.0,255,28.81
99,99127.0,255,28.87
100,100128.0,255,28.92
101,101130.0,255,28.97
102,102131.0,255,29.03
103,103132.0,255,29.08
104,104133.0,255,29.13
105,105135.0,255,29.18
106,106136.0,255,29.23
107,107138.0,255,29.29
108,108139.0,255,29.34
109,109140.0,255,29.4
110,110142.0,255,29.45
111,111142.0,255,29.5
112,112144.0,255,29.55
113,113145.0,255,29.6
114,114147.0,255,29.65
115,115148.0,255,29.7
116,116150.0,255,29.75
117,117151.0,255,29.79
118,118153.0,255,29.84
119,119153.0,255,29.88
120,120155.0,255,29.92
121,121156.0,255,29.96
122,122158.0,255,30.01
123,123159.0,255,30.04
124,124161.0,255,30.08
125,125162.0,255,30.12
126,126163.0,255,30.16
127,127164.0,255,30.2
128,128165.0,255,30.23
129,129167.0,255,30.27
130,130168.0,255,30.3
131,131170.0,255,30.34
132,132171.0,255,30.38
133,133173.0,255,30.42
134,134174.0,255,30.46
135,135176.0,255,30.51
136,136176.0,255,30.54
137,137178.0,255,30.58
138,138179.0,255,30.62
139,139181.0,255,30.66
140,140182.0,255,30.7
141,141184.0,255,30.74
142,142185.0,255,30.79
143,143186.0,255,30.83
144,144187.0,255,30.88
145,145188.0,255,30.93
146,146190.0,255,30.98
147,147191.0,255,31.03
148,148193.0,255,31.08
149,149194.0,255,31.13
150,150196.0,255,31.18
151,151197.0,255,31.24
152,152199.0,255,31.3
153,153199.0,255,31.35
154,154201.0,255,31.4
155,155202.0,255,31.45
156,156204.0,255,31.5
157,157205.0,255,31.56
158,158206.0,255,31.62
159,159208.0,255,31.67
160,160209.0,255,31.73
161,161210.0,255,31.79
162,162211.0,255,31.84
163,163213.0,255,31.89
164,164214.0,255,31.94
165,165216.0,255,32.0
166,166217.0,255,32.05
167,167219.0,255,32.11
168,168220.0,255,32.17
169,169221.0,255,32.23
170,170222.0,255,32.28
171,171224.0,255,32.33
172,172225.0,255,32.39
173,173227.0,255,32.44
174,174228.0,255,32.5
175,175229.0,255,32.55
176,176231.0,255,32.61
177,177232.0,255,32.67
178,178233.0,255,32.72
179,179234.0,255,32.78
180,180236.0,255,32.83
181,181237.0,255,32.88
182,182239.0,255,32.94
183,183240.0,255,32.99
184,184242.0,255,33.03
185,185243.0,255,33.08
186,186244.0,255,33.13
187,187245.0,255,33.18
188,188247.0,255,33.22
189,189248.0,255,33.27
190,190249.0,255,33.31
191,191251.0,255,33.35
192,192252.0,255,33.4
193,193254.0,255,33.44
194,194254.0,255,33.48
195,195256.0,255,33.52
196,196257.0,255,33.57
197,197259.0,255,33.61
198,198260.0,255,33.65
199,199262.0,255,33.69
200,200263.0,255,33.73
201,201265.0,255,33.76
202,202266.0,255,33.8
203,203267.0,255,33.83
204,204268.0,255,33.87
205,205270.0,255,33.91
206,206271.0,255,33.95
207,207272.0,255,33.98
208,208274.0,255,34.02
209,209275.0,255,34.06
210,210277.0,255,34.1
211,211277.0,255,34.13
212,212279.0,255,34.17
213,213280.0,255,34.2
214,214282.0,255,34.23
215,215283.0,255,34.27
216,216285.0,255,34.3
217,217286.0,255,34.33
218,218288.0,255,34.36
219,219288.0,255,34.39
220,220290.0,255,34.43
221,221291.0,255,34.47
222,222292.0,255,34.51
223,223294.0,255,34.55
224,224295.0,255,34.58
225,225297.0,255,34.62
226,226298.0,255,34.65
227,227300.0,255,34.69
228,228300.0,255,34.72
229,229302.0,255,34.75
230,230303.0,255,34.79
231,231305.0,255,34.82
232,232306.0,255,34.85
233,233308.0,255,34.88
234,234309.0,255,34.91
235,235311.0,255,34.94
236,236311.0,255,34.96
237,237313.0,255,34.99
238,238314.0,255,35.02
239,239315.0,255,35.05
240,240317.0,255,35.07
241,241318.0,255,35.11
242,242320.0,255,35.14
243,243321.0,255,35.17
244,244322.0,255,35.21
245,245323.0,255,35.24
246,246325.0,255,35.27
247,247326.0,255,35.3
248,248328.0,255,35.33
249,249329.0,255,35.36
250,250331.0,255,35.4
251,251332.0,255,35.44
252,252334.0,255,35.46
253,253334.0,255,35.48
254,254336.0,255,35.5
255,255337.0,255,35.51
256,256338.0,255,35.53
257,257340.0,255,35.54
258,258341.0,255,35.56
259,259343.0,255,35.57
260,260344.0,255,35.58
261,261345.0,255,35.59
262,262346.0,255,35.6
263,263348.0,255,35.61
264,264349.0,255,35.63
265,265351.0,255,35.64
266,266352.0,255,35.65
267,267354.0,255,35.67
268,268355.0,255,35.68
269,269357.0,255,35.69
270,270357.0,255,35.7
271,271358.0,255,35.71
272,272360.0,255,35.73
273,273361.0,255,35.75
274,274363.0,255,35.77
275,275364.0,255,35.79
276,276366.0,255,35.81
277,277367.0,255,35.83
278,278369.0,255,35.85
279,279369.0,255,35.87
280,280371.0,255,35.88
281,281372.0,255,35.9
282,282374.0,255,35.92
283,283375.0,255,35.94
284,284377.0,255,35.96
285,285378.0,255,35.99
286,286380.0,255,36.02
287,287380.0,255,36.04
288,288381.0,255,36.07
289,289383.0,255,36.09
290,290384.0,255,36.12
291,291386.0,255,36.14
292,292387.0,255,36.16
293,293389.0,255,36.19
294,294390.0,255,36.21
295,295392.0,255,36.23
296,296392.0,255,36.25
297,297394.0,255,36.27
298,298395.0,255,36.3
299,299397.0,255,36.32
300,300398.0,255,36.34
301,301400.0,255,36.37
302,302401.0,255,36.39
303,303403.0,255,36.42
304,304403.0,255,36.45
305,305404.0,255,36.48
306,306406.0,255,36.5
307,307407.0,255,36.53
308,308409.0,255,36.55
309,309410.0,255,36.59
310,310412.0,255,36.62
311,311413.0,255,36.66
312,312415.0,255,36.69
313,313415.0,255,36.72
314,314417.0,255,36.75
315,315418.0,255,36.79
316,316420.0,255,36.82
317,317421.0,255,36.85
318,318423.0,255,36.87
319,319424.0,255,36.9
320,320425.0,255,36.93
321,321426.0,255,36.96
322,322427.0,255,36.99
323,323429.0,255,37.02
324,324430.0,255,37.05
325,325432.0,255,37.08
326,326433.0,255,37.12
327,327435.0,255,37.15
328,328436.0,255,37.18
329,329438.0,255,37.21
330,330438.0,255,37.26
331,331440.0,255,37.3
332,332441.0,255,37.34
333,333443.0,255,37.37
334,334444.0,255,37.41
335,335446.0,255,37.44
336,336447.0,255,37.47
337,337448.0,255,37.5
338,338450.0,255,37.53
339,339450.0,255,37.56
340,340452.0,255,37.59
341,341453.0,255,37.61
342,342455.0,255,37.64
343,343456.0,255,37.67
344,344458.0,255,37.71
345,345459.0,255,37.75
346,346461.0,255,37.79
347,347461.0,255,37.83
348,348463.0,255,37.88
349,349464.0,255,37.93
350,350466.0,255,37.98
351,351467.0,255,38.03
352,352468.0,255,38.09
353,353470.0,255,38.14
354,354471.0,255,38.19
355,355472.0,255,38.25
356,356473.0,255,38.31
357,357475.0,255,38.37
358,358476.0,255,38.43
359,359478.0,255,38.49
360,360479.0,255,38.55
361,361481.0,255,38.61
362,362482.0,255,38.67
363,363483.0,255,38.73
364,364484.0,255,38.78
365,365486.0,255,38.83
366,366487.0,255,38.89
367,367489.0,255,38.95
368,368490.0,255,39.01
369,369491.0,255,39.06
370,370493.0,255,39.12
371,371494.0,255,39.17
372,372495.0,255,39.23
373,373496.0,255,39.28
374,374498.0,255,39.34
375,374999.0,255,39.37
376,376000.0,255,39.43
377,377001.0,255,39.48
378,378003.0,255,39.54
379,379004.0,255,39.59
380,380006.0,255,39.63
381,381007.0,255,39.68
382,382009.0,255,39.72
383,383010.0,255,39.76
384,384011.0,255,39.8
385,385012.0,255,39.84
386,386014.0,255,39.88
387,387015.0,255,39.91
388,388017.0,255,39.95
389,389018.0,255,39.99
390,390020.0,255,40.02
391,391021.0,255,40.06
392,392022.0,255,40.09
393,393023.0,255,40.13
394,394024.0,255,40.17
395,395026.0,255,40.22
396,396027.0,255,40.26
397,397029.0,255,40.3
398,398030.0,255,40.34
399,399032.0,255,40.38
400,400033.0,255,40.42
401,401034.0,255,40.46
402,402035.0,255,40.5
403,403037.0,255,40.55
404,404038.0,255,40.59
405,405040.0,255,40.63
406,406041.0,255,40.68
407,407043.0,255,40.72
408,408044.0,255,40.76
409,409044.0,255,40.8
410,410046.0,255,40.84
411,411047.0,255,40.87
412,412049.0,255,40.91
413,413050.0,255,40.95
414,414052.0,255,40.99
415,415053.0,255,41.03
416,416055.0,255,41.07
417,417055.0,255,41.1
418,418057.0,255,41.13
419,419058.0,255,41.17
420,420060.0,255,41.2
421,421061.0,255,41.24
422,422063.0,255,41.28
423,423064.0,255,41.32
424,424066.0,255,41.36
425,425066.0,255,41.4
426,426067.0,255,41.43
427,427069.0,255,41.47
428,428070.0,255,41.5
429,429072.0,255,41.54
430,430073.0,255,41.57
431,431075.0,255,41.6
432,432076.0,255,41.63
433,433078.0,255,41.67
434,434078.0,255,41.71
435,435080.0,255,41.74
436,436081.0,255,41.78
437,437083.0,255,41.81
438,438084.0,255,41.85
439,439086.0,255,41.89
440,440087.0,255,41.92
441,441089.0,255,41.96
442,442089.0,255,41.99
443,443090.0,255,42.02
444,444092.0,255,42.06
445,445093.0,255,42.08
446,446095.0,255,42.11
447,447096.0,255,42.13
448,448098.0,255,42.15
449,449099.0,255,42.18
450,450100.0,255,42.2
451,451101.0,255,42.22
452,452103.0,255,42.24
453,453104.0,255,42.26
454,454106.0,255,42.27
455,455107.0,255,42.29
456,456109.0,255,42.31
457,457110.0,255,42.33
458,458112.0,255,42.35
459,459112.0,255,42.36
460,460113.0,255,42.38
461,461115.0,255,42.39
462,462116.0,255,42.41
463,463118.0,255,42.42
464,464119.0,255,42.44
465,465121.0,255,42.46
466,466122.0,255,42.47
467,467123.0,255,42.49
468,468124.0,255,42.5
469,469126.0,255,42.51
470,470127.0,255,42.52
471,471129.0,255,42.54
472,472130.0,255,42.55
473,473132.0,255,42.56
474,474133.0,255,42.57
475,475134.0,255,42.58
476,476135.0,255,42.59
477,477136.0,255,42.6
478,478138.0,255,42.61
479,479139.0,255,42.62
480,480141.0,255,42.63
481,481142.0,255,42.64
482,482144.0,255,42.65
483,483145.0,255,42.66
484,484146.0,255,42.67
485,485147.0,255,42.68
486,486149.0,255,42.7
487,487150.0,255,42.72
488,488152.0,255,42.74
489,489153.0,255,42.76
490,490155.0,255,42.77
491,491156.0,255,42.79
492,492157.0,255,42.81
493,493158.0,255,42.82
494,494159.0,255,42.84
495,495161.0,255,42.86
496,496162.0,255,42.87
497,497164.0,255,42.89
498,498165.0,255,42.91
499,499167.0,255,42.93
500,500168.0,255,42.96
501,501169.0,255,42.97
502,502170.0,255,43.0
503,503172.0,255,43.02
504,504173.0,255,43.04
505,505175.0,255,43.06
506,506176.0,255,43.09
507,507177.0,255,43.11
508,508179.0,255,43.13
509,509179.0,255,43.15
510,510181.0,255,43.17
511,511182.0,255,43.19
512,512184.0,255,43.2
513,513185.0,255,43.22
514,514187.0,255,43.24
515,515188.0,255,43.26
516,516190.0,255,43.27
517,517191.0,255,43.29
518,518192.0,255,43.31
519,519193.0,255,43.32
520,520195.0,255,43.32
521,521196.0,255,43.33
522,522198.0,255,43.33
523,523199.0,255,43.34
524,524200.0,255,43.34
525,525202.0,255,43.35
526,526202.0,255,43.35
527,527204.0,255,43.36
528,528205.0,255,43.36
529,529207.0,255,43.37
530,530208.0,255,43.37
531,531210.0,255,43.38
532,532211.0,255,43.38
533,533213.0,255,43.38
534,534214.0,255,43.39
535,535215.0,255,43.39
536,536216.0,255,43.4
537,537218.0,255,43.4
538,538219.0,255,43.41
539,539220.0,255,43.42
540,540222.0,255,43.43
541,541223.0,255,43.44
542,542225.0,255,43.46
543,543225.0,255,43.47
544,544227.0,255,43.48
545,545228.0,255,43.49
546,546230.0,255,43.51
547,547231.0,255,43.52
548,548233.0,255,43.53
549,549234.0,255,43.55
550,550236.0,255,43.56
551,551237.0,255,43.57
552,552238.0,255,43.59
553,553239.0,255,43.61
554,554241.0,255,43.62
555,555242.0,255,43.63
556,556243.0,255,43.65
557,557245.0,255,43.67
558,558246.0,255,43.69
559,559248.0,255,43.7
560,560248.0,255,43.72
561,561250.0,255,43.74
562,562251.0,255,43.76
563,563253.0,255,43.78
564,564254.0,255,43.81
565,565256.0,255,43.83
566,566257.0,255,43.86
567,567259.0,255,43.88
568,568259.0,255,43.9
569,569261.0,255,43.93
570,570262.0,255,43.95
571,571264.0,255,43.98
572,572265.0,255,44.0
573,573266.0,255,44.02
574,574268.0,255,44.04
575,575269.0,255,44.06
576,576271.0,255,44.09
577,577271.0,255,44.12
578,578273.0,255,44.15
579,579274.0,255,44.18
580,580276.0,255,44.21
581,581277.0,255,44.24
582,582279.0,255,44.26
583,583280.0,255,44.29
584,584282.0,255,44.32
585,585282.0,255,44.34
586,586284.0,255,44.37
587,587285.0,255,44.39
588,588286.0,255,44.42
589,589288.0,255,44.44
590,590289.0,255,44.47
591,591291.0,255,44.49
592,592292.0,255,44.52
593,593294.0,255,44.54
594,594294.0,255,44.56
595,595296.0,255,44.58
596,596297.0,255,44.6
597,597299.0,255,44.62
598,598300.0,255,44.64
599,599302.0,255,44.66
600,600303.0,255,44.68
601,601305.0,255,44.69
602,602305.0,255,44.71
603,603307.0,255,44.73
604,604308.0,255,44.75
605,605309.0,255,44.76
606,606311.0,255,44.78
607,607312.0,255,44.8
608,608314.0,255,44.81
609,609315.0,255,44.83
610,610317.0,255,44.84
611,611317.0,255,44.86
612,612319.0,255,44.87
613,613320.0,255,44.88
614,614322.0,255,44.9
615,615323.0,255,44.91
616,616325.0,255,44.92
617,617326.0,255,44.93
618,618328.0,255,44.93
619,619328.0,255,44.94
620,620329.0,255,44.94
621,621331.0,255,44.96
622,622332.0,255,44.97
623,623334.0,255,44.98
624,624335.0,255,44.99
625,625337.0,255,45.0
626,626338.0,255,45.01
627,627339.0,255,45.03
628,628340.0,255,45.04
629,629342.0,255,45.05
630,630343.0,255,45.06
631,631345.0,255,45.07
632,632346.0,255,45.08
633,633348.0,255,45.09
634,634349.0,255,45.1
635,635350.0,255,45.11
636,636351.0,255,45.12
637,637352.0,255,45.13
638,638354.0,255,45.14
639,639355.0,255,45.14
640,640357.0,255,45.15
641,641358.0,255,45.15
642,642360.0,255,45.15
643,643361.0,255,45.15
644,644362.0,255,45.15
645,645363.0,255,45.14
646,646365.0,255,45.14
647,647366.0,255,45.13
648,648368.0,255,45.13
649,649369.0,255,45.13
650,650371.0,255,45.13
651,651372.0,255,45.12
652,652374.0,255,45.11
653,653374.0,255,45.11
654,654375.0,255,45.11
655,655377.0,255,45.1
656,656378.0,255,45.1
657,657380.0,255,45.1
658,658381.0,255,45.1
659,659383.0,255,45.1
660,660384.0,255,45.09
661,661385.0,255,45.09
662,662386.0,255,45.08
663,663388.0,255,45.08
664,664389.0,255,45.07
665,665391.0,255,45.07
666,666392.0,255,45.06
667,667394.0,255,45.06
668,668395.0,255,45.06
669,669396.0,255,45.05
670,670397.0,255,45.04
671,671398.0,255,45.03
672,672400.0,255,45.02
673,673401.0,255,45.0
674,674403.0,255,44.96
675,675404.0,255,44.93
676,676406.0,255,44.91
677,677407.0,255,44.89
678,678408.0,255,44.88
679,679409.0,255,44.88
680,680411.0,255,44.88
681,681412.0,255,44.9
682,682414.0,255,44.91
683,683415.0,255,44.92
684,684417.0,255,44.94
685,685418.0,255,44.96
686,686418.0,255,44.99
687,687420.0,255,45.01
688,688421.0,255,45.04
689,689423.0,255,45.07
690,690424.0,255,45.1
691,691426.0,255,45.13
692,692427.0,255,45.17
693,693429.0,255,45.22
694,694430.0,255,45.27
695,695431.0,255,45.31
696,696432.0,255,45.36
697,697434.0,255,45.41
698,698435.0,255,45.45
699,699437.0,255,45.49
700,700438.0,255,45.54
701,701440.0,255,45.58
702,702441.0,255,45.64
703,703441.0,255,45.7
704,704443.0,255,45.76
705,705444.0,255,45.81
706,706446.0,255,45.88
707,707447.0,255,45.95
708,708449.0,255,46.01
709,709450.0,255,46.07
710,710452.0,255,46.14
711,711452.0,255,46.21
712,712454.0,255,46.28
713,713455.0,255,46.34
714,714457.0,255,46.41
715,715458.0,255,46.48
716,716460.0,255,46.54
717,717461.0,255,46.61
718,718462.0,255,46.67
719,719464.0,255,46.74
720,720464.0,255,46.81
721,721466.0,255,46.88
722,722467.0,255,46.94
723,723469.0,255,47.01
724,724470.0,255,47.07
725,725472.0,255,47.13
726,726473.0,255,47.19
727,727475.0,255,47.25
728,728475.0,255,47.31
729,729477.0,255,47.37
730,730478.0,255,47.42
731,731480.0,255,47.48
732,732481.0,255,47.55
733,733483.0,255,47.6
734,734484.0,255,47.65
735,735485.0,255,47.7
736,736486.0,255,47.76
737,737487.0,255,47.81
738,738489.0,255,47.85
739,739490.0,255,47.9
740,740492.0,255,47.94
741,741493.0,255,47.98
742,742495.0,255,48.03
743,743496.0,255,48.07
744,744497.0,255,48.11
745,745498.0,255,48.15
746,746000.0,255,48.16
747,747001.0,255,48.21
748,748002.0,255,48.25
749,749003.0,255,48.3
750,750005.0,255,48.35
751,751006.0,255,48.39
752,752008.0,255,48.43
753,753009.0,255,48.48
754,754011.0,255,48.52
755,755012.0,255,48.56
756,756014.0,255,48.6
757,757014.0,255,48.64
758,758016.0,255,48.68
759,759017.0,255,48.71
760,760018.0,255,48.74
761,761020.0,255,48.78
762,762021.0,255,48.81
763,763023.0,255,48.85
764,764024.0,255,48.88
765,765025.0,255,48.91
