index,ms,calef,TempC
0,5999.0,5,5.87
1,10000.0,200,17.15
2,15001.0,200,21.44
3,20002.0,200,23.51
4,25004.0,200,24.86
5,30005.0,200,25.76
6,35006.0,200,26.48
7,40007.0,200,26.97
8,45007.0,200,27.4
9,50009.0,200,27.79
10,55010.0,200,28.16
11,60011.0,200,28.5
12,65012.0,200,28.76
13,70013.0,200,29.01
14,75015.0,200,29.27
15,80016.0,200,29.52
16,85017.0,200,29.74
17,90018.0,200,30.0
18,95019.0,200,30.23
19,100020.0,200,30.43
20,105021.0,200,30.62
21,110022.0,200,30.81
22,115023.0,200,30.96
23,120025.0,200,31.12
24,125026.0,200,31.29
25,130027.0,200,31.43
26,135028.0,200,31.57
27,140029.0,200,31.69
28,145031.0,200,31.83
29,150032.0,200,31.97
30,155033.0,200,32.08
31,160034.0,200,32.16
32,165035.0,200,32.25
33,170036.0,200,32.34
34,175037.0,200,32.44
35,180038.0,200,32.52
36,185039.0,200,32.59
37,190041.0,200,32.65
38,195042.0,200,32.7
39,200043.0,200,32.8
40,205044.0,200,32.87
41,210045.0,200,32.96
42,215047.0,200,33.03
43,220048.0,200,33.08
44,225049.0,200,33.17
45,230050.0,200,33.25
46,235052.0,200,33.31
47,240053.0,200,33.38
48,245053.0,200,33.45
49,250054.0,200,33.52
50,255055.0,200,33.6
51,260057.0,200,33.65
52,265058.0,200,33.71
53,270059.0,200,33.77
54,275060.0,200,33.81
55,280061.0,200,33.86
56,285063.0,200,33.92
57,290064.0,200,33.98
58,295065.0,200,34.01
59,300066.0,200,34.05
60,305068.0,200,34.1
61,310069.0,200,34.14
62,315070.0,200,34.17
63,320071.0,200,34.23
64,325072.0,200,34.29
65,330073.0,200,34.33
66,335074.0,200,34.37
67,340075.0,200,34.42
68,345076.0,200,34.46
69,350077.0,200,34.51
70,355079.0,200,34.57
71,360080.0,200,34.62
72,365081.0,200,34.69
73,370082.0,200,34.74
74,375084.0,200,34.79
75,380085.0,200,34.84
76,385086.0,200,34.89
77,390087.0,200,34.91
78,395088.0,200,34.96
79,400090.0,200,35.0
80,405091.0,200,35.03
81,410091.0,200,35.07
82,415092.0,200,35.11
83,420093.0,200,35.15
84,425095.0,200,35.18
85,430096.0,200,35.23
86,435097.0,200,35.27
87,440098.0,200,35.32
88,445100.0,200,35.36
89,450101.0,200,35.4
90,455102.0,200,35.42
91,460103.0,200,35.45
92,465104.0,200,35.49
93,470106.0,200,35.52
94,475107.0,200,35.54
95,480108.0,200,35.56
96,485109.0,200,35.57
97,490110.0,200,35.58
98,495111.0,200,35.61
99,500112.0,200,35.61
100,505113.0,200,35.64
101,510114.0,200,38.21
102,515116.0,200,40.74
103,520117.0,200,43.22
104,525118.0,200,45.66
105,530119.0,200,45.49
106,535120.0,200,45.33
107,540122.0,200,45.18
108,545123.0,200,45.05
109,550124.0,200,44.94
110,555125.0,200,44.8
111,560126.0,200,44.66
112,565128.0,200,44.52
113,570129.0,200,44.41
114,575130.0,200,44.32
115,580130.0,200,44.24
116,585132.0,200,44.18
117,590133.0,200,44.12
118,595134.0,200,46.42
119,600135.0,200,46.24
120,605136.0,200,48.5
121,610138.0,200,50.71
122,615139.0,200,50.46
123,620140.0,200,50.26
124,625141.0,200,50.08
125,630142.0,200,49.94
126,635144.0,200,49.81
127,640145.0,200,49.71
128,645146.0,200,49.61
129,650147.0,200,49.5
130,655149.0,200,49.4
131,660149.0,200,49.31
132,665150.0,200,49.21
133,670151.0,200,49.12
134,675152.0,200,49.05
135,680154.0,200,49.01
136,685155.0,200,48.98
137,690156.0,200,48.92
138,695157.0,200,48.87
139,700158.0,200,48.81
140,705160.0,200,48.77
141,710161.0,200,48.72
142,715162.0,200,48.67
143,720163.0,200,48.61
144,725165.0,200,48.54
145,730166.0,200,48.5
