index,ms,calef,TempC
0,6006.0,255,19.01
1,7007.0,255,19.28
2,8008.0,255,19.5
3,9010.0,255,19.66
4,1000.0,255,12.25
5,2000.0,255,15.53
6,3002.0,255,16.96
7,4003.0,255,17.76
8,5005.0,255,18.28
9,6006.0,255,18.63
10,7007.0,255,18.89
11,8008.0,255,19.1
12,9010.0,255,19.25
13,10011.0,255,19.41
14,11013.0,255,19.51
15,12013.0,255,19.6
16,13015.0,255,19.68
17,14016.0,255,19.76
18,15017.0,255,19.81
19,16019.0,255,19.86
20,17020.0,255,19.91
21,18021.0,255,19.96
22,19022.0,255,20.01
23,20024.0,255,20.05
24,21025.0,255,20.08
25,22027.0,255,20.1
26,23028.0,255,20.12
27,24029.0,255,20.16
28,25030.0,255,20.18
29,26032.0,255,20.21
30,27033.0,255,20.24
31,28035.0,255,20.26
32,29036.0,255,20.28
33,30036.0,255,20.3
34,31038.0,255,20.33
35,32039.0,255,20.35
36,33041.0,255,20.37
37,34042.0,255,20.39
38,35044.0,255,20.41
39,36044.0,255,20.42
40,37046.0,255,20.43
41,38047.0,255,20.45
42,39049.0,255,20.47
43,40050.0,255,20.48
44,41052.0,255,20.5
45,42052.0,255,20.52
46,43054.0,255,20.54
47,44055.0,255,20.55
48,45057.0,255,20.57
49,46058.0,255,20.58
50,47059.0,255,20.6
51,48060.0,255,20.61
52,49061.0,255,20.62
53,50063.0,255,20.63
54,51064.0,255,20.65
55,52066.0,255,20.66
56,53067.0,255,20.67
57,54068.0,255,20.68
58,55069.0,255,20.69
59,56071.0,255,20.7
60,57072.0,255,20.71
61,58074.0,255,20.72
62,59075.0,255,20.73
63,60077.0,255,20.74
64,61077.0,255,20.75
65,62078.0,255,20.75
66,63080.0,255,20.76
67,64081.0,255,20.77
68,65083.0,255,20.78
69,66084.0,255,20.78
70,67085.0,255,20.79
71,68086.0,255,20.8
72,69088.0,255,20.81
73,70089.0,255,20.81
74,71091.0,255,20.82
75,72092.0,255,20.82
76,73093.0,255,20.83
77,74094.0,255,20.84
78,75096.0,255,20.84
79,76097.0,255,20.85
80,77099.0,255,20.85
81,78100.0,255,20.86
82,79100.0,255,20.86
83,80102.0,255,20.87
84,81103.0,255,20.87
85,82105.0,255,20.88
86,83106.0,255,20.88
87,84108.0,255,20.89
88,85108.0,255,20.89
89,86110.0,255,20.9
90,87111.0,255,20.9
91,88113.0,255,20.9
92,89114.0,255,20.91
93,90116.0,255,20.92
94,91116.0,255,20.92
95,92118.0,255,20.93
96,93119.0,255,20.93
97,94120.0,255,20.93
98,95122.0,255,20.94
99,96123.0,255,20.94
100,97124.0,255,20.94
101,98125.0,255,20.94
102,99127.0,255,20.95
103,100128.0,255,20.95
104,101130.0,255,20.95
105,102131.0,255,20.96
106,103133.0,255,20.96
107,104133.0,255,20.97
108,105135.0,255,20.98
109,106136.0,255,20.98
110,107138.0,255,20.99
111,108139.0,255,20.99
112,109140.0,255,20.99
113,110142.0,255,20.99
114,111143.0,255,20.99
115,112145.0,255,21.0
116,113145.0,255,21.0
117,114147.0,255,21.0
118,115148.0,255,21.0
119,116150.0,255,21.0
120,117151.0,255,21.01
121,118153.0,255,21.02
122,119154.0,255,21.03
123,120156.0,255,21.04
124,121156.0,255,21.04
125,122158.0,255,21.05
126,123159.0,255,21.05
127,124161.0,255,21.06
128,125162.0,255,21.07
129,126163.0,255,21.07
130,127165.0,255,21.07
131,128166.0,255,21.07
132,129168.0,255,21.07
133,130168.0,255,21.08
134,131170.0,255,21.08
135,132171.0,255,21.08
136,133173.0,255,21.09
137,134174.0,255,21.09
138,135176.0,255,21.1
139,136177.0,255,21.1
140,137179.0,255,21.1
141,138179.0,255,21.11
142,139181.0,255,21.11
143,140182.0,255,21.11
144,141184.0,255,21.12
145,142185.0,255,21.12
146,143186.0,255,21.12
147,144188.0,255,21.11
148,145189.0,255,21.12
149,146191.0,255,21.12
150,147191.0,255,21.12
151,148193.0,255,21.13
152,149194.0,255,21.13
153,150196.0,255,21.13
154,151197.0,255,21.13
155,152199.0,255,21.13
156,153200.0,255,21.14
157,154202.0,255,21.15
158,155203.0,255,21.15
159,156204.0,255,21.15
160,157205.0,255,21.15
161,158206.0,255,21.15
162,159208.0,255,21.16
163,160209.0,255,21.16
164,161211.0,255,21.16
165,162212.0,255,21.16
166,163214.0,255,21.15
167,164215.0,255,21.16
168,165216.0,255,21.17
169,166217.0,255,21.17
170,167219.0,255,21.17
171,168220.0,255,21.17
172,169222.0,255,21.18
173,170223.0,255,21.19
174,171225.0,255,21.2
175,172226.0,255,21.21
176,173228.0,255,21.21
177,174228.0,255,21.22
178,175229.0,255,21.22
179,176231.0,255,21.22
180,177232.0,255,21.23
181,178234.0,255,21.24
182,179235.0,255,21.24
183,180237.0,255,21.24
184,181238.0,255,21.25
185,182239.0,255,21.26
186,183240.0,255,21.27
187,184242.0,255,21.27
188,185243.0,255,21.28
189,186245.0,255,21.28
190,187246.0,255,21.29
191,188248.0,255,21.3
192,189249.0,255,21.3
193,190251.0,255,21.31
194,191251.0,255,21.31
195,192252.0,255,21.32
196,193254.0,255,21.33
197,194255.0,255,21.33
198,195257.0,255,21.34
199,196258.0,255,21.34
200,197260.0,255,21.35
201,198261.0,255,21.35
202,199262.0,255,21.36
203,200263.0,255,21.36
204,201265.0,255,21.36
205,202266.0,255,21.37
206,203268.0,255,21.37
207,204269.0,255,21.38
208,205271.0,255,21.38
209,206272.0,255,21.39
210,207273.0,255,21.39
211,208274.0,255,21.39
212,209275.0,255,21.4
213,210277.0,255,21.4
214,211278.0,255,21.41
215,212280.0,255,21.41
216,213281.0,255,21.41
217,214283.0,255,21.42
218,215284.0,255,21.42
219,216286.0,255,21.42
220,217286.0,255,21.43
221,218288.0,255,21.43
222,219289.0,255,21.43
223,220291.0,255,21.43
224,221292.0,255,21.44
225,222294.0,255,21.44
226,223295.0,255,21.44
227,224296.0,255,21.45
228,225297.0,255,21.45
229,226298.0,255,21.45
230,227300.0,255,21.45
231,228301.0,255,21.46
232,229303.0,255,21.46
233,230304.0,255,21.46
234,231306.0,255,21.46
235,232307.0,255,21.47
236,233309.0,255,21.47
237,234309.0,255,21.47
238,235311.0,255,21.47
239,236312.0,255,21.47
240,237314.0,255,21.48
241,238315.0,255,21.48
242,239316.0,255,21.48
243,240318.0,255,21.48
244,241319.0,255,21.48
245,242321.0,255,21.49
246,243321.0,255,21.49
247,244323.0,255,21.49
248,245324.0,255,21.49
249,246326.0,255,21.49
250,247327.0,255,21.5
251,248329.0,255,21.5
252,249330.0,255,21.5
253,250332.0,255,21.5
254,251333.0,255,21.5
255,252334.0,255,21.5
256,253335.0,255,21.5
257,254337.0,255,21.51
258,255338.0,255,21.51
259,256339.0,255,21.51
260,257341.0,255,21.51
261,258342.0,255,21.51
262,259344.0,255,21.51
263,260345.0,255,21.51
264,261346.0,255,21.52
265,262347.0,255,21.52
266,263349.0,255,21.52
267,264350.0,255,21.52
268,265352.0,255,21.52
269,266353.0,255,21.52
270,267355.0,255,21.52
271,268356.0,255,21.52
272,269358.0,255,21.52
273,270358.0,255,21.53
274,271360.0,255,21.53
275,272361.0,255,21.53
276,273362.0,255,21.53
277,274364.0,255,21.53
278,275365.0,255,21.53
279,276367.0,255,21.53
280,277368.0,255,21.53
281,278370.0,255,21.53
