index,ms,calef,TempC
0,100002.0,255,24.02
1,4002.0,255,24.02
2,1000.0,255,23.53
3,2000.0,255,23.53
4,3002.0,255,23.53
5,4002.0,255,24.02
6,5004.0,255,24.02
7,6005.0,255,24.02
8,7006.0,255,24.02
9,8007.0,255,24.02
10,9008.0,255,24.5
11,10009.0,255,24.5
12,11011.0,255,24.5
13,12011.0,255,24.5
14,13012.0,255,24.5
15,14013.0,255,24.5
16,15014.0,255,24.5
17,16016.0,255,24.5
18,17016.0,255,24.5
19,18018.0,255,24.5
20,19019.0,255,24.5
21,20020.0,255,24.5
22,21021.0,255,24.5
23,22023.0,255,24.5
24,23023.0,255,24.99
25,24025.0,255,24.99
26,25026.0,255,24.99
27,26027.0,255,24.99
28,27028.0,255,24.99
29,28028.0,255,24.99
30,29030.0,255,24.99
31,30031.0,255,24.99
32,31032.0,255,24.99
33,32033.0,255,25.48
34,33035.0,255,24.99
35,34035.0,255,25.48
36,35037.0,255,25.48
37,36038.0,255,25.48
38,37039.0,255,25.48
39,38040.0,255,25.48
40,39042.0,255,25.48
41,40042.0,255,25.48
42,41043.0,255,25.97
43,42044.0,255,25.48
44,43045.0,255,25.48
45,44047.0,255,25.97
46,45047.0,255,25.97
47,46049.0,255,25.97
48,47050.0,255,25.97
49,48051.0,255,25.97
50,49052.0,255,25.97
51,50054.0,255,25.97
52,51054.0,255,25.97
53,52056.0,255,26.46
54,53057.0,255,26.46
55,54057.0,255,26.46
56,55059.0,255,26.46
57,56060.0,255,26.46
58,57061.0,255,26.46
59,58062.0,255,26.46
60,59063.0,255,26.46
61,60064.0,255,26.46
62,61066.0,255,26.46
63,62066.0,255,26.46
64,63068.0,255,26.95
65,64069.0,255,26.95
66,65070.0,255,26.95
67,66071.0,255,26.95
68,67073.0,255,27.44
69,68073.0,255,27.44
70,69074.0,255,27.44
71,70076.0,255,27.44
72,71076.0,255,27.44
73,72078.0,255,27.44
74,73079.0,255,27.44
75,74080.0,255,27.44
76,75081.0,255,27.44
77,76082.0,255,27.93
78,77083.0,255,27.93
79,78085.0,255,27.93
80,79085.0,255,27.93
81,80087.0,255,27.93
82,81088.0,255,27.93
83,82088.0,255,27.93
84,83090.0,255,27.93
85,84091.0,255,27.93
86,85092.0,255,28.41
87,86093.0,255,27.93
88,87095.0,255,28.41
89,88095.0,255,28.41
90,89097.0,255,28.41
91,90098.0,255,28.41
92,91099.0,255,28.41
93,92100.0,255,28.41
94,93101.0,255,28.41
95,94102.0,255,28.41
96,95104.0,255,28.41
97,96104.0,255,28.41
98,97105.0,255,28.41
99,98107.0,255,28.41
100,99107.0,255,28.9
101,100109.0,255,28.9
102,101110.0,255,28.9
103,102111.0,255,28.9
104,103112.0,255,28.9
105,104114.0,255,28.9
106,105114.0,255,28.9
107,106116.0,255,28.9
108,107117.0,255,29.39
109,108118.0,255,29.39
110,109119.0,255,28.9
111,110120.0,255,29.39
112,111122.0,255,29.39
113,112122.0,255,29.39
114,113124.0,255,29.88
115,114125.0,255,29.39
116,115126.0,255,29.39
117,116127.0,255,29.88
118,117129.0,255,29.88
119,118129.0,255,29.88
120,119131.0,255,29.88
121,120132.0,255,29.88
122,121133.0,255,29.88
123,122134.0,255,29.88
124,123136.0,255,29.88
125,124136.0,255,29.88
126,125137.0,255,30.37
127,126139.0,255,30.37
128,127140.0,255,30.37
129,128141.0,255,30.37
130,129142.0,255,30.37
131,130144.0,255,30.37
132,131144.0,255,30.37
133,132146.0,255,30.37
134,133147.0,255,30.86
135,134148.0,255,30.86
136,135149.0,255,30.86
137,136151.0,255,30.86
138,137151.0,255,30.86
139,138152.0,255,30.86
140,139154.0,255,30.86
141,140155.0,255,30.86
142,141156.0,255,30.86
143,142157.0,255,30.86
144,143159.0,255,30.86
145,144159.0,255,30.86
146,145161.0,255,30.86
147,146162.0,255,30.86
148,147163.0,255,30.86
149,148164.0,255,31.35
150,149166.0,255,31.35
151,150166.0,255,31.35
152,151168.0,255,31.35
153,152169.0,255,31.35
154,153169.0,255,31.35
155,154171.0,255,31.35
156,155172.0,255,31.35
157,156174.0,255,31.35
158,157174.0,255,31.35
159,158176.0,255,31.35
160,159177.0,255,31.35
161,160178.0,255,31.84
162,161179.0,255,31.84
163,162181.0,255,31.35
164,163181.0,255,31.35
165,164183.0,255,31.84
166,165184.0,255,31.84
167,166184.0,255,31.84
168,167186.0,255,31.84
169,168187.0,255,31.84
170,169189.0,255,31.84
171,170189.0,255,31.84
172,171191.0,255,31.84
173,172192.0,255,32.32
174,173193.0,255,32.32
175,174194.0,255,32.32
176,175196.0,255,32.32
177,176196.0,255,32.32
178,177198.0,255,32.32
179,178199.0,255,32.32
180,179200.0,255,32.32
181,180201.0,255,32.32
182,181202.0,255,32.32
183,182203.0,255,32.32
184,183204.0,255,32.32
185,184206.0,255,32.32
186,185207.0,255,32.32
187,186208.0,255,32.32
188,187209.0,255,32.32
189,188211.0,255,32.32
190,189211.0,255,32.32
191,190213.0,255,32.32
192,191214.0,255,32.81
193,192215.0,255,32.81
194,193216.0,255,32.81
195,194217.0,255,32.81
196,195218.0,255,32.81
197,196219.0,255,32.81
198,197221.0,255,32.81
199,198222.0,255,32.81
200,199223.0,255,32.81
201,200224.0,255,32.81
202,201226.0,255,32.81
203,202226.0,255,32.81
204,203228.0,255,32.81
205,204229.0,255,32.81
206,205230.0,255,32.81
207,206231.0,255,33.3
208,207233.0,255,33.3
209,208233.0,255,33.3
210,209234.0,255,33.3
211,210236.0,255,33.3
212,211237.0,255,33.3
213,212238.0,255,33.3
214,213239.0,255,33.3
215,214241.0,255,33.3
216,215241.0,255,33.3
217,216243.0,255,33.3
218,217244.0,255,33.3
219,218245.0,255,33.3
220,219246.0,255,33.3
221,220248.0,255,33.3
222,221248.0,255,33.3
223,222249.0,255,33.79
224,223251.0,255,33.3
225,224252.0,255,33.3
226,225253.0,255,33.3
227,226254.0,255,33.3
228,227256.0,255,33.3
229,228256.0,255,33.79
230,229258.0,255,33.3
231,230259.0,255,33.79
232,231260.0,255,33.79
233,232261.0,255,33.79
234,233263.0,255,33.79
235,234263.0,255,33.79
236,235265.0,255,33.79
237,236266.0,255,33.79
238,237267.0,255,33.79
239,238268.0,255,33.79
240,239269.0,255,33.79
241,240271.0,255,33.79
242,241271.0,255,33.79
243,242273.0,255,33.79
244,243274.0,255,33.79
245,244275.0,255,33.79
246,245276.0,255,33.79
247,246278.0,255,33.79
248,247278.0,255,33.79
249,248280.0,255,33.79
250,249281.0,255,33.79
251,250281.0,255,33.79
252,251283.0,255,33.79
253,252284.0,255,34.28
254,253286.0,255,34.28
255,254286.0,255,34.28
256,255288.0,255,34.28
257,256289.0,255,33.79
258,257290.0,255,34.28
259,258291.0,255,34.28
260,259293.0,255,34.77
261,260293.0,255,34.77
262,261295.0,255,34.28
263,262296.0,255,34.77
264,263297.0,255,34.77
265,264298.0,255,34.77
266,265299.0,255,34.77
267,266301.0,255,34.77
268,267301.0,255,34.77
269,268303.0,255,34.77
270,269304.0,255,34.77
271,270305.0,255,34.77
272,271306.0,255,34.77
273,272308.0,255,34.77
274,273308.0,255,34.77
275,274310.0,255,34.77
276,275311.0,255,34.77
277,276312.0,255,34.77
278,277313.0,255,34.77
279,278315.0,255,34.77
280,279316.0,255,34.77
281,280316.0,255,34.77
282,281318.0,255,34.77
283,282319.0,255,34.77
284,283320.0,255,34.77
285,284321.0,255,34.77
286,285323.0,255,34.77
287,286323.0,255,34.77
288,287325.0,255,34.77
289,288326.0,255,34.77
290,289327.0,255,34.77
291,290328.0,255,34.77
292,291330.0,255,34.77
293,292331.0,255,34.77
294,293331.0,255,34.77
295,294333.0,255,34.77
296,295334.0,255,34.77
297,296335.0,255,34.77
298,297336.0,255,34.77
299,298338.0,255,35.26
300,299338.0,255,34.77
301,300340.0,255,35.26
302,301341.0,255,35.26
303,302342.0,255,35.26
304,303343.0,255,35.26
305,304345.0,255,35.26
306,305346.0,255,35.26
307,306347.0,255,35.75
308,307348.0,255,35.26
309,308349.0,255,35.75
310,309350.0,255,35.26
311,310351.0,255,35.26
312,311353.0,255,35.26
313,312353.0,255,35.26
314,313355.0,255,35.26
315,314356.0,255,35.26
316,315357.0,255,35.26
317,316358.0,255,35.26
318,317360.0,255,35.26
319,318361.0,255,35.26
320,319362.0,255,35.26
321,320363.0,255,35.26
322,321364.0,255,35.26
323,322365.0,255,35.26
324,323366.0,255,35.26
325,324368.0,255,35.26
326,325368.0,255,35.75
327,326370.0,255,35.26
328,327371.0,255,35.26
329,328372.0,255,35.26
330,329373.0,255,35.26
331,330375.0,255,35.26
332,331376.0,255,35.26
333,332377.0,255,35.26
334,333378.0,255,35.75
335,334380.0,255,35.75
336,335380.0,255,35.75
337,336381.0,255,35.75
338,337383.0,255,35.75
339,338383.0,255,35.75
340,339385.0,255,35.75
341,340386.0,255,35.75
342,341387.0,255,35.75
343,342388.0,255,35.75
344,343390.0,255,35.75
345,344391.0,255,35.75
346,345392.0,255,35.75
347,346393.0,255,35.75
348,347395.0,255,35.75
349,348395.0,255,35.75
350,349396.0,255,35.75
351,350398.0,255,35.75
352,351398.0,255,35.75
353,352400.0,255,35.75
354,353401.0,255,35.75
355,354402.0,255,35.75
356,355403.0,255,35.75
357,356405.0,255,35.75
358,357405.0,255,35.75
359,358407.0,255,35.75
360,359408.0,255,35.75
361,360410.0,255,35.75
362,361410.0,255,35.75
363,362412.0,255,35.75
364,363413.0,255,35.75
365,364413.0,255,35.75
366,365415.0,255,35.75
367,366416.0,255,36.23
368,367417.0,255,36.23
369,368418.0,255,35.75
370,369420.0,255,36.23
371,370420.0,255,36.23
372,371422.0,255,36.23
373,372423.0,255,36.23
374,373425.0,255,36.23
375,374425.0,255,36.23
376,375427.0,255,36.23
377,376428.0,255,36.23
378,377428.0,255,36.23
379,378430.0,255,36.23
380,379431.0,255,36.23
381,380432.0,255,36.23
382,381433.0,255,36.23
383,382435.0,255,36.23
384,383435.0,255,36.23
385,384437.0,255,36.23
386,385438.0,255,36.23
387,386440.0,255,36.23
388,387440.0,255,36.23
389,388442.0,255,36.23
390,389443.0,255,36.23
391,390444.0,255,36.23
392,391445.0,255,36.23
393,392446.0,255,36.23
394,393447.0,255,36.23
395,394448.0,255,36.23
396,395450.0,255,36.72
397,396450.0,255,36.72
398,397452.0,255,36.23
399,398453.0,255,36.23
400,399455.0,255,36.23
401,400455.0,255,36.72
402,401457.0,255,36.23
403,402458.0,255,36.72
404,403459.0,255,36.23
405,404460.0,255,36.23
406,405462.0,255,36.23
407,406462.0,255,36.23
408,407463.0,255,36.23
409,408465.0,255,36.23
410,409465.0,255,36.23
411,410467.0,255,36.23
412,411468.0,255,36.23
413,412470.0,255,36.23
414,413470.0,255,36.23
415,414472.0,255,36.72
416,415473.0,255,36.72
417,416474.0,255,36.72
418,417475.0,255,36.72
419,418477.0,255,36.72
420,419477.0,255,36.72
421,420478.0,255,36.72
422,421480.0,255,36.72
423,422480.0,255,36.72
424,423482.0,255,36.72
425,424483.0,255,36.72
426,425484.0,255,36.72
427,426485.0,255,36.72
428,427487.0,255,36.72
429,428488.0,255,36.72
430,429489.0,255,36.72
431,430490.0,255,36.72
432,431492.0,255,36.72
433,432492.0,255,36.72
434,433494.0,255,36.72
435,434495.0,255,36.72
436,435495.0,255,37.21
437,436497.0,255,37.21
438,437498.0,255,37.21
439,438499.0,255,37.21
440,439001.0,255,37.21
441,440001.0,255,37.21
442,441003.0,255,37.21
443,442004.0,255,37.21
444,443004.0,255,37.21
445,444006.0,255,37.21
446,445007.0,255,37.21
447,446009.0,255,37.21
448,447009.0,255,37.21
449,448011.0,255,37.21
450,449012.0,255,37.21
451,450013.0,255,37.21
452,451014.0,255,37.21
453,452016.0,255,37.21
454,453016.0,255,37.21
455,454018.0,255,37.21
456,455019.0,255,37.21
457,456019.0,255,37.21
458,457021.0,255,37.21
459,458022.0,255,37.21
460,459024.0,255,37.21
461,460024.0,255,37.21
462,461026.0,255,37.7
463,462027.0,255,37.21
464,463028.0,255,37.21
465,464029.0,255,37.21
466,465031.0,255,37.21
467,466031.0,255,37.21
468,467033.0,255,37.7
469,468034.0,255,37.7
470,469035.0,255,37.7
471,470036.0,255,37.21
472,471037.0,255,37.7
473,472039.0,255,37.7
474,473039.0,255,37.7
475,474041.0,255,37.7
476,475042.0,255,37.7
477,476043.0,255,37.7
478,477044.0,255,37.7
479,478046.0,255,37.7
480,479046.0,255,37.7
481,480048.0,255,37.7
482,481049.0,255,37.7
483,482050.0,255,37.7
484,483051.0,255,37.7
485,484052.0,255,37.7
486,485054.0,255,37.7
487,486054.0,255,37.7
488,487056.0,255,37.7
489,488057.0,255,37.7
490,489058.0,255,37.7
491,490059.0,255,37.7
492,491061.0,255,37.7
493,492061.0,255,37.7
494,493063.0,255,37.7
495,494064.0,255,37.7
496,495065.0,255,37.7
497,496066.0,255,37.7
498,497068.0,255,37.7
499,498069.0,255,37.7
500,499069.0,255,37.7
501,500071.0,255,37.7
502,501072.0,255,37.7
503,502073.0,255,37.7
504,503074.0,255,37.7
505,504076.0,255,37.7
506,505076.0,255,37.7
507,506078.0,255,37.7
508,507079.0,255,37.7
509,508080.0,255,37.7
510,509081.0,255,37.7
511,510083.0,255,37.7
512,511084.0,255,37.7
513,512084.0,255,37.7
514,513086.0,255,37.7
515,514087.0,255,37.7
516,515088.0,255,37.7
517,516089.0,255,37.7
518,517091.0,255,37.7
519,518091.0,255,37.7
520,519093.0,255,37.7
521,520094.0,255,37.7
522,521095.0,255,37.7
523,522096.0,255,37.7
524,523098.0,255,37.7
525,524098.0,255,37.7
526,525100.0,255,37.7
527,526101.0,255,37.7
528,527102.0,255,37.7
529,528103.0,255,37.7
530,529104.0,255,37.7
531,530106.0,255,37.7
532,531106.0,255,37.7
533,532108.0,255,37.7
534,533109.0,255,37.7
535,534110.0,255,37.7
536,535111.0,255,37.7
537,536113.0,255,37.7
538,537113.0,255,37.7
539,538115.0,255,37.7
540,539116.0,255,37.7
541,540118.0,255,37.7
542,541118.0,255,37.7
543,542119.0,255,37.7
544,543121.0,255,37.7
545,544121.0,255,37.7
546,545123.0,255,37.7
547,546124.0,255,37.7
548,547125.0,255,38.19
549,548126.0,255,37.7
550,549128.0,255,38.19
551,550128.0,255,38.19
552,551130.0,255,37.7
553,552131.0,255,38.19
554,553133.0,255,37.7
555,554133.0,255,38.19
556,555134.0,255,38.19
557,556136.0,255,38.19
558,557136.0,255,38.19
559,558138.0,255,38.19
560,559139.0,255,38.19
561,560140.0,255,38.19
562,561141.0,255,38.19
563,562143.0,255,38.19
564,563143.0,255,38.19
565,564145.0,255,38.19
566,565146.0,255,38.19
567,566148.0,255,38.19
568,567148.0,255,38.19
569,568150.0,255,38.19
570,569151.0,255,38.19
571,570151.0,255,38.19
572,571153.0,255,38.19
573,572154.0,255,38.19
574,573155.0,255,38.19
575,574156.0,255,38.19
576,575158.0,255,38.19
577,576158.0,255,37.7
578,577160.0,255,37.7
579,578161.0,255,37.7
580,579163.0,255,37.7
581,580163.0,255,37.7
582,581165.0,255,37.7
583,582166.0,255,37.7
584,583166.0,255,37.7
585,584168.0,255,38.19
586,585169.0,255,38.19
587,586170.0,255,37.7
588,587171.0,255,38.19
589,588173.0,255,38.19
590,589173.0,255,38.19
591,590175.0,255,38.19
592,591176.0,255,38.19
593,592178.0,255,38.19
594,593178.0,255,38.19
595,594180.0,255,38.19
596,595181.0,255,38.19
597,596182.0,255,38.19
598,597183.0,255,38.19
599,598184.0,255,38.19
600,599185.0,255,38.19
601,600186.0,255,37.7
602,601188.0,255,37.7
603,602188.0,255,38.19
604,603190.0,255,38.19
605,604191.0,255,38.19
606,605193.0,255,38.19
607,606193.0,255,38.19
608,607195.0,255,38.19
609,608196.0,255,38.19
610,609197.0,255,38.19
611,610198.0,255,38.19
612,611200.0,255,38.19
613,612200.0,255,38.19
614,613201.0,255,38.19
615,614203.0,255,38.19
616,615203.0,255,38.19
617,616205.0,255,38.19
618,617206.0,255,38.19
619,618208.0,255,38.19
620,619208.0,255,38.19
621,620210.0,255,38.19
622,621211.0,255,38.19
623,622212.0,255,38.19
624,623213.0,255,38.68
625,624215.0,255,38.19
626,625215.0,255,38.19
627,626216.0,255,38.19
628,627218.0,255,38.19
629,628218.0,255,38.19
630,629220.0,255,38.19
631,630221.0,255,38.19
632,631222.0,255,38.19
633,632223.0,255,38.19
634,633225.0,255,38.19
635,634226.0,255,38.19
636,635227.0,255,38.19
637,636228.0,255,38.19
638,637230.0,255,38.19
639,638230.0,255,38.19
640,639232.0,255,38.68
641,640233.0,255,38.19
642,641233.0,255,38.19
643,642235.0,255,38.19
644,643236.0,255,38.19
645,644237.0,255,38.19
646,645238.0,255,38.68
647,646240.0,255,38.19
648,647241.0,255,38.19
649,648242.0,255,38.19
650,649243.0,255,38.19
651,650245.0,255,38.19
652,651245.0,255,38.19
653,652247.0,255,38.19
654,653248.0,255,38.19
655,654248.0,255,38.19
656,655250.0,255,38.19
657,656251.0,255,38.19
658,657252.0,255,38.19
659,658253.0,255,38.19
660,659255.0,255,38.19
661,660256.0,255,38.19
662,661257.0,255,38.19
663,662258.0,255,38.19
664,663260.0,255,38.19
665,664260.0,255,38.19
666,665262.0,255,38.19
667,666263.0,255,38.19
668,667264.0,255,38.19
669,668265.0,255,38.19
670,669266.0,255,38.19
671,670267.0,255,38.19
672,671268.0,255,38.19
673,672270.0,255,38.19
674,673270.0,255,38.68
675,674272.0,255,38.19
676,675273.0,255,38.68
677,676275.0,255,38.19
678,677275.0,255,38.19
679,678277.0,255,38.19
680,679278.0,255,38.19
681,680279.0,255,38.68
682,681280.0,255,38.68
683,682281.0,255,38.19
684,683282.0,255,38.19
685,684283.0,255,38.68
686,685285.0,255,38.68
687,686285.0,255,38.19
688,687287.0,255,38.19
689,688288.0,255,38.19
690,689290.0,255,38.19
691,690290.0,255,38.19
692,691292.0,255,38.19
693,692293.0,255,38.19
694,693294.0,255,38.19
695,694295.0,255,38.68
696,695297.0,255,38.68
697,696297.0,255,38.68
698,697298.0,255,38.19
699,698300.0,255,38.68
700,699300.0,255,38.68
701,700302.0,255,38.68
702,701303.0,255,38.68
703,702305.0,255,38.68
704,703305.0,255,38.68
705,704307.0,255,38.68
706,705308.0,255,38.68
707,706309.0,255,38.68
708,707310.0,255,38.68
709,708312.0,255,38.68
710,709312.0,255,38.68
711,710313.0,255,38.68
712,711315.0,255,38.68
713,712315.0,255,38.68
714,713317.0,255,38.68
715,714318.0,255,38.68
716,715319.0,255,38.68
717,716320.0,255,38.68
718,717322.0,255,38.68
719,718323.0,255,38.68
720,719324.0,255,38.68
721,720325.0,255,38.68
722,721327.0,255,38.68
723,722327.0,255,38.68
724,723329.0,255,38.68
725,724330.0,255,38.68
726,725330.0,255,38.68
727,726332.0,255,38.68
728,727333.0,255,38.68
729,728334.0,255,38.68
730,729335.0,255,38.68
731,730337.0,255,38.68
732,731338.0,255,38.68
733,732339.0,255,38.68
734,733340.0,255,38.68
735,734342.0,255,38.68
736,735342.0,255,38.68
737,736344.0,255,38.68
738,737345.0,255,38.68
739,738345.0,255,38.68
740,739347.0,255,38.68
741,740348.0,255,38.68
742,741349.0,255,38.68
743,742350.0,255,38.68
744,743352.0,255,38.68
745,744353.0,255,38.68
746,745354.0,255,38.68
747,746355.0,255,38.68
748,747357.0,255,38.68
749,748357.0,255,39.17
750,749359.0,255,38.68
751,750360.0,255,39.17
752,751361.0,255,39.17
753,752362.0,255,38.68
754,753363.0,255,39.17
755,754364.0,255,39.17
756,755365.0,255,39.17
757,756367.0,255,39.17
758,757368.0,255,39.17
759,758369.0,255,39.17
760,759370.0,255,39.17
761,760372.0,255,39.17
762,761372.0,255,39.17
763,762374.0,255,39.17
764,763375.0,255,39.17
765,764376.0,255,39.17
766,765377.0,255,39.17
767,766379.0,255,39.17
768,767379.0,255,39.17
769,768380.0,255,39.17
770,769382.0,255,39.17
771,770383.0,255,39.17
772,771384.0,255,39.17
773,772385.0,255,39.17
774,773387.0,255,39.17
775,774387.0,255,39.17
776,775389.0,255,39.17
777,776390.0,255,39.17
778,777391.0,255,39.17
779,778392.0,255,39.17
780,779394.0,255,39.17
781,780394.0,255,39.17
782,781395.0,255,39.17
783,782397.0,255,39.17
784,783398.0,255,39.17
785,784399.0,255,39.66
786,785400.0,255,39.17
787,786402.0,255,39.17
788,787402.0,255,39.17
789,788404.0,255,39.17
790,789405.0,255,39.17
791,790406.0,255,39.17
792,791407.0,255,39.17
793,792409.0,255,39.17
794,793409.0,255,39.17
795,794411.0,255,39.17
796,795412.0,255,39.17
797,796413.0,255,39.17
798,797414.0,255,39.17
799,798415.0,255,39.17
800,799417.0,255,39.17
801,800417.0,255,39.17
802,801419.0,255,39.17
803,802420.0,255,39.17
804,803421.0,255,39.17
805,804422.0,255,39.17
806,805424.0,255,39.17
807,806425.0,255,39.17
808,807426.0,255,39.17
809,808427.0,255,39.17
810,809428.0,255,39.17
811,810429.0,255,39.17
812,811430.0,255,39.17
813,812432.0,255,39.17
814,813432.0,255,39.17
815,814434.0,255,39.17
816,815435.0,255,39.17
817,816436.0,255,39.17
818,817437.0,255,39.17
819,818439.0,255,39.17
820,819440.0,255,39.17
821,820441.0,255,39.17
822,821442.0,255,39.17
823,822444.0,255,39.17
824,823444.0,255,39.17
825,824445.0,255,39.17
826,825447.0,255,38.68
827,826447.0,255,39.17
828,827449.0,255,38.68
829,828450.0,255,39.17
830,829451.0,255,39.17
831,830452.0,255,39.17
832,831454.0,255,39.17
833,832455.0,255,39.17
834,833456.0,255,39.17
835,834457.0,255,39.17
836,835459.0,255,39.17
837,836459.0,255,39.17
838,837460.0,255,39.17
839,838462.0,255,39.17
840,839462.0,255,39.17
841,840464.0,255,39.17
842,841465.0,255,39.17
843,842466.0,255,39.17
844,843467.0,255,39.17
845,844469.0,255,39.17
846,845470.0,255,39.17
847,846471.0,255,39.17
848,847472.0,255,39.17
849,848474.0,255,39.17
850,849474.0,255,39.17
851,850476.0,255,39.17
852,851477.0,255,39.17
853,852477.0,255,39.66
854,853479.0,255,39.17
855,854480.0,255,39.17
856,855482.0,255,39.66
857,856482.0,255,39.17
858,857484.0,255,39.17
859,858485.0,255,39.17
860,859486.0,255,39.66
861,860487.0,255,39.66
862,861489.0,255,39.66
863,862489.0,255,39.66
864,863491.0,255,39.66
865,864492.0,255,39.66
866,865492.0,255,39.66
867,866494.0,255,39.66
868,867495.0,255,39.66
869,868496.0,255,39.66
870,869497.0,255,39.66
871,870499.0,255,39.66
872,871000.0,255,39.66
873,872001.0,255,39.66
874,873001.0,255,39.66
875,874003.0,255,39.66
876,875004.0,255,39.66
877,876005.0,255,39.66
878,877006.0,255,39.66
879,878008.0,255,39.66
880,879009.0,255,39.66
881,880010.0,255,39.66
882,881011.0,255,39.66
883,882013.0,255,39.66
884,883013.0,255,39.66
885,884015.0,255,39.66
886,885016.0,255,39.66
887,886017.0,255,39.66
888,887018.0,255,39.66
889,888019.0,255,39.66
890,889020.0,255,39.66
891,890021.0,255,39.66
892,891023.0,255,39.66
893,892023.0,255,39.66
894,893025.0,255,39.66
895,894026.0,255,39.66
896,895028.0,255,39.66
897,896028.0,255,39.66
898,897030.0,255,39.66
899,898031.0,255,39.66
900,899032.0,255,39.66
901,900033.0,255,39.66
902,901035.0,255,39.66
903,902035.0,255,39.66
904,903036.0,255,39.66
905,904038.0,255,39.66
906,905038.0,255,39.66
907,906040.0,255,39.66
908,907041.0,255,39.66
909,908042.0,255,39.66
910,909043.0,255,39.66
911,910045.0,255,40.14
912,911045.0,255,39.66
913,912047.0,255,39.66
914,913048.0,255,39.66
915,914050.0,255,39.66
916,915050.0,255,39.66
917,916051.0,255,39.66
918,917053.0,255,39.66
919,918053.0,255,39.66
920,919055.0,255,40.14
921,920056.0,255,39.66
922,921057.0,255,39.66
923,922058.0,255,40.14
924,923060.0,255,40.14
925,924060.0,255,40.14
926,925062.0,255,40.14
927,926063.0,255,40.14
928,927065.0,255,40.14
929,928065.0,255,40.14
930,929067.0,255,40.14
931,930068.0,255,40.14
932,931068.0,255,40.14
933,932070.0,255,40.14
934,933071.0,255,40.14
935,934072.0,255,40.14
936,935073.0,255,40.14
937,936075.0,255,40.14
938,937075.0,255,40.14
939,938077.0,255,40.14
940,939078.0,255,40.14
941,940080.0,255,40.14
942,941080.0,255,40.14
943,942082.0,255,40.14
944,943083.0,255,40.14
945,944083.0,255,40.14
946,945085.0,255,40.63
947,946086.0,255,40.14
948,947087.0,255,40.14
949,948088.0,255,40.14
950,949090.0,255,40.63
951,950090.0,255,40.14
952,951092.0,255,40.14
953,952093.0,255,40.14
954,953094.0,255,40.14
955,954095.0,255,40.14
956,955097.0,255,40.14
957,956098.0,255,40.14
958,957099.0,255,40.14
959,958100.0,255,40.14
960,959101.0,255,40.14
961,960102.0,255,40.14
962,961103.0,255,40.14
963,962105.0,255,40.14
964,963105.0,255,40.14
965,964107.0,255,40.14
966,965108.0,255,40.14
967,966109.0,255,40.14
968,967110.0,255,40.14
969,968112.0,255,40.14
970,969113.0,255,40.14
971,970114.0,255,40.14
972,971115.0,255,40.14
973,972116.0,255,40.14
974,973117.0,255,40.14
975,974118.0,255,40.14
976,975120.0,255,40.14
977,976120.0,255,40.14
978,977122.0,255,40.14
979,978123.0,255,40.14
980,979124.0,255,40.14
981,980125.0,255,40.14
982,981127.0,255,40.14
983,982128.0,255,40.14
984,983129.0,255,40.14
985,984130.0,255,40.14
986,985132.0,255,40.14
987,986132.0,255,40.14
988,987133.0,255,40.14
989,988135.0,255,40.14
990,989135.0,255,40.14
991,990137.0,255,40.14
992,991138.0,255,40.14
993,992139.0,255,40.14
994,993140.0,255,40.14
995,994142.0,255,39.66
996,995142.0,255,39.66
997,996144.0,255,39.66
998,997145.0,255,39.66
999,998147.0,255,40.14
1000,999147.0,255,40.14
1001,1000148.0,255,40.14
1002,1001150.0,255,40.14
1003,1002150.0,255,40.14
1004,1003152.0,255,40.14
1005,1004153.0,255,40.14
1006,1005155.0,255,40.14
1007,1006155.0,255,40.14
1008,1007157.0,255,40.14
1009,1008158.0,255,40.14
1010,1009160.0,255,40.14
1011,1010160.0,255,40.14
1012,1011162.0,255,40.14
1013,1012163.0,255,40.14
1014,1013164.0,255,40.14
1015,1014165.0,255,40.14
1016,1015166.0,255,40.14
1017,1016168.0,255,40.14
1018,1017168.0,255,40.14
1019,1018170.0,255,40.14
1020,1019171.0,255,40.14
1021,1020173.0,255,40.14
1022,1021173.0,255,40.14
1023,1022175.0,255,40.14
1024,1023176.0,255,40.14
1025,1024178.0,255,40.14
1026,1025178.0,255,40.63
1027,1026180.0,255,40.14
1028,1027181.0,255,40.14
1029,1028182.0,255,40.14
1030,1029183.0,255,40.63
1031,1030184.0,255,40.14
1032,1031186.0,255,40.14
1033,1032186.0,255,40.14
1034,1033188.0,255,40.14
1035,1034189.0,255,40.14
1036,1035191.0,255,40.14
1037,1036191.0,255,40.14
1038,1037193.0,255,40.14
1039,1038194.0,255,40.14
1040,1039196.0,255,40.14
1041,1040196.0,255,40.14
1042,1041198.0,255,40.14
1043,1042199.0,255,40.14
1044,1043200.0,255,40.14
1045,1044201.0,255,40.14
1046,1045202.0,255,40.14
1047,1046204.0,255,40.14
1048,1047204.0,255,40.14
1049,1048206.0,255,40.14
1050,1049207.0,255,40.14
1051,1050209.0,255,40.14
1052,1051209.0,255,40.14
1053,1052211.0,255,40.14
1054,1053212.0,255,40.14
1055,1054214.0,255,40.14
1056,1055214.0,255,40.14
1057,1056216.0,255,40.14
1058,1057217.0,255,40.14
1059,1058217.0,255,40.14
1060,1059219.0,255,40.14
1061,1060220.0,255,40.14
1062,1061222.0,255,40.14
1063,1062222.0,255,40.14
1064,1063224.0,255,40.14
1065,1064225.0,255,40.14
1066,1065227.0,255,40.14
1067,1066227.0,255,40.14
1068,1067229.0,255,40.14
1069,1068230.0,255,40.14
1070,1069232.0,255,40.14
1071,1070232.0,255,40.63
1072,1071234.0,255,40.14
1073,1072235.0,255,40.14
1074,1073235.0,255,40.14
1075,1074237.0,255,40.14
1076,1075238.0,255,40.63
1077,1076240.0,255,40.14
1078,1077240.0,255,40.14
1079,1078242.0,255,40.14
1080,1079243.0,255,40.14
1081,1080245.0,255,40.14
1082,1081245.0,255,40.14
1083,1082247.0,255,40.14
1084,1083248.0,255,40.14
1085,1084250.0,255,40.14
1086,1085250.0,255,40.14
1087,1086252.0,255,40.14
1088,1087253.0,255,40.14
1089,1088254.0,255,40.14
1090,1089255.0,255,40.14
1091,1090256.0,255,40.14
1092,1091258.0,255,40.14
1093,1092258.0,255,40.14
1094,1093260.0,255,40.14
1095,1094261.0,255,40.14
1096,1095263.0,255,39.66
1097,1096263.0,255,40.14
1098,1097265.0,255,39.66
1099,1098266.0,255,39.66
1100,1099268.0,255,39.66
1101,1100268.0,255,40.14
1102,1101270.0,255,40.14
1103,1102271.0,255,40.14
1104,1103272.0,255,40.14
1105,1104273.0,255,40.14
1106,1105274.0,255,40.14
1107,1106276.0,255,40.14
1108,1107276.0,255,40.14
1109,1108278.0,255,40.14
1110,1109279.0,255,40.14
1111,1110281.0,255,40.14
1112,1111281.0,255,40.14
1113,1112283.0,255,40.14
1114,1113284.0,255,40.14
1115,1114286.0,255,40.14
1116,1115286.0,255,40.14
1117,1116288.0,255,40.14
1118,1117289.0,255,40.14
1119,1118290.0,255,40.14
1120,1119291.0,255,40.14
1121,1120292.0,255,40.63
1122,1121294.0,255,40.14
1123,1122294.0,255,40.14
1124,1123296.0,255,40.14
1125,1124297.0,255,40.14
1126,1125299.0,255,40.14
1127,1126299.0,255,40.14
1128,1127301.0,255,40.14
1129,1128302.0,255,40.14
1130,1129304.0,255,40.14
1131,1130304.0,255,40.14
1132,1131305.0,255,40.14
1133,1132307.0,255,40.14
1134,1133308.0,255,40.14
1135,1134309.0,255,40.14
1136,1135310.0,255,40.14
1137,1136312.0,255,40.14
1138,1137312.0,255,40.14
1139,1138314.0,255,40.14
1140,1139315.0,255,40.14
1141,1140317.0,255,40.14
1142,1141317.0,255,40.14
1143,1142319.0,255,40.14
1144,1143320.0,255,40.14
1145,1144322.0,255,40.14
1146,1145322.0,255,40.14
1147,1146323.0,255,40.14
1148,1147325.0,255,40.14
1149,1148326.0,255,40.14
1150,1149327.0,255,40.14
1151,1150328.0,255,40.14
1152,1151330.0,255,40.14
1153,1152330.0,255,40.14
1154,1153332.0,255,40.14
1155,1154333.0,255,40.14
1156,1155335.0,255,40.14
1157,1156335.0,255,40.14
1158,1157337.0,255,40.14
1159,1158338.0,255,40.14
1160,1159340.0,255,40.14
1161,1160340.0,255,40.14
1162,1161341.0,255,39.66
1163,1162343.0,255,40.14
1164,1163344.0,255,40.14
1165,1164345.0,255,39.66
1166,1165346.0,255,40.14
1167,1166348.0,255,40.14
1168,1167348.0,255,39.66
1169,1168350.0,255,40.14
1170,1169351.0,255,40.14
1171,1170353.0,255,40.14
1172,1171353.0,255,40.14
1173,1172355.0,255,40.14
1174,1173356.0,255,40.14
1175,1174358.0,255,40.14
1176,1175358.0,255,40.14
1177,1176359.0,255,40.14
1178,1177361.0,255,40.14
1179,1178362.0,255,40.14
1180,1179363.0,255,39.66
1181,1180364.0,255,39.66
1182,1181366.0,255,39.66
1183,1182366.0,255,40.14
1184,1183368.0,255,39.66
1185,1184369.0,255,39.66
1186,1185371.0,255,40.14
1187,1186371.0,255,40.14
1188,1187373.0,255,39.66
1189,1188374.0,255,40.14
1190,1189376.0,255,40.14
1191,1190376.0,255,40.14
1192,1191377.0,255,40.14
1193,1192379.0,255,39.66
1194,1193380.0,255,39.17
1195,1194381.0,255,39.17
1196,1195382.0,255,39.17
1197,1196384.0,255,39.17
1198,1197385.0,255,39.17
