index,ms,calef,TempC
0,5999.0,5,17.59
1,10000.0,5,28.88
2,15001.0,5,32.69
3,20002.0,5,34.64
4,25004.0,5,36.01
5,30004.0,5,36.85
6,35005.0,5,37.45
7,40006.0,5,37.85
8,45007.0,5,38.05
9,50009.0,5,38.26
10,55010.0,5,38.43
