index,ms,calef,TempC,Tsp,cP,cI,cD
0,200099.0,255,22.45,55.0,1270.74,11.88,0.0
1,6000.0,255,24.37,55.0,1165.07,10.89,0.0
2,2000.0,255,18.59,55.0,1515.97,14.17,0.0
3,3999.0,255,21.88,55.0,1288.7,12.04,0.0
4,6000.0,255,23.76,55.0,1188.35,11.11,0.0
5,8000.0,255,24.67,55.0,1145.86,10.71,0.0
6,10000.0,255,25.19,55.0,1124.23,10.51,0.0
7,11999.0,255,25.53,55.0,1108.35,10.36,0.0
8,13999.0,255,25.77,55.0,1099.39,10.27,0.0
9,15998.0,255,25.95,55.0,1092.01,10.21,0.0
10,17999.0,255,26.12,59.0,1084.88,10.14,0.0
11,20000.0,255,26.26,59.0,1229.26,11.49,0.0
12,22000.0,255,26.38,55.0,1224.72,11.45,0.0
13,23999.0,255,26.5,59.0,1070.4,10.0,0.0
14,26000.0,255,26.6,55.0,1215.73,11.36,0.0
15,27999.0,255,26.66,55.0,1063.19,9.94,0.0
16,29999.0,255,26.7,55.0,1061.91,9.92,0.0
17,31998.0,255,26.74,55.0,1060.36,9.91,0.0
18,33999.0,255,26.79,55.0,1058.59,9.89,0.0
19,35999.0,255,26.82,55.0,1057.01,9.88,0.0
20,38000.0,255,26.85,55.0,1055.97,9.87,0.0
21,40000.0,255,26.89,55.0,1054.67,9.86,0.0
22,41999.0,255,26.89,55.0,1054.19,9.85,0.0
23,43999.0,255,26.89,55.0,1054.07,9.85,0.0
24,45999.0,255,26.9,55.0,1053.96,9.85,0.0
25,47998.0,255,26.9,55.0,1053.86,9.85,0.0
26,50000.0,255,26.9,55.0,1053.76,9.85,0.0
27,52000.0,255,26.9,55.0,1053.68,9.85,0.0
28,54000.0,255,26.9,55.0,1053.6,9.85,0.0
29,56000.0,255,26.91,55.0,1053.52,9.85,0.0
30,57999.0,255,26.91,55.0,1053.46,9.85,0.0
31,59999.0,255,26.91,55.0,1053.39,9.84,0.0
32,62000.0,255,26.91,55.0,1053.33,9.84,0.0
33,63998.0,255,26.9,55.0,1053.53,9.85,0.0
34,65999.0,255,26.89,55.0,1053.97,9.85,0.0
35,67999.0,255,26.88,55.0,1054.38,9.85,0.0
36,70000.0,255,26.86,55.0,1055.01,9.86,0.0
37,71999.0,255,26.85,55.0,1055.38,9.86,0.0
38,73999.0,255,26.85,55.0,1055.48,9.86,0.0
39,75999.0,255,26.84,55.0,1055.81,9.87,0.0
40,77999.0,255,26.84,55.0,1055.9,9.87,0.0
41,79998.0,255,26.85,55.0,1055.75,9.87,0.0
42,82000.0,255,26.85,55.0,1055.61,9.87,0.0
43,84000.0,255,26.86,55.0,1055.47,9.86,0.0
44,85999.0,255,26.86,55.0,1055.34,9.86,0.0
45,87999.0,255,26.86,55.0,1055.22,9.86,0.0
46,90000.0,255,26.86,55.0,1055.1,9.86,0.0
47,91999.0,255,26.87,55.0,1054.99,9.86,0.0
48,93999.0,255,26.87,55.0,1054.88,9.86,0.0
49,95998.0,255,26.87,55.0,1054.78,9.86,0.0
50,97999.0,255,26.88,55.0,1054.68,9.86,0.0
51,99999.0,255,26.88,55.0,1054.59,9.86,0.0
52,101999.0,255,26.88,55.0,1054.5,9.86,0.0
53,104000.0,255,26.88,55.0,1054.41,9.85,0.0
54,105999.0,255,26.89,55.0,1054.33,9.85,0.0
55,108000.0,255,26.88,55.0,1054.24,9.85,0.0
56,109999.0,255,26.88,55.0,1054.37,9.85,0.0
57,111998.0,255,26.88,55.0,1054.5,9.86,0.0
58,113999.0,255,26.86,55.0,1055.03,9.86,0.0
59,116000.0,255,26.85,55.0,1055.34,9.86,0.0
60,117999.0,255,26.85,55.0,1055.64,9.87,0.0
61,120000.0,255,26.84,55.0,1055.92,9.87,0.0
62,122000.0,255,26.84,55.0,1055.79,9.87,0.0
63,123999.0,255,26.83,55.0,1056.06,9.87,0.0
64,125999.0,255,26.83,55.0,1056.13,9.87,0.0
65,127998.0,255,26.83,55.0,1056.39,9.87,0.0
66,129999.0,255,26.82,55.0,1056.65,9.88,0.0
67,131999.0,255,26.82,55.0,1056.7,9.88,0.0
68,133999.0,255,26.82,55.0,1056.94,9.88,0.0
69,135999.0,255,26.83,55.0,1056.57,9.87,0.0
70,138000.0,255,26.85,55.0,1055.82,9.87,0.0
71,140000.0,255,26.89,55.0,1054.69,9.86,0.0
72,142000.0,255,26.93,55.0,1053.39,9.84,0.0
73,143998.0,255,26.97,55.0,1051.54,9.83,0.0
74,145999.0,255,27.03,55.0,1049.56,9.81,0.0
75,147999.0,255,27.11,55.0,1046.84,9.78,0.0
76,149999.0,255,27.19,55.0,1043.81,9.76,0.0
77,151999.0,255,27.29,55.0,1040.49,9.72,0.0
78,153999.0,255,27.39,55.0,1036.68,9.69,0.0
79,155999.0,255,27.51,55.0,1032.4,9.65,0.0
80,158000.0,255,27.65,55.0,1027.47,9.6,0.0
81,159998.0,255,27.79,55.0,1022.11,9.55,0.0
82,162000.0,255,27.96,55.0,1016.13,9.5,0.0
83,164000.0,255,28.13,55.0,1009.95,9.44,0.0
84,166000.0,255,28.31,55.0,1003.18,9.38,0.0
85,167999.0,255,28.49,55.0,996.45,9.31,0.0
86,170000.0,255,28.69,55.0,989.13,9.24,0.0
87,171999.0,255,28.89,55.0,981.67,9.17,0.0
88,173999.0,255,29.08,55.0,974.45,9.11,0.0
89,175998.0,255,29.26,55.0,967.47,9.04,0.0
90,177999.0,255,29.44,55.0,960.72,8.98,0.0
91,179999.0,255,29.63,55.0,953.59,8.91,0.0
92,182000.0,255,29.82,55.0,946.7,8.85,0.0
93,183999.0,255,30.03,55.0,939.04,8.78,0.0
94,186000.0,255,30.23,55.0,931.44,8.71,0.0
95,188000.0,255,30.45,55.0,923.3,8.63,0.0
96,189999.0,255,30.69,55.0,914.83,8.55,0.0
97,191998.0,255,30.94,55.0,905.45,8.46,0.0
98,194000.0,255,31.2,55.0,895.79,8.37,0.0
99,195999.0,255,31.47,55.0,885.84,8.28,0.0
100,197999.0,255,31.75,55.0,875.24,8.18,0.0
101,199999.0,255,32.03,55.0,864.98,8.08,0.0
102,202000.0,255,32.31,55.0,854.47,7.99,0.0
103,203999.0,255,32.58,55.0,844.09,7.89,0.0
104,205999.0,255,32.86,55.0,833.67,7.79,0.0
105,207998.0,255,33.13,55.0,823.57,7.7,0.0
106,210000.0,255,33.38,55.0,813.81,7.61,0.0
107,212000.0,255,33.65,55.0,803.96,7.51,0.0
108,214000.0,255,33.92,55.0,794.04,7.42,0.0
109,216000.0,255,34.18,55.0,784.05,7.33,0.0
110,217999.0,255,34.43,55.0,774.38,7.24,0.0
111,220000.0,255,34.7,55.0,764.63,7.15,0.0
112,221999.0,255,34.96,55.0,755.0,7.06,0.0
113,223998.0,255,35.22,55.0,745.09,6.96,0.0
114,226000.0,255,35.5,55.0,734.71,6.87,0.0
115,227999.0,255,35.78,55.0,724.28,6.77,0.0
116,230000.0,255,36.05,55.0,713.98,6.67,0.0
117,231999.0,255,36.31,55.0,704.22,6.58,0.0
118,234000.0,255,36.57,55.0,694.37,6.49,0.0
119,236000.0,255,36.84,55.0,684.45,6.4,0.0
120,237999.0,255,37.1,55.0,674.45,6.3,0.0
121,239998.0,255,37.37,55.0,664.39,6.21,0.0
122,241999.0,255,37.64,55.0,654.45,6.12,0.0
123,243999.0,255,37.91,55.0,644.24,6.02,0.0
124,246000.0,255,38.2,55.0,633.78,5.92,0.0
125,247999.0,255,38.48,55.0,623.06,5.82,0.0
126,250000.0,255,38.76,55.0,612.49,5.72,0.0
127,252000.0,255,39.06,55.0,601.47,5.62,0.0
128,254000.0,255,39.36,55.0,590.41,5.52,0.0
129,256000.0,255,39.65,55.0,579.32,5.41,0.0
130,257999.0,255,39.95,55.0,568.0,5.31,0.0
131,260000.0,255,40.26,55.0,556.64,5.2,0.0
132,262000.0,255,40.57,55.0,544.87,5.09,0.0
133,264000.0,255,40.88,55.0,533.28,4.98,0.0
134,266000.0,255,41.2,55.0,521.47,4.87,0.0
135,267999.0,255,41.49,55.0,510.24,4.77,0.0
136,269999.0,255,41.76,55.0,499.76,4.67,0.0
137,271998.0,255,42.01,55.0,490.02,4.58,0.0
138,273999.0,255,42.24,55.0,481.18,4.5,0.0
139,276000.0,255,42.46,55.0,473.01,4.42,0.0
140,278000.0,255,42.68,55.0,464.91,4.34,0.0
141,279999.0,255,42.9,55.0,456.68,4.27,0.0
142,281999.0,255,43.12,55.0,448.12,4.19,0.0
143,284000.0,255,43.35,55.0,439.64,4.11,0.0
144,285999.0,255,43.59,55.0,431.04,4.03,0.0
145,287998.0,255,43.82,55.0,422.13,3.95,0.0
146,290000.0,255,44.04,55.0,413.9,3.87,0.0
147,292000.0,255,44.25,55.0,405.74,3.79,0.0
148,293999.0,255,44.45,55.0,398.23,3.72,0.0
149,295999.0,255,44.65,55.0,390.57,3.65,0.0
150,297999.0,255,44.86,55.0,382.96,3.58,0.0
151,299999.0,255,45.08,55.0,374.81,3.5,0.0
152,302000.0,255,45.28,55.0,366.93,3.43,0.0
153,303998.0,255,45.49,55.0,359.29,3.36,0.0
154,306000.0,255,45.69,55.0,351.51,3.29,0.0
155,308000.0,255,45.91,55.0,343.58,3.21,0.0
156,309999.0,255,46.12,55.0,335.52,3.14,0.0
157,311999.0,255,46.32,55.0,327.91,3.06,0.0
158,314000.0,255,46.52,55.0,320.35,2.99,0.0
159,316000.0,255,46.7,55.0,313.43,2.93,0.0
160,317999.0,255,46.87,55.0,307.12,2.87,0.0
161,319998.0,255,47.04,55.0,300.62,2.81,0.0
162,322000.0,255,47.22,55.0,294.14,2.75,0.0
163,324000.0,255,47.4,55.0,287.27,2.68,0.0
164,326000.0,255,47.58,55.0,280.43,2.62,0.0
165,327999.0,255,47.77,55.0,273.42,2.56,0.0
166,330000.0,255,47.95,55.0,266.63,2.49,0.0
167,331999.0,255,48.15,55.0,259.47,2.42,0.0
168,334000.0,254,48.35,55.0,251.95,2.35,0.0
169,335998.0,251,48.56,55.0,244.08,6.94,0.0
170,337999.0,247,48.77,55.0,236.27,11.38,0.0
171,340000.0,243,48.99,55.0,228.12,15.67,0.0
172,341999.0,240,49.2,55.0,220.24,19.81,0.0
173,344000.0,235,49.43,55.0,211.82,23.8,0.0
174,346000.0,231,49.65,55.0,203.47,27.63,0.0
175,348000.0,226,49.86,55.0,195.4,31.31,0.0
176,349999.0,222,50.08,55.0,187.19,34.83,0.0
177,351998.0,217,50.3,55.0,179.05,38.2,0.0
178,353999.0,213,50.48,55.0,171.95,41.44,0.0
179,356000.0,208,50.67,55.0,164.3,44.53,0.0
180,358000.0,204,50.87,55.0,157.48,47.5,0.0
181,359999.0,200,51.06,55.0,150.1,50.33,0.0
182,361999.0,195,51.23,55.0,142.95,53.02,0.0
183,364000.0,192,51.41,55.0,136.82,55.6,0.0
184,365999.0,188,51.57,55.0,130.89,58.06,0.0
185,367998.0,185,51.71,55.0,124.76,60.41,0.0
186,370000.0,182,51.84,55.0,119.99,62.67,0.0
187,372000.0,181,51.92,55.0,116.57,64.86,0.0
188,374000.0,179,52.06,55.0,112.07,66.97,0.0
189,375999.0,175,52.2,55.0,106.93,68.98,0.0
190,377999.0,173,52.29,55.0,102.75,70.92,0.0
191,379999.0,170,52.44,55.0,97.9,72.77,0.0
192,381999.0,167,52.57,55.0,93.23,74.52,0.0
193,383998.0,164,52.67,55.0,88.5,76.19,0.0
194,385999.0,161,52.79,55.0,83.72,77.77,0.0
195,387999.0,159,52.89,55.0,80.67,79.29,0.0
196,390000.0,156,53.03,55.0,75.75,80.72,0.0
197,392000.0,152,53.15,55.0,70.41,82.05,0.0
198,393999.0,150,53.24,55.0,67.2,83.32,0.0
199,395999.0,147,53.37,55.0,62.92,84.51,0.0
200,398000.0,143,53.47,55.0,58.38,85.61,0.0
201,399998.0,140,53.58,55.0,54.18,86.64,0.0
202,402000.0,137,53.69,55.0,50.11,87.59,0.0
203,404000.0,134,53.82,55.0,46.18,88.46,0.0
204,405999.0,129,53.97,55.0,40.61,89.24,0.0
205,408000.0,126,54.07,55.0,36.2,89.93,0.0
206,409999.0,122,54.2,55.0,31.94,90.53,0.0
207,411999.0,118,54.32,55.0,27.22,91.05,0.0
208,413999.0,114,54.42,55.0,22.65,91.49,0.0
209,415998.0,110,54.54,55.0,18.61,91.86,0.0
210,418000.0,106,54.65,55.0,14.13,92.13,0.0
211,420000.0,101,54.8,55.0,9.38,92.32,0.0
212,421999.0,97,54.9,55.0,4.6,92.43,0.0
213,424000.0,94,54.98,55.0,1.74,92.47,0.0
214,426000.0,90,55.1,55.0,-2.21,92.44,0.0
215,428000.0,86,55.16,55.0,-5.44,92.35,0.0
216,429999.0,83,55.23,55.0,-8.38,92.2,0.0
217,431998.0,81,55.31,55.0,-10.43,92.01,0.0
218,433999.0,78,55.36,55.0,-12.8,91.78,0.0
219,436000.0,75,55.46,55.0,-16.29,91.49,0.0
220,437999.0,73,55.48,55.0,-17.88,91.15,0.0
221,440000.0,72,55.48,55.0,-18.05,90.81,0.0
222,442000.0,71,55.54,55.0,-19.41,90.46,0.0
223,444000.0,70,55.52,55.0,-19.72,90.09,0.0
224,445999.0,70,55.52,55.0,-19.65,89.72,0.0
225,447998.0,69,55.55,55.0,-19.96,89.35,0.0
226,449999.0,68,55.56,55.0,-20.45,88.97,0.0
227,452000.0,67,55.55,55.0,-21.13,88.58,0.0
228,453999.0,68,55.49,55.0,-19.43,88.21,0.0
229,456000.0,70,55.44,55.0,-17.0,87.88,0.0
230,458000.0,71,55.4,55.0,-15.84,87.58,0.0
231,459999.0,72,55.37,55.0,-14.32,87.32,0.0
232,461999.0,74,55.34,55.0,-12.84,87.07,0.0
233,464000.0,74,55.32,55.0,-12.2,86.84,0.0
234,465999.0,74,55.34,55.0,-12.17,86.62,0.0
235,468000.0,73,55.33,55.0,-12.52,86.38,0.0
236,469999.0,73,55.33,55.0,-12.47,86.15,0.0
237,472000.0,71,55.39,55.0,-14.01,85.89,0.0
238,473999.0,70,55.39,55.0,-14.69,85.62,0.0
239,475999.0,69,55.4,55.0,-15.37,85.34,0.0
240,477999.0,69,55.44,55.0,-15.82,85.04,0.0
241,479998.0,68,55.44,55.0,-16.45,84.73,0.0
242,481999.0,67,55.46,55.0,-17.07,84.42,0.0
243,484000.0,67,55.45,55.0,-17.07,84.1,0.0
244,485999.0,66,55.46,55.0,-17.27,83.78,0.0
245,487999.0,64,55.51,55.0,-18.85,83.44,0.0
246,489999.0,63,55.52,55.0,-19.39,83.08,0.0
247,492000.0,63,55.52,55.0,-19.71,82.71,0.0
248,493999.0,62,55.54,55.0,-20.22,82.33,0.0
249,496000.0,62,55.51,55.0,-19.72,81.96,0.0
250,497999.0,63,55.46,55.0,-18.07,81.61,0.0
251,500000.0,65,55.39,55.0,-15.49,81.32,0.0
252,501999.0,67,55.37,55.0,-13.97,81.05,0.0
253,504000.0,138,55.33,59.0,137.11,1.28,0.0
254,506000.0,142,55.28,59.0,138.74,3.87,0.0
255,507999.0,146,55.27,59.0,139.73,6.48,0.0
256,509999.0,149,55.24,59.0,140.49,9.09,0.0
257,512000.0,153,55.2,59.0,141.81,11.74,0.0
258,513999.0,157,55.18,59.0,142.7,14.41,0.0
259,516000.0,160,55.18,59.0,143.36,17.08,0.0
260,517999.0,161,55.22,59.0,142.23,19.75,0.0
261,520000.0,163,55.22,59.0,141.54,22.4,0.0
262,522000.0,166,55.26,59.0,141.06,25.03,0.0
263,523999.0,166,55.31,59.0,139.23,27.63,0.0
264,525999.0,167,55.35,59.0,137.06,30.21,0.0
265,527998.0,167,55.42,59.0,135.15,32.74,0.0
266,529999.0,167,55.46,59.0,132.72,35.22,0.0
267,531999.0,168,55.54,59.0,130.55,37.67,0.0
268,534000.0,167,55.61,59.0,127.88,40.07,0.0
269,536000.0,170,55.59,59.0,127.65,42.45,0.0
270,538000.0,171,55.65,59.0,126.24,44.82,0.0
271,540000.0,172,55.69,59.0,124.88,47.16,0.0
272,541999.0,172,55.72,59.0,123.17,49.47,0.0
273,544000.0,172,55.8,59.0,120.92,51.73,0.0
274,545999.0,172,55.87,59.0,118.37,53.95,0.0
275,548000.0,171,55.96,59.0,115.09,56.11,0.0
276,549999.0,170,56.01,59.0,112.32,58.22,0.0
277,551999.0,171,56.06,59.0,111.02,60.3,0.0
278,554000.0,170,56.13,59.0,108.38,62.33,0.0
279,556000.0,170,56.16,59.0,106.42,64.33,0.0
280,557999.0,171,56.2,59.0,105.5,66.31,0.0
281,559998.0,172,56.23,59.0,104.61,68.26,0.0
282,562000.0,173,56.27,59.0,102.97,70.19,0.0
283,563999.0,173,56.33,59.0,100.98,72.08,0.0
284,566000.0,174,56.33,59.0,100.24,73.96,0.0
285,568000.0,174,56.38,59.0,98.93,75.81,0.0
286,570000.0,175,56.4,59.0,97.46,77.64,0.0
287,571999.0,177,56.36,59.0,98.01,79.47,0.0
288,573999.0,180,56.34,59.0,99.32,81.32,0.0
289,575998.0,184,56.27,59.0,101.58,83.21,0.0
290,577999.0,189,56.18,59.0,104.75,85.16,0.0
291,579999.0,194,56.11,59.0,107.42,87.16,0.0
292,581999.0,200,56.01,59.0,111.19,89.22,0.0
293,583999.0,204,55.96,59.0,113.45,91.33,0.0
294,586000.0,208,55.91,59.0,115.25,93.48,0.0
295,588000.0,212,55.86,59.0,116.99,95.66,0.0
296,589999.0,216,55.82,59.0,118.68,97.88,0.0
297,591998.0,220,55.8,59.0,119.92,100.12,0.0
298,593999.0,223,55.77,59.0,120.72,102.37,0.0
299,596000.0,226,55.72,59.0,121.9,104.65,0.0
300,597999.0,230,55.68,59.0,124.01,106.96,0.0
301,600000.0,234,55.67,59.0,124.88,109.29,0.0
302,601999.0,236,55.65,59.0,125.13,111.63,0.0
303,603999.0,239,55.67,59.0,125.18,113.97,0.0
304,605999.0,241,55.67,59.0,125.03,116.31,0.0
305,607998.0,242,55.71,59.0,123.91,118.63,0.0
306,609999.0,243,55.76,59.0,122.23,120.92,0.0
307,611999.0,243,55.81,59.0,120.41,123.17,0.0
308,613999.0,243,55.88,59.0,117.86,125.38,0.0
309,616000.0,242,55.97,59.0,114.61,127.54,0.0
310,617999.0,241,56.05,59.0,111.86,129.63,0.0
311,619999.0,240,56.14,59.0,108.41,131.67,0.0
312,621999.0,238,56.23,59.0,104.87,133.64,0.0
313,623998.0,237,56.3,59.0,102.04,135.56,0.0
314,626000.0,236,56.37,59.0,99.49,137.42,0.0
315,628000.0,235,56.45,59.0,96.63,139.24,0.0
316,629999.0,234,56.54,59.0,93.28,140.99,0.0
317,632000.0,232,56.63,59.0,90.03,142.69,0.0
318,634000.0,231,56.72,59.0,86.89,144.32,0.0
319,636000.0,229,56.81,59.0,83.46,145.89,0.0
320,637999.0,227,56.91,59.0,79.74,147.39,0.0
321,639998.0,224,57.01,59.0,75.75,148.82,0.0
322,641999.0,222,57.08,59.0,72.28,150.18,0.0
323,644000.0,221,57.16,59.0,69.7,151.49,0.0
324,645999.0,219,57.24,59.0,66.82,152.75,0.0
325,647999.0,218,57.28,59.0,64.82,153.97,0.0
326,650000.0,217,57.35,59.0,62.67,155.15,0.0
327,651999.0,216,57.42,59.0,60.22,156.28,0.0
328,653999.0,215,57.45,59.0,58.23,157.38,0.0
329,655998.0,215,57.49,59.0,57.09,158.45,0.0
330,657999.0,215,57.5,59.0,56.39,159.5,0.0
331,660000.0,215,57.54,59.0,55.11,160.54,0.0
332,662000.0,215,57.58,59.0,53.68,161.54,0.0
333,663999.0,215,57.6,59.0,52.89,162.53,0.0
334,665999.0,214,57.65,59.0,51.33,163.5,0.0
335,668000.0,214,57.69,59.0,49.63,164.43,0.0
336,669999.0,214,57.69,59.0,48.77,165.34,0.0
337,671998.0,215,57.69,59.0,49.12,166.26,0.0
338,673999.0,217,57.66,59.0,49.85,167.19,0.0
339,676000.0,219,57.63,59.0,50.94,168.14,0.0
340,678000.0,221,57.59,59.0,52.2,169.11,0.0
341,679999.0,223,57.58,59.0,53.21,170.1,0.0
342,682000.0,224,57.59,59.0,53.02,171.1,0.0
343,683999.0,224,57.58,59.0,52.83,172.08,0.0
344,685999.0,225,57.61,59.0,52.45,173.07,0.0
345,687998.0,226,57.61,59.0,52.49,174.04,0.0
346,690000.0,226,57.64,59.0,51.53,175.01,0.0
347,692000.0,225,57.68,59.0,50.02,175.95,0.0
348,693999.0,225,57.72,59.0,48.96,176.87,0.0
349,696000.0,224,57.79,59.0,46.35,177.74,0.0
350,698000.0,221,57.87,59.0,43.43,178.56,0.0
351,700000.0,219,57.94,59.0,40.61,179.33,0.0
352,702000.0,218,57.98,59.0,38.67,180.06,0.0
353,703998.0,218,58.0,59.0,37.77,180.76,0.0
354,705999.0,219,57.98,59.0,38.07,181.48,0.0
355,708000.0,220,57.95,59.0,38.56,182.2,0.0
356,709999.0,222,57.94,59.0,39.63,182.93,0.0
357,712000.0,224,57.91,59.0,40.46,183.69,0.0
358,713999.0,225,57.91,59.0,40.87,184.45,0.0
359,716000.0,225,57.92,59.0,40.68,185.21,0.0
360,717999.0,225,57.95,59.0,39.92,185.96,0.0
361,719998.0,224,57.99,59.0,38.19,186.68,0.0
362,722000.0,223,58.05,59.0,36.32,187.36,0.0
363,724000.0,223,58.07,59.0,35.3,188.03,0.0
364,726000.0,221,58.13,59.0,33.13,188.65,0.0
365,727999.0,220,58.19,59.0,31.03,189.24,0.0
366,730000.0,219,58.2,59.0,29.99,189.8,0.0
367,732000.0,218,58.26,59.0,28.37,190.34,0.0
368,733999.0,217,58.32,59.0,26.23,190.83,0.0
369,735998.0,216,58.34,59.0,24.75,191.3,0.0
370,737999.0,215,58.39,59.0,23.31,191.75,0.0
371,739999.0,214,58.43,59.0,21.92,192.16,0.0
372,741999.0,212,58.49,59.0,19.79,192.53,0.0
373,743999.0,210,58.56,59.0,17.53,192.87,0.0
374,746000.0,208,58.6,59.0,15.74,193.17,0.0
375,748000.0,206,58.67,59.0,13.22,193.42,0.0
376,750000.0,204,58.74,59.0,10.59,193.63,0.0
377,751998.0,202,58.8,59.0,8.43,193.79,0.0
378,754000.0,199,58.84,59.0,5.94,193.91,0.0
379,755999.0,198,58.91,59.0,4.32,194.0,0.0
380,757999.0,196,58.97,59.0,1.97,194.04,0.0
381,759999.0,194,58.98,59.0,0.68,194.06,0.0
382,761999.0,193,59.04,59.0,-0.97,194.04,0.0
383,763999.0,191,59.08,59.0,-2.36,194.0,0.0
384,765999.0,190,59.08,59.0,-3.51,193.94,0.0
385,767998.0,189,59.12,59.0,-4.25,193.86,0.0
386,769999.0,189,59.12,59.0,-4.54,193.77,0.0
387,771999.0,188,59.13,59.0,-4.84,193.68,0.0
388,774000.0,188,59.14,59.0,-5.13,193.59,0.0
389,775999.0,190,59.09,59.0,-3.44,193.52,0.0
390,777999.0,190,59.09,59.0,-3.38,193.45,0.0
391,779999.0,190,59.08,59.0,-3.32,193.39,0.0
392,781999.0,191,59.02,59.0,-1.5,193.36,0.0
393,783998.0,194,58.97,59.0,0.66,193.36,0.0
394,785999.0,195,58.93,59.0,2.16,193.4,0.0
395,787999.0,196,58.92,59.0,3.02,193.45,0.0
396,790000.0,197,58.88,59.0,3.85,193.52,0.0
397,791999.0,197,58.9,59.0,4.25,193.6,0.0
398,794000.0,196,58.93,59.0,3.28,193.67,0.0
399,796000.0,196,58.94,59.0,2.34,193.72,0.0
400,797999.0,194,58.99,59.0,1.22,193.75,0.0
401,800000.0,193,59.01,59.0,-0.04,193.74,0.0
402,802000.0,192,59.05,59.0,-1.27,193.73,0.0
403,803999.0,190,59.1,59.0,-3.24,193.67,0.0
404,805999.0,190,59.09,59.0,-3.57,193.6,0.0
405,808000.0,188,59.14,59.0,-4.7,193.52,0.0
406,809999.0,186,59.19,59.0,-6.56,193.4,0.0
407,811999.0,185,59.21,59.0,-7.78,193.27,0.0
408,813999.0,183,59.27,59.0,-9.36,193.1,0.0
409,815998.0,182,59.3,59.0,-10.67,192.9,0.0
410,817999.0,180,59.33,59.0,-11.95,192.68,0.0
411,819999.0,179,59.34,59.0,-13.18,192.44,0.0
412,821999.0,179,59.35,59.0,-12.81,192.19,0.0
413,824000.0,178,59.36,59.0,-13.24,191.95,0.0
414,825999.0,178,59.35,59.0,-13.45,191.7,0.0
415,828000.0,178,59.35,59.0,-13.07,191.46,0.0
416,829999.0,178,59.36,59.0,-13.09,191.21,0.0
417,832000.0,176,59.37,59.0,-14.1,190.95,0.0
418,833999.0,176,59.38,59.0,-14.1,190.69,0.0
419,835999.0,176,59.35,59.0,-13.49,190.43,0.0
420,837999.0,176,59.36,59.0,-13.31,190.18,0.0
421,840000.0,176,59.37,59.0,-13.92,189.92,0.0
422,842000.0,176,59.33,59.0,-12.93,189.68,0.0
423,844000.0,175,59.38,59.0,-13.56,189.43,0.0
424,845999.0,174,59.4,59.0,-14.34,189.16,0.0
425,848000.0,173,59.4,59.0,-15.11,188.88,0.0
