index,ms,calef,TempC
0,6005.0,255,31.35
1,7006.0,255,31.35
2,8007.0,255,31.35
3,9008.0,255,31.35
4,1000.0,255,31.35
5,2000.0,255,31.84
6,3002.0,255,31.84
7,4002.0,255,31.84
8,5004.0,255,31.84
9,6005.0,255,32.32
10,7006.0,255,32.32
11,8007.0,255,32.32
12,9008.0,255,32.81
13,10009.0,255,32.81
14,11011.0,255,32.81
15,12011.0,255,32.81
16,13012.0,255,33.3
17,14014.0,255,33.3
18,15014.0,255,33.79
19,16016.0,255,33.79
20,17016.0,255,33.79
21,18018.0,255,34.28
22,19019.0,255,34.28
23,20020.0,255,34.28
24,21021.0,255,34.28
25,22023.0,255,34.77
26,23023.0,255,34.77
27,24025.0,255,35.26
28,25026.0,255,35.26
29,26027.0,255,35.26
30,27028.0,255,35.26
31,28029.0,255,35.26
32,29030.0,255,35.75
33,30031.0,255,35.75
34,31033.0,255,35.75
35,32033.0,255,36.23
36,33035.0,255,36.23
37,34035.0,255,36.23
38,35037.0,255,36.72
39,36038.0,255,36.72
40,37039.0,255,36.72
41,38040.0,255,37.21
42,39042.0,255,37.21
43,40042.0,255,37.7
44,41043.0,255,37.7
45,42045.0,255,38.19
46,43045.0,255,38.19
47,44047.0,255,38.19
48,45048.0,255,38.19
49,46049.0,255,38.68
50,47050.0,255,38.68
51,48052.0,255,38.68
52,49052.0,255,39.17
53,50054.0,255,39.17
54,51054.0,255,39.66
55,52056.0,255,39.66
56,53057.0,255,39.66
57,54057.0,255,40.14
58,55059.0,255,40.14
59,56060.0,255,40.63
60,57061.0,255,40.63
61,58062.0,255,40.63
62,59064.0,255,40.63
63,60064.0,255,40.63
64,61066.0,255,40.63
65,62067.0,255,41.12
66,63068.0,255,41.12
67,64069.0,255,41.12
68,65070.0,255,41.61
69,66071.0,255,41.61
70,67073.0,255,42.1
71,68073.0,255,42.1
72,69074.0,255,42.1
73,70076.0,255,42.1
74,71076.0,255,42.59
75,72078.0,255,42.59
76,73079.0,255,42.59
77,74080.0,255,43.08
78,75081.0,255,42.59
79,76083.0,255,42.59
80,77083.0,255,42.59
81,78085.0,255,43.08
82,79086.0,255,43.08
83,80087.0,255,43.08
84,81088.0,255,43.08
85,82088.0,255,43.57
86,83090.0,255,43.57
87,84091.0,255,43.57
88,85092.0,255,44.05
89,86093.0,255,44.05
90,87095.0,255,44.05
91,88095.0,255,44.05
92,89097.0,255,44.54
93,90098.0,255,44.54
94,91099.0,255,44.54
95,92100.0,255,45.03
96,93101.0,255,45.03
97,94102.0,255,45.03
98,95104.0,255,45.52
99,96104.0,255,45.52
100,97105.0,255,45.52
101,98107.0,255,45.52
102,99107.0,255,45.52
103,100109.0,255,45.52
104,101110.0,255,46.01
105,102111.0,255,46.01
106,103112.0,255,46.01
107,104114.0,255,46.01
108,105114.0,255,46.5
109,106116.0,255,46.5
110,107117.0,255,46.5
111,108119.0,255,46.99
112,109119.0,255,46.99
113,110120.0,255,46.99
114,111122.0,255,46.99
115,112122.0,255,47.48
116,113124.0,255,47.48
117,114125.0,255,47.48
118,115126.0,255,47.48
119,116127.0,255,47.48
120,117129.0,255,47.48
121,118129.0,255,47.96
122,119131.0,255,47.96
123,120132.0,255,47.96
124,121133.0,255,48.45
125,122134.0,255,48.45
126,123136.0,255,48.45
127,124137.0,255,48.45
128,125137.0,255,48.45
129,126139.0,255,48.45
130,127140.0,255,48.45
131,128141.0,255,48.45
132,129142.0,255,48.94
133,130144.0,255,48.94
134,131144.0,255,48.94
135,132146.0,255,48.94
136,133147.0,255,48.94
137,134148.0,255,48.94
138,135149.0,255,48.94
139,136151.0,255,48.94
140,137151.0,255,48.94
141,138152.0,255,48.94
142,139154.0,255,48.94
143,140155.0,255,49.43
144,141156.0,255,49.43
145,142157.0,255,49.43
146,143159.0,255,49.43
147,144159.0,255,49.43
148,145161.0,255,49.43
149,146162.0,255,49.43
150,147163.0,255,49.92
151,148164.0,255,49.92
152,149166.0,255,49.92
153,150166.0,255,50.41
154,151168.0,255,50.41
155,152169.0,255,50.41
156,153169.0,255,50.41
157,154171.0,255,50.41
158,155172.0,255,50.41
159,156173.0,0,50.9
160,157174.0,0,51.39
161,158176.0,0,51.39
162,159176.0,0,51.39
163,160178.0,0,51.39
164,161178.0,0,51.39
165,162180.0,0,51.39
166,163181.0,0,51.39
167,164182.0,0,51.39
168,165183.0,0,51.39
169,166183.0,0,51.39
170,167185.0,0,51.39
171,168186.0,0,51.39
172,169187.0,0,51.39
173,170188.0,0,51.39
174,171189.0,0,51.39
175,172190.0,0,51.87
176,173192.0,0,51.39
177,174192.0,0,51.39
178,175194.0,0,51.87
179,176194.0,0,51.87
180,177196.0,0,51.87
181,178197.0,0,51.87
182,179197.0,0,52.36
183,180199.0,0,52.36
184,181199.0,0,52.36
185,182201.0,0,52.85
186,183202.0,0,52.36
187,184203.0,0,52.36
188,185204.0,0,52.85
189,186205.0,0,52.85
190,187206.0,0,52.36
191,188208.0,0,52.36
192,189208.0,0,52.85
193,190210.0,0,52.85
194,191210.0,0,53.34
195,192211.0,0,53.34
196,193213.0,0,53.34
197,194213.0,0,53.34
198,195215.0,0,53.34
199,196215.0,0,53.83
200,197217.0,0,53.83
201,198218.0,0,53.83
202,199219.0,0,53.83
203,200220.0,0,54.32
204,201221.0,0,54.32
205,202222.0,0,54.32
206,203224.0,0,54.81
207,204224.0,0,54.81
208,205225.0,0,54.81
209,206227.0,0,54.81
210,207227.0,0,54.81
211,208229.0,0,54.81
212,209229.0,0,54.81
213,210231.0,0,54.81
214,211232.0,0,54.81
215,212233.0,0,54.81
216,213234.0,0,54.81
217,214235.0,0,55.3
218,215236.0,0,55.3
219,216238.0,0,55.3
220,217238.0,0,55.3
221,218240.0,0,55.3
222,219240.0,0,55.3
223,220241.0,0,55.78
224,221243.0,0,55.78
225,222243.0,0,55.78
226,223245.0,0,55.78
227,224245.0,0,56.27
228,225247.0,0,56.27
229,226248.0,0,56.27
230,227249.0,0,56.27
231,228250.0,0,56.27
232,229251.0,0,56.76
233,230252.0,0,56.76
234,231254.0,0,56.76
235,232254.0,0,56.76
236,233255.0,0,56.76
237,234256.0,0,56.76
238,235257.0,0,56.76
239,236259.0,0,56.76
240,237259.0,0,57.25
241,238261.0,0,57.25
242,239261.0,0,57.25
243,240263.0,0,57.25
244,241264.0,0,57.25
245,242265.0,0,57.25
246,243266.0,0,57.25
247,244267.0,0,57.25
