index,ms,calef,TempC
0,3002.0,0,62.14
1,1000.0,0,62.14
2,2000.0,0,62.14
3,3002.0,0,62.14
4,4002.0,0,62.14
5,5004.0,0,62.14
6,6004.0,0,62.63
7,7006.0,0,62.63
8,8006.0,0,62.63
9,9008.0,0,62.63
10,10008.0,0,62.63
11,11010.0,0,62.63
12,12010.0,0,62.63
13,13011.0,0,63.12
14,14012.0,0,63.12
15,15013.0,0,63.12
16,16015.0,0,63.12
17,17015.0,0,63.12
18,18017.0,0,63.12
19,19017.0,0,63.6
20,20019.0,0,63.6
21,21019.0,0,63.6
22,22021.0,0,63.6
23,23021.0,0,63.6
24,24023.0,0,63.6
25,25024.0,0,63.6
26,26024.0,0,63.6
27,27026.0,0,63.6
28,28026.0,0,64.09
29,29028.0,0,64.09
30,30028.0,0,64.09
31,31030.0,0,64.09
32,32030.0,0,64.09
33,33032.0,0,64.09
34,34033.0,0,64.09
35,35034.0,0,64.09
36,36035.0,0,64.09
37,37036.0,0,64.09
38,38037.0,0,64.09
39,39037.0,0,64.58
40,40039.0,0,64.58
41,41039.0,0,64.58
42,42041.0,0,64.58
43,43042.0,0,63.6
44,44043.0,0,64.09
45,45044.0,0,63.6
46,46045.0,0,64.09
47,47046.0,0,64.09
48,48047.0,0,63.6
49,49048.0,0,63.6
50,50049.0,0,63.6
51,51050.0,0,63.6
52,52051.0,0,63.6
53,53052.0,0,63.12
54,54053.0,0,63.12
55,55054.0,0,63.12
56,56055.0,0,63.12
57,57056.0,0,63.12
58,58057.0,0,63.12
59,59059.0,0,62.63
60,60059.0,0,62.63
61,61061.0,0,62.63
62,62061.0,0,62.63
63,63063.0,0,62.63
64,64063.0,0,62.14
65,65064.0,0,62.14
66,66065.0,0,61.65
67,67066.0,0,61.65
68,68068.0,0,61.65
69,69068.0,0,61.65
70,70070.0,0,61.16
71,71070.0,0,61.16
72,72072.0,0,61.16
73,73072.0,0,60.67
74,74074.0,0,60.67
75,75074.0,0,60.67
76,76076.0,0,60.18
77,77077.0,0,60.18
78,78077.0,0,60.18
79,79079.0,0,60.18
80,80079.0,0,59.69
81,81081.0,0,59.69
82,82081.0,0,59.21
83,83083.0,0,59.21
84,84084.0,0,59.21
85,85085.0,0,59.21
86,86086.0,0,58.72
87,87087.0,0,58.72
88,88088.0,0,58.72
89,89089.0,0,58.23
90,90090.0,0,58.23
91,91090.0,0,58.23
92,92092.0,0,57.74
93,93093.0,0,57.74
94,94094.0,0,57.25
