index,ms,calef,TempC
0,5004.0,0,48.45
1,1000.0,0,47.96
2,2000.0,0,47.48
3,3002.0,0,47.96
4,4002.0,0,47.96
5,5004.0,0,47.96
6,6004.0,0,47.48
7,7006.0,0,47.48
8,8006.0,0,47.48
9,9008.0,0,47.48
10,10008.0,0,47.48
11,11010.0,0,47.48
12,12010.0,0,47.48
13,13011.0,0,47.48
14,14012.0,0,47.48
15,15013.0,0,47.48
16,16014.0,0,47.48
17,17015.0,0,47.48
18,18017.0,0,47.48
19,19017.0,0,47.48
20,20019.0,0,47.48
21,21019.0,0,47.48
22,22021.0,0,47.48
23,23021.0,0,47.48
24,24023.0,0,47.48
25,25023.0,0,47.48
26,26024.0,0,47.48
27,27026.0,0,46.99
28,28026.0,0,46.99
29,29028.0,0,46.99
30,30028.0,0,46.99
31,31030.0,0,46.99
32,32030.0,0,46.99
33,33032.0,0,46.99
34,34032.0,0,46.99
35,35034.0,0,46.99
36,36035.0,0,46.99
37,37036.0,0,46.99
38,38037.0,0,46.99
39,39037.0,0,46.99
40,40039.0,0,46.99
41,41039.0,0,46.99
42,42041.0,0,46.99
43,43041.0,0,46.99
44,44043.0,0,46.99
45,45044.0,0,46.99
46,46045.0,0,46.5
47,47046.0,0,46.5
48,48047.0,0,46.5
49,49048.0,0,46.5
50,50049.0,0,46.5
51,51050.0,0,46.5
52,52050.0,0,46.5
53,53052.0,0,46.5
54,54053.0,0,46.5
55,55054.0,0,46.5
56,56055.0,0,46.5
57,57056.0,0,46.5
58,58057.0,0,46.5
59,59058.0,0,46.5
60,60059.0,0,46.5
61,61060.0,0,46.5
62,62061.0,0,46.5
63,63063.0,0,46.01
64,64063.0,0,46.01
65,65064.0,0,46.01
66,66065.0,0,46.01
67,67066.0,0,46.01
