index,ms,calef,TempC
0,10.0,255,-120.92
1,26033.0,255,-120.3
2,21026.0,255,-120.47
3,22028.0,255,-120.6
4,23029.0,255,-120.72
5,24030.0,255,-120.82
6,25031.0,255,-120.92
7,21026.0,255,-120.47
8,22028.0,255,-120.6
9,23029.0,255,-120.72
10,24030.0,255,-120.82
11,25031.0,255,-120.92
12,2000.0,255,-97.71
13,3002.0,255,-101.09
14,4003.0,255,-104.01
15,5005.0,255,-106.49
16,6006.0,255,-108.48
17,7008.0,255,-110.07
18,8008.0,255,-111.41
19,9010.0,255,-112.55
20,10011.0,255,-113.49
21,11013.0,255,-114.3
22,12014.0,255,-114.99
23,13016.0,255,-115.61
24,14017.0,255,-116.16
25,15017.0,255,-116.65
26,16019.0,255,-117.06
27,17020.0,255,-117.58
28,18022.0,255,-118.1
29,19023.0,255,-118.46
30,20025.0,255,-118.77
31,21026.0,255,-119.07
32,22028.0,255,-119.36
33,23028.0,255,-119.62
34,24030.0,255,-119.81
35,25031.0,255,-120.0
36,26033.0,255,-120.19
37,27034.0,255,-120.37
38,28036.0,255,-120.53
39,29037.0,255,-120.68
40,30039.0,255,-120.89
41,31039.0,255,-121.04
42,32040.0,255,-121.14
43,33042.0,255,-121.19
44,34043.0,255,-121.28
45,35045.0,255,-121.37
46,36046.0,255,-121.45
47,37048.0,255,-121.52
48,38049.0,255,-121.59
49,39051.0,255,-121.67
50,40051.0,255,-121.74
51,41053.0,255,-121.81
52,42054.0,255,-121.89
53,43056.0,255,-121.97
54,44057.0,255,-122.05
55,45059.0,255,-122.13
56,46060.0,255,-122.22
57,47062.0,255,-122.32
58,48062.0,255,-122.4
59,49063.0,255,-122.49
60,50065.0,255,-122.57
61,51066.0,255,-122.65
62,52068.0,255,-122.73
63,53069.0,255,-122.8
64,54071.0,255,-122.87
65,55072.0,255,-122.93
66,56074.0,255,-122.98
67,57074.0,255,-123.04
68,58076.0,255,-123.08
69,59077.0,255,-123.12
70,60079.0,255,-123.15
71,61080.0,255,-123.18
72,62082.0,255,-123.22
73,63083.0,255,-123.25
74,64084.0,255,-123.28
75,65086.0,255,-123.31
76,66086.0,255,-123.34
77,67088.0,255,-123.36
78,68089.0,255,-123.39
79,69091.0,255,-123.42
80,70092.0,255,-123.46
81,71094.0,255,-123.51
82,72095.0,255,-123.55
83,73097.0,255,-123.6
84,74097.0,255,-123.65
85,75099.0,255,-123.71
86,76100.0,255,-123.76
87,77102.0,255,-123.81
88,78103.0,255,-123.86
89,79105.0,255,-123.91
90,80106.0,255,-123.96
91,81107.0,255,-124.01
92,82109.0,255,-124.05
93,83109.0,255,-124.08
94,84111.0,255,-124.12
95,85112.0,255,-124.2
96,86114.0,255,-124.22
97,87115.0,255,-124.11
98,88117.0,255,-124.06
99,89118.0,255,-124.18
