index,ms,calef,TempC
0,5999.0,50,24.35
1,10000.0,50,36.16
2,15001.0,50,40.31
3,20002.0,50,42.55
4,25004.0,50,44.01
5,30005.0,50,44.91
6,35006.0,50,45.49
7,40006.0,50,45.99
8,45007.0,50,46.32
9,50009.0,50,46.69
10,55010.0,50,46.99
11,60011.0,50,47.21
12,65012.0,50,47.43
13,70012.0,50,47.65
14,75014.0,50,47.85
15,80015.0,50,47.99
16,85016.0,50,48.11
17,90017.0,50,48.29
18,95019.0,50,48.41
19,100020.0,50,48.53
20,105020.0,50,48.63
21,110021.0,50,48.7
22,115022.0,50,48.79
23,120024.0,50,48.89
24,125025.0,50,48.96
25,130026.0,50,49.08
26,135027.0,50,49.14
27,140028.0,50,49.24
28,145030.0,50,49.32
29,150031.0,50,49.41
30,155031.0,50,49.45
31,160032.0,50,49.51
32,165033.0,50,49.57
33,170035.0,50,49.62
34,175036.0,50,49.66
35,180037.0,50,49.71
36,185038.0,50,49.75
37,190040.0,50,49.8
38,195041.0,50,49.84
39,200042.0,50,49.88
40,205042.0,50,49.92
41,210043.0,50,49.99
42,215045.0,50,50.05
43,220046.0,50,50.1
44,225047.0,50,50.11
45,230048.0,50,50.12
46,235049.0,50,50.15
47,240051.0,50,50.18
48,245052.0,50,50.24
49,250053.0,50,50.26
50,255053.0,50,50.3
51,260055.0,50,50.32
52,265056.0,50,50.34
53,270057.0,50,50.35
54,275058.0,50,50.36
55,280059.0,50,50.37
56,285061.0,50,50.37
57,290062.0,50,50.4
58,295063.0,50,50.4
59,300063.0,200,50.42
60,305064.0,200,50.45
61,310066.0,200,50.49
62,315067.0,200,50.5
63,320068.0,200,50.55
64,325069.0,200,50.58
65,330071.0,200,50.62
66,335072.0,200,50.67
67,340073.0,200,50.69
68,345074.0,200,50.71
69,350075.0,200,50.74
70,355077.0,200,50.76
71,360078.0,200,50.76
72,365079.0,200,50.8
73,370080.0,200,50.81
74,375081.0,200,50.84
75,380083.0,200,50.86
76,385084.0,200,50.9
77,390084.0,200,50.95
78,395085.0,200,50.98
79,400087.0,200,51.02
80,405088.0,200,51.04
81,410089.0,200,51.08
82,415090.0,200,51.13
83,420091.0,200,51.15
84,425093.0,200,51.18
85,430094.0,200,51.18
86,435095.0,200,51.19
87,440096.0,200,51.21
88,445097.0,200,51.22
89,450099.0,200,51.24
90,455100.0,200,51.26
91,460101.0,200,51.27
