index,ms,calef,TempC,Tsp,cP,cI,cD
0,2000.0,0,15.42,60.0,5041.33,88.44,-10130.29
1,4000.0,255,19.5,60.0,4304.68,75.52,-1212.54
2,5999.0,255,20.62,60.0,4145.75,72.73,-1398.55
3,8000.0,255,21.54,60.0,4030.54,70.71,-230.7
4,9999.0,255,22.11,60.0,3956.37,69.41,-194.06
5,11999.0,255,22.41,60.0,3919.35,68.76,-74.29
6,13999.0,255,22.68,60.0,3891.22,68.27,-98.48
7,16000.0,255,22.86,60.0,3868.36,67.87,-53.57
8,18000.0,255,22.97,60.0,3855.06,67.63,-42.17
9,19999.0,255,23.07,60.0,3842.71,67.42,-33.57
10,21999.0,255,23.14,60.0,3836.09,67.3,-13.02
11,24000.0,255,23.21,60.0,3829.07,67.18,-24.08
12,25999.0,255,23.27,60.0,3821.73,67.05,-20.36
13,27999.0,255,23.33,60.0,3815.46,66.94,-17.46
14,29999.0,255,23.39,60.0,3808.79,66.82,-14.89
15,31998.0,255,23.44,60.0,3802.95,66.72,-23.52
16,33999.0,255,23.47,60.0,3800.06,66.67,-11.51
