index,ms,calef,TempC
0,8002.0,5,20.89
1,2199.0,5,5.42
2,4000.0,5,16.46
3,6001.0,5,20.82
4,8002.0,5,22.93
5,10004.0,5,24.21
6,12005.0,5,25.15
7,14006.0,5,25.83
8,16007.0,5,26.4
9,18009.0,5,26.91
10,20009.0,5,27.36
11,22010.0,5,27.78
12,24011.0,5,28.18
13,26012.0,5,28.51
14,28014.0,5,28.8
15,30015.0,5,29.05
16,32016.0,5,29.31
17,34017.0,5,29.57
18,36019.0,5,29.86
19,38020.0,5,30.09
20,40020.0,5,30.33
21,42021.0,5,30.52
22,44023.0,5,30.72
23,46024.0,5,30.93
24,48025.0,5,31.14
25,50026.0,5,31.37
26,52028.0,5,31.53
27,54029.0,5,31.73
28,56030.0,5,31.91
29,58031.0,5,32.1
30,60032.0,5,32.3
31,62033.0,5,32.45
32,64034.0,5,32.63
33,66035.0,5,32.82
34,68036.0,5,33.02
35,70038.0,5,33.21
36,72039.0,5,33.37
37,74040.0,5,33.55
38,76041.0,5,33.71
39,78043.0,5,33.88
40,80044.0,5,34.07
41,82044.0,5,34.21
42,84045.0,5,34.36
43,86047.0,5,34.5
44,88048.0,5,34.66
45,90049.0,5,34.81
46,92050.0,5,34.95
47,94051.0,5,35.12
48,96053.0,5,35.27
49,98054.0,5,35.45
50,100055.0,5,35.6
51,102055.0,5,35.76
52,104057.0,5,35.9
53,106058.0,5,36.03
54,108059.0,5,36.2
55,110061.0,5,36.32
56,112062.0,5,36.46
57,114063.0,5,36.6
58,116064.0,5,36.74
59,118066.0,5,36.88
60,120067.0,5,37.01
61,122067.0,5,37.14
62,124068.0,5,37.26
63,126070.0,5,37.39
64,128071.0,5,37.52
65,130072.0,5,37.66
66,132074.0,5,37.8
67,134075.0,5,37.93
68,136076.0,5,38.06
69,138077.0,5,38.2
70,140079.0,5,38.32
71,142080.0,5,38.45
72,144080.0,5,38.57
73,146082.0,5,38.69
74,148083.0,5,38.81
75,150084.0,5,38.94
76,152085.0,5,39.06
77,154087.0,5,39.2
78,156088.0,5,39.32
79,158089.0,5,39.43
80,160090.0,5,39.54
81,162092.0,5,39.66
82,164092.0,5,39.79
83,166093.0,5,39.9
84,168095.0,5,40.01
85,170096.0,5,40.11
86,172097.0,5,40.22
87,174098.0,5,40.31
88,176100.0,5,40.44
89,178101.0,5,40.53
90,180102.0,5,40.63
91,182104.0,5,40.73
92,184104.0,5,40.83
93,186105.0,5,40.92
94,188106.0,5,40.99
95,190108.0,5,41.07
96,192109.0,5,41.15
97,194110.0,5,41.25
98,196111.0,5,41.34
99,198113.0,5,41.44
100,200114.0,5,41.52
101,202115.0,5,41.59
102,204116.0,5,41.68
103,206117.0,5,41.76
104,208118.0,5,41.84
105,210119.0,5,41.89
106,212121.0,5,41.98
107,214122.0,5,42.04
108,216123.0,5,42.11
109,218124.0,5,42.17
110,220126.0,5,42.25
111,222127.0,5,42.31
112,224128.0,5,42.39
113,226129.0,5,42.48
114,228130.0,5,42.55
115,230131.0,5,42.65
116,232132.0,5,42.75
117,234134.0,5,42.82
118,236135.0,5,42.9
119,238136.0,5,42.97
120,240138.0,5,43.06
121,242139.0,5,43.16
122,244140.0,5,43.2
123,246140.0,5,43.27
124,248142.0,5,43.31
125,250143.0,5,43.37
126,252144.0,5,43.46
127,254145.0,5,43.54
128,256147.0,5,43.61
129,258148.0,5,43.68
130,260149.0,5,43.74
131,262151.0,5,43.78
132,264152.0,5,43.82
133,266152.0,5,43.86
134,268153.0,5,43.92
135,270155.0,5,43.98
136,272156.0,5,44.06
137,274157.0,5,44.11
138,276159.0,5,44.17
139,278160.0,5,44.22
140,280161.0,5,44.28
