index,ms,calef,TempC,Tsp
0,1999.0,255,38.26,50.0
1,4000.0,0,46.1,50.0
2,5999.0,0,48.13,50.0
3,7999.0,0,49.01,50.0
4,9999.0,0,49.45,50.0
5,11999.0,0,49.73,50.0
6,13999.0,0,49.96,50.0
7,15998.0,0,50.13,50.0
8,17999.0,0,50.2,50.0
9,19999.0,0,50.29,50.0
10,22000.0,0,50.33,50.0
11,24000.0,255,50.41,52.0
12,26000.0,152,50.48,52.0
13,27999.0,139,50.6,52.0
14,30000.0,164,50.64,52.0
15,31998.0,130,50.7,52.0
16,34000.0,131,50.75,52.0
17,36000.0,154,50.78,52.0
18,38000.0,135,50.85,52.0
19,40000.0,137,50.87,52.0
20,41999.0,138,50.9,52.0
21,44000.0,158,50.93,52.0
22,46000.0,162,50.94,52.0
23,48000.0,155,50.96,52.0
24,49999.0,173,50.96,52.0
25,52000.0,168,50.99,52.0
26,54000.0,147,51.04,52.0
27,56000.0,170,51.03,52.0
28,58000.0,166,51.06,52.0
29,60000.0,174,51.09,52.0
30,61999.0,154,51.1,52.0
31,63998.0,163,51.14,52.0
32,65999.0,162,51.17,52.0
33,68000.0,149,51.22,52.0
34,70000.0,156,51.25,52.0
35,71999.0,168,51.26,52.0
36,73999.0,169,51.3,52.0
37,76000.0,170,51.32,52.0
38,78000.0,156,51.35,52.0
39,79998.0,168,51.39,52.0
40,81999.0,161,51.42,52.0
41,83999.0,154,51.46,52.0
42,86000.0,147,51.48,52.0
43,88000.0,158,51.52,52.0
44,89999.0,157,51.55,52.0
45,91999.0,145,51.57,52.0
46,93999.0,137,51.62,52.0
47,95998.0,152,51.65,52.0
48,97999.0,139,51.68,52.0
49,100000.0,143,51.71,52.0
50,101999.0,147,51.73,52.0
51,103999.0,129,51.77,52.0
52,105999.0,138,51.8,52.0
53,107999.0,130,51.82,52.0
54,110000.0,129,51.85,52.0
55,111998.0,138,51.87,52.0
56,114000.0,125,51.9,52.0
57,116000.0,118,51.92,52.0
58,117999.0,132,51.93,52.0
59,119999.0,121,51.96,52.0
60,121999.0,130,51.97,52.0
61,123999.0,111,52.0,52.0
62,125999.0,119,52.03,52.0
63,127998.0,117,52.04,52.0
64,130000.0,103,52.09,52.0
65,132000.0,105,52.12,52.0
66,133999.0,107,52.16,52.0
67,135999.0,93,52.18,50.0
68,137999.0,0,52.19,50.0
69,139999.0,0,52.19,50.0
70,141999.0,0,52.18,50.0
71,144000.0,0,52.18,50.0
72,145999.0,0,52.16,50.0
73,147999.0,0,52.15,50.0
74,150000.0,0,52.14,50.0
75,152000.0,0,52.13,50.0
76,153999.0,0,52.13,50.0
77,156000.0,0,52.12,50.0
78,157999.0,0,52.1,50.0
79,160000.0,0,52.1,50.0
80,161999.0,0,52.09,50.0
81,163999.0,0,52.08,50.0
82,165999.0,0,52.07,50.0
83,168000.0,0,52.06,50.0
84,169999.0,0,52.07,50.0
85,171999.0,0,52.06,50.0
86,174000.0,0,52.05,50.0
87,175998.0,0,52.03,50.0
88,177999.0,0,52.01,50.0
89,180000.0,0,51.99,50.0
90,181999.0,0,51.97,50.0
91,183999.0,0,51.96,50.0
92,185999.0,0,51.95,50.0
93,188000.0,0,51.93,50.0
94,189999.0,0,51.91,50.0
95,192000.0,0,51.88,50.0
96,193999.0,0,51.86,50.0
97,195999.0,0,51.84,50.0
98,197999.0,0,51.81,50.0
99,199999.0,0,51.78,50.0
100,202000.0,0,51.75,50.0
101,203999.0,0,51.73,50.0
102,205999.0,0,51.7,50.0
103,208000.0,0,51.68,50.0
104,209999.0,0,51.66,50.0
105,212000.0,0,51.64,50.0
106,213999.0,0,51.61,50.0
107,216000.0,0,51.59,50.0
108,218000.0,0,51.57,50.0
109,219999.0,0,51.54,50.0
110,221999.0,0,51.53,50.0
111,224000.0,0,51.51,50.0
112,225999.0,0,51.48,50.0
113,227999.0,0,51.45,50.0
114,229999.0,0,51.43,50.0
115,232000.0,0,51.41,50.0
116,233999.0,0,51.38,50.0
117,235999.0,0,51.37,50.0
118,237999.0,0,51.35,50.0
119,239998.0,0,51.34,50.0
120,241999.0,0,51.33,50.0
121,243999.0,0,51.33,50.0
122,245999.0,0,51.31,50.0
123,247999.0,0,51.29,50.0
124,249999.0,0,51.29,50.0
125,251999.0,0,51.28,50.0
126,253999.0,0,51.28,50.0
127,255998.0,0,51.28,50.0
128,257999.0,0,51.27,50.0
129,259999.0,0,51.26,50.0
130,262000.0,0,51.25,50.0
131,263999.0,0,51.24,50.0
132,265999.0,0,51.23,50.0
133,267999.0,0,51.23,50.0
134,269999.0,0,51.21,50.0
135,272000.0,0,51.2,50.0
136,273999.0,0,51.17,50.0
137,275999.0,0,51.15,50.0
138,278000.0,0,51.14,50.0
139,280000.0,0,51.14,50.0
140,282000.0,0,51.12,50.0
141,283999.0,0,51.1,50.0
142,286000.0,0,51.08,50.0
143,288000.0,0,51.07,50.0
144,289999.0,0,51.05,50.0
145,292000.0,0,51.03,50.0
146,294000.0,0,51.02,50.0
147,296000.0,0,50.99,50.0
148,297999.0,0,50.99,50.0
149,299999.0,0,50.97,50.0
150,301999.0,0,50.96,50.0
151,304000.0,0,50.95,50.0
152,306000.0,0,50.93,50.0
153,308000.0,0,50.91,50.0
154,309999.0,0,50.9,50.0
155,311999.0,0,50.88,50.0
156,314000.0,0,50.87,50.0
157,315999.0,0,50.85,50.0
158,317999.0,0,50.84,50.0
