index,ms,calef,TempC
0,10008.0,0,46.01
1,11010.0,0,46.01
2,12010.0,0,46.01
3,13011.0,0,46.01
4,14012.0,0,45.52
5,15013.0,0,46.01
6,1000.0,0,45.52
7,2000.0,0,45.52
8,3002.0,0,45.52
9,4002.0,0,45.03
10,5004.0,0,45.03
11,6004.0,0,45.03
12,7006.0,0,45.03
13,8006.0,0,45.03
14,9008.0,0,45.03
15,10008.0,0,45.03
16,11010.0,0,45.03
17,12010.0,0,45.03
18,13011.0,0,44.54
19,14012.0,0,44.54
20,15013.0,0,44.05
21,16014.0,0,44.05
22,17015.0,0,44.05
23,18017.0,0,44.05
24,19017.0,0,44.05
25,20019.0,0,44.54
26,21019.0,0,43.57
27,22021.0,0,42.59
28,23021.0,0,43.08
29,24023.0,0,42.59
30,25023.0,0,42.59
31,26024.0,0,43.08
32,27026.0,0,42.59
33,28026.0,0,42.59
34,29028.0,0,42.59
35,30028.0,0,43.08
36,31030.0,255,41.12
37,32030.0,255,41.61
38,33032.0,255,41.61
39,34033.0,255,41.61
40,35034.0,255,42.1
41,36035.0,255,42.1
42,37036.0,255,42.1
43,38037.0,255,42.1
44,39038.0,0,42.59
45,40039.0,255,42.1
46,41040.0,0,42.59
47,42041.0,0,42.59
48,43042.0,0,42.59
49,44044.0,0,42.59
50,45044.0,0,41.61
51,46046.0,0,41.61
52,47046.0,0,41.61
53,48048.0,0,41.61
54,49048.0,0,41.61
55,50050.0,0,42.1
56,51050.0,0,42.1
57,52051.0,0,42.1
58,53052.0,0,42.1
59,54053.0,0,42.1
60,55055.0,0,42.1
61,56055.0,0,42.59
62,57057.0,0,42.59
63,58057.0,0,42.1
64,59059.0,0,42.1
65,60059.0,0,42.1
66,61061.0,0,42.1
67,62061.0,0,42.59
68,63063.0,0,42.59
69,64063.0,0,42.59
70,65064.0,0,42.59
71,66066.0,0,42.59
72,67066.0,0,42.59
73,68068.0,0,42.1
74,69068.0,0,42.59
75,70070.0,0,42.59
76,71070.0,0,42.59
77,72072.0,0,42.59
78,73072.0,0,43.08
79,74074.0,0,43.08
80,75075.0,0,43.08
81,76076.0,0,43.08
82,77077.0,0,43.08
83,78077.0,0,42.59
84,79079.0,0,42.59
85,80079.0,0,42.1
86,81081.0,0,42.1
87,82081.0,0,42.1
88,83083.0,0,42.1
89,84083.0,0,41.61
90,85085.0,0,41.61
91,86085.0,0,41.61
92,87087.0,0,41.61
93,88088.0,0,41.61
94,89089.0,0,42.1
95,90090.0,0,42.1
96,91090.0,0,41.61
97,92092.0,0,41.61
98,93092.0,0,41.61
99,94094.0,0,41.61
100,95094.0,0,41.61
101,96096.0,0,41.61
102,97096.0,0,41.61
103,98098.0,0,41.61
104,99099.0,255,42.1
105,100100.0,255,41.61
106,101101.0,255,41.61
107,102103.0,255,41.12
108,103103.0,255,40.63
109,104104.0,255,40.63
110,105106.0,255,40.14
111,106106.0,255,39.66
112,107108.0,255,39.66
113,108109.0,255,39.17
114,109110.0,255,39.17
115,110111.0,255,39.17
116,111113.0,255,39.17
117,112113.0,255,38.68
118,113115.0,255,38.68
119,114116.0,255,38.19
120,115118.0,255,38.19
121,116118.0,255,37.7
122,117120.0,255,37.7
123,118121.0,255,37.7
124,119121.0,255,38.19
125,120123.0,255,38.19
126,121124.0,255,38.19
127,122125.0,255,38.19
128,123126.0,255,38.68
129,124128.0,255,38.68
130,125128.0,255,38.68
131,126130.0,255,38.68
132,127131.0,255,39.17
133,128132.0,255,39.17
134,129133.0,255,39.17
135,130135.0,255,39.17
136,131136.0,255,39.66
137,132136.0,255,39.17
138,133138.0,255,39.66
139,134139.0,255,39.66
140,135140.0,255,39.66
141,136141.0,255,39.66
142,137143.0,255,39.66
143,138143.0,255,40.14
144,139145.0,255,40.14
145,140146.0,255,40.14
146,141147.0,255,40.14
147,142148.0,255,40.14
148,143150.0,255,40.63
149,144151.0,255,40.63
150,145152.0,255,40.63
151,146153.0,255,40.63
152,147154.0,255,40.63
153,148155.0,255,40.63
154,149156.0,255,41.12
155,150158.0,255,41.12
156,151158.0,255,40.63
157,152160.0,255,41.12
158,153161.0,255,41.12
159,154162.0,255,41.12
160,155163.0,255,41.12
161,156165.0,255,41.12
