index,ms,calef,TempC
0,4002.0,255,22.55
1,5004.0,255,22.55
2,1000.0,255,22.06
3,2000.0,255,22.06
4,3002.0,255,22.06
5,4002.0,255,22.06
6,5004.0,255,22.06
7,6005.0,255,22.06
8,7006.0,255,22.06
9,8007.0,255,22.06
10,9008.0,255,22.06
11,10009.0,255,22.06
12,11011.0,255,22.06
13,12011.0,255,22.06
14,13012.0,255,22.06
15,14013.0,255,22.06
16,15014.0,255,22.06
17,16016.0,255,22.55
18,17016.0,255,22.55
19,18018.0,255,22.55
20,19019.0,255,22.55
21,20020.0,255,22.06
22,21021.0,255,22.06
23,22023.0,255,22.06
24,23023.0,255,22.06
25,24025.0,255,22.06
26,25025.0,255,22.55
27,26027.0,255,22.06
28,27028.0,255,22.06
29,28028.0,255,22.06
30,29030.0,255,22.06
31,30031.0,255,22.06
32,31032.0,255,22.06
33,32033.0,255,22.06
34,33035.0,255,22.55
35,34035.0,255,22.55
36,35037.0,255,22.55
37,36038.0,255,22.55
38,37039.0,255,22.55
39,38040.0,255,22.55
40,39041.0,255,22.55
41,40042.0,255,22.55
42,41043.0,255,22.55
43,42044.0,255,22.55
44,43045.0,255,22.55
45,44047.0,255,22.55
46,45047.0,255,22.55
47,46049.0,255,22.55
48,47050.0,255,22.55
49,48051.0,255,22.55
50,49052.0,255,22.55
51,50054.0,255,22.55
52,51054.0,255,22.55
53,52056.0,255,22.55
54,53057.0,255,22.55
55,54057.0,255,22.55
56,55059.0,255,22.55
57,56059.0,255,22.55
58,57061.0,255,22.55
59,58062.0,255,22.55
60,59063.0,255,22.55
61,60064.0,255,22.55
62,61066.0,255,22.55
63,62066.0,255,22.55
64,63068.0,255,22.55
65,64069.0,255,22.55
66,65070.0,255,22.55
67,66071.0,255,22.55
68,67073.0,255,22.55
69,68073.0,255,23.04
70,69074.0,255,23.04
71,70076.0,255,23.04
72,71076.0,255,22.55
73,72078.0,255,23.04
74,73078.0,255,22.55
75,74080.0,255,23.04
76,75081.0,255,23.04
77,76082.0,255,23.04
78,77083.0,255,23.04
79,78085.0,255,23.04
80,79085.0,255,23.04
81,80087.0,255,23.04
82,81088.0,255,23.04
83,82088.0,255,23.04
84,83090.0,255,22.55
85,84090.0,255,23.04
86,85092.0,255,22.55
87,86093.0,255,22.55
88,87094.0,255,22.55
89,88095.0,255,22.55
90,89097.0,255,23.04
91,90097.0,255,22.55
92,91099.0,255,22.55
93,92100.0,255,23.04
94,93101.0,255,23.04
95,94102.0,255,23.04
96,95104.0,255,23.04
