index,ms,calef,TempC
0,1000.0,255,28.89
1,2000.0,255,32.26
2,3002.0,255,33.8
3,4003.0,255,34.66
4,5005.0,255,35.21
5,6006.0,255,35.67
6,7007.0,255,36.0
7,8008.0,255,36.29
8,9010.0,255,36.54
9,10011.0,255,36.75
10,11013.0,255,36.96
11,12013.0,255,37.14
12,13015.0,255,37.3
13,14016.0,255,37.46
14,15017.0,255,37.61
15,16019.0,255,37.74
16,17020.0,255,37.87
17,18021.0,255,38.0
18,19022.0,255,38.11
19,20024.0,255,38.24
20,21025.0,255,38.36
21,22027.0,255,38.48
22,23027.0,255,38.6
23,24029.0,255,38.71
24,25030.0,255,38.84
25,26032.0,255,38.95
26,27033.0,255,39.08
27,28035.0,255,39.2
28,29035.0,255,39.31
29,30036.0,255,39.43
30,31038.0,255,39.55
31,32039.0,255,39.65
32,33041.0,255,39.77
33,34042.0,255,39.88
34,35043.0,255,39.99
35,36044.0,255,40.11
36,37046.0,255,40.22
37,38047.0,255,40.34
38,39049.0,255,40.45
39,40049.0,0,40.58
40,41051.0,0,40.71
41,42052.0,0,40.84
42,43054.0,0,40.98
43,44054.0,0,41.11
44,45056.0,0,41.24
45,46057.0,0,41.37
46,47058.0,0,41.5
47,48059.0,0,41.62
48,49060.0,0,41.76
49,50062.0,0,41.88
50,51063.0,0,42.01
51,52064.0,0,42.13
52,53065.0,0,42.26
53,54067.0,0,42.38
54,55068.0,0,42.5
55,56069.0,0,42.62
56,57070.0,0,42.75
57,58072.0,0,42.86
58,59073.0,0,42.97
59,60073.0,0,43.08
60,61075.0,0,43.19
61,62076.0,0,43.29
62,63078.0,0,43.4
63,64078.0,0,43.5
64,65080.0,0,43.59
65,66081.0,0,43.69
66,67083.0,0,43.78
67,68083.0,0,43.87
68,69085.0,0,43.95
69,70086.0,0,44.03
70,71088.0,0,44.12
71,72088.0,0,44.19
72,73090.0,0,44.27
73,74091.0,0,44.35
74,75092.0,0,44.41
75,76093.0,0,44.47
76,77094.0,0,44.54
77,78096.0,0,44.59
78,79097.0,0,44.65
79,80098.0,0,44.71
80,81099.0,0,44.76
81,82101.0,0,44.81
82,83102.0,0,44.86
83,84103.0,0,44.91
84,85104.0,0,44.95
85,86106.0,0,45.0
86,87107.0,0,45.04
87,88108.0,0,45.09
88,89109.0,0,45.13
89,90110.0,0,45.17
90,91112.0,0,45.21
91,92112.0,0,45.24
92,93114.0,0,45.27
93,94115.0,0,45.3
94,95117.0,0,45.32
95,96117.0,0,45.35
96,97119.0,0,45.38
97,98120.0,0,45.4
98,99122.0,0,45.42
99,100122.0,0,45.45
100,101124.0,0,45.47
101,102125.0,0,45.49
102,103127.0,0,45.51
103,104128.0,0,45.52
104,105128.0,0,45.54
105,106130.0,0,45.55
106,107131.0,0,45.56
107,108133.0,0,45.57
108,109134.0,0,45.58
109,110135.0,0,45.59
110,111136.0,0,45.59
111,112138.0,0,45.59
112,113139.0,0,45.59
113,114141.0,0,45.59
114,115141.0,0,45.59
115,116143.0,0,45.58
116,117144.0,0,45.58
117,118146.0,0,45.58
118,119147.0,0,45.58
119,120147.0,0,45.58
120,121149.0,0,45.58
121,122150.0,0,45.57
122,123152.0,0,45.56
123,124152.0,0,45.55
124,125154.0,0,45.54
125,126155.0,0,45.53
126,127157.0,0,45.52
127,128158.0,0,45.51
128,129159.0,0,45.5
129,130160.0,0,45.49
130,131162.0,0,45.48
131,132163.0,0,45.47
132,133165.0,0,45.45
133,134165.0,0,45.43
134,135166.0,0,45.41
135,136168.0,0,45.39
136,137169.0,0,45.37
137,138171.0,0,45.35
138,139171.0,0,45.34
139,140173.0,0,45.32
140,141174.0,0,45.3
141,142176.0,0,45.27
142,143177.0,0,45.24
143,144178.0,0,45.22
144,145179.0,0,45.19
145,146181.0,0,45.15
146,147182.0,0,45.12
147,148184.0,0,45.09
148,149184.0,0,45.05
149,150185.0,0,45.02
150,151187.0,0,44.99
151,152188.0,0,44.98
152,153190.0,0,44.96
153,154190.0,0,44.94
154,155192.0,0,44.92
