index,ms,calef,TempC
0,2199.0,25,28.86
1,4000.0,25,41.55
2,6001.0,25,46.02
3,8003.0,25,48.3
4,10004.0,25,49.88
5,12005.0,25,50.94
6,14006.0,25,51.85
7,16008.0,25,52.59
8,18009.0,25,53.17
9,20009.0,25,53.14
10,22011.0,25,53.11
11,24012.0,25,53.05
12,26013.0,25,53.07
13,28014.0,25,53.05
14,30016.0,25,53.07
15,32017.0,25,53.13
16,34018.0,25,53.23
17,36019.0,25,53.33
18,38021.0,25,53.45
19,40022.0,25,53.58
20,42022.0,25,53.73
21,44024.0,25,53.92
22,46025.0,25,54.14
23,48026.0,25,54.37
24,50027.0,25,54.58
25,52029.0,25,54.8
26,54030.0,25,55.03
27,56031.0,25,55.26
28,58033.0,25,55.5
29,60034.0,100,55.73
30,62034.0,100,55.96
31,64035.0,100,56.2
32,66037.0,100,56.41
33,68038.0,100,56.61
34,70039.0,100,56.81
35,72041.0,100,57.02
36,74042.0,100,57.25
37,76043.0,100,57.42
38,78045.0,100,57.6
39,80046.0,100,57.8
40,82046.0,100,57.98
41,84048.0,100,58.19
42,86049.0,100,58.4
43,88050.0,100,58.59
44,90052.0,100,58.78
45,92053.0,100,58.95
46,94054.0,100,59.14
47,96056.0,100,59.36
48,98057.0,100,59.57
49,100058.0,100,59.8
50,102060.0,100,60.01
51,104060.0,100,60.24
52,106061.0,100,60.47
53,108063.0,100,60.72
54,110064.0,100,60.94
55,112065.0,100,61.16
56,114067.0,100,61.38
57,116068.0,100,61.61
58,118069.0,100,61.82
59,120071.0,100,62.02
60,122072.0,100,62.23
61,124072.0,100,62.43
62,126074.0,100,62.66
63,128075.0,100,62.89
64,130077.0,100,63.12
65,132078.0,100,63.36
66,134079.0,100,63.62
67,136081.0,100,63.87
68,138082.0,100,64.1
69,140083.0,100,64.33
70,142085.0,100,64.54
71,144086.0,100,64.75
72,146086.0,100,64.94
73,148088.0,100,65.13
74,150089.0,100,65.3
75,152090.0,100,65.47
76,154092.0,100,65.66
77,156093.0,100,65.86
78,158095.0,100,66.03
79,160096.0,100,66.21
80,162097.0,100,66.37
81,164099.0,100,66.53
82,166099.0,100,66.68
83,168100.0,100,66.86
84,170102.0,100,67.03
85,172103.0,100,67.2
86,174104.0,100,67.39
87,176106.0,100,67.56
88,178107.0,100,67.71
89,180108.0,100,67.87
90,182110.0,100,68.04
91,184111.0,100,68.2
92,186112.0,100,68.36
93,188113.0,100,68.53
94,190114.0,100,68.68
95,192116.0,100,68.82
96,194117.0,100,68.98
97,196118.0,100,69.13
98,198120.0,100,69.26
99,200121.0,100,69.4
100,202122.0,100,69.51
101,204124.0,100,69.65
102,206125.0,100,69.76
103,208125.0,100,69.86
104,210127.0,100,69.95
105,212128.0,100,70.03
106,214130.0,100,70.09
107,216131.0,100,70.16
108,218132.0,100,70.23
109,220134.0,100,70.31
110,222135.0,100,70.38
111,224136.0,100,70.46
112,226138.0,100,70.56
113,228139.0,100,70.66
114,230139.0,100,70.75
115,232141.0,100,70.82
116,234142.0,100,70.91
117,236143.0,100,70.98
118,238145.0,100,71.02
119,240146.0,100,71.09
120,242148.0,100,71.15
121,244149.0,100,71.22
122,246150.0,100,71.3
123,248152.0,100,71.4
124,250152.0,100,71.48
125,252153.0,100,71.58
126,254155.0,100,71.66
127,256156.0,100,71.73
128,258157.0,100,71.76
129,260159.0,100,71.79
130,262160.0,100,71.83
131,264161.0,100,71.88
132,266163.0,100,71.92
133,268164.0,100,71.95
134,270166.0,100,71.98
135,272166.0,100,72.01
136,274167.0,100,72.08
137,276169.0,100,72.12
138,278170.0,100,72.18
139,280171.0,100,72.25
140,282173.0,100,72.32
141,284174.0,100,72.41
142,286175.0,100,72.49
143,288177.0,100,72.56
144,290178.0,100,72.65
145,292178.0,100,72.72
146,294180.0,100,72.78
147,296181.0,100,72.83
148,298183.0,100,72.87
149,300184.0,100,72.9
150,302185.0,100,72.95
151,304187.0,100,72.97
152,306188.0,100,73.0
153,308189.0,100,73.04
154,310191.0,100,73.1
155,312192.0,100,73.16
156,314192.0,100,73.25
157,316194.0,100,73.34
158,318195.0,100,73.42
159,320197.0,100,73.5
160,322198.0,100,73.58
161,324199.0,100,73.64
162,326000.0,100,73.72
163,328002.0,100,73.79
164,330003.0,100,73.86
165,332004.0,100,73.92
166,334006.0,100,73.99
167,336007.0,100,74.07
168,338008.0,100,74.14
169,340009.0,100,74.22
170,342010.0,100,74.3
171,344011.0,100,74.4
172,346013.0,100,74.52
173,348014.0,100,74.61
174,350016.0,100,74.7
175,352017.0,100,74.79
176,354018.0,100,74.88
177,356020.0,100,74.96
178,358021.0,100,75.02
179,360022.0,100,75.08
180,362023.0,100,75.12
181,364024.0,100,75.15
182,366025.0,100,75.15
183,368027.0,100,75.17
184,370028.0,100,75.23
185,372030.0,100,75.27
186,374031.0,100,75.32
187,376032.0,100,75.37
188,378034.0,100,75.4
189,380035.0,100,75.43
190,382035.0,100,75.46
191,384037.0,100,75.47
192,386038.0,100,75.49
193,388039.0,100,75.5
194,390041.0,100,75.51
195,392042.0,100,75.53
196,394044.0,100,75.56
197,396045.0,100,75.59
198,398046.0,100,75.61
199,400048.0,100,75.63
200,402049.0,100,75.66
201,404049.0,100,75.68
202,406051.0,100,75.67
203,408052.0,100,75.67
204,410053.0,100,75.7
205,412055.0,100,75.72
206,414056.0,100,75.72
207,416058.0,100,75.76
208,418059.0,100,75.78
209,420060.0,100,75.79
210,422062.0,100,75.84
211,424062.0,100,75.88
212,426063.0,100,75.92
213,428065.0,100,75.95
214,430066.0,100,75.98
215,432067.0,100,76.01
216,434069.0,100,76.0
217,436070.0,100,76.01
218,438071.0,100,76.01
219,440073.0,100,76.02
220,442074.0,100,76.0
221,444076.0,100,76.01
222,446076.0,100,76.0
223,448077.0,100,76.03
224,450079.0,100,76.05
225,452080.0,100,76.09
226,454081.0,100,76.15
227,456083.0,100,76.19
228,458084.0,100,76.24
229,460085.0,100,76.26
230,462087.0,100,76.28
231,464088.0,100,76.28
232,466089.0,100,76.28
233,468090.0,100,76.27
234,470091.0,100,76.25
235,472093.0,100,76.24
236,474094.0,100,76.24
237,476095.0,100,76.21
238,478097.0,100,76.2
239,480098.0,100,76.2
240,482099.0,100,76.2
