index,ms,calef,TempC
0,1000.0,255,32.32
1,2000.0,255,32.32
2,3002.0,255,32.32
3,4002.0,255,32.32
4,5004.0,255,32.81
5,6005.0,255,32.81
6,7006.0,255,32.81
7,8007.0,255,32.81
8,9008.0,255,32.81
9,10009.0,255,32.32
10,11011.0,255,32.81
11,12011.0,255,32.81
12,13012.0,255,32.81
13,14014.0,255,32.81
14,15014.0,255,32.81
15,16016.0,255,32.81
16,17017.0,255,32.81
17,18018.0,255,32.81
18,19019.0,255,33.3
19,20020.0,255,33.3
20,21021.0,255,33.3
21,22023.0,255,33.3
22,23023.0,255,33.3
23,24025.0,255,33.3
24,25026.0,255,33.79
25,26027.0,255,33.3
26,27028.0,255,33.79
27,28029.0,255,33.3
28,29030.0,255,33.3
29,30031.0,255,33.79
30,31033.0,255,33.79
31,32033.0,255,33.79
32,33035.0,255,33.79
33,34036.0,255,33.79
34,35037.0,255,33.79
35,36038.0,255,33.79
36,37039.0,255,34.28
37,38040.0,255,34.28
38,39042.0,255,34.28
39,40042.0,255,34.28
40,41043.0,255,34.28
41,42045.0,255,34.28
42,43045.0,255,34.28
43,44047.0,255,34.28
44,45048.0,255,34.28
45,46049.0,255,34.28
46,47050.0,255,34.77
47,48052.0,255,34.77
48,49052.0,255,34.77
49,50054.0,255,34.77
50,51055.0,255,34.77
51,52056.0,255,34.77
52,53057.0,255,34.77
53,54057.0,255,35.26
54,55059.0,255,35.26
55,56060.0,255,35.26
56,57061.0,255,35.26
57,58062.0,255,35.26
58,59064.0,255,35.75
59,60064.0,255,35.75
60,61066.0,255,35.75
61,62067.0,255,35.75
62,63068.0,255,35.75
63,64069.0,255,35.75
64,65071.0,255,35.75
65,66071.0,255,36.23
66,67073.0,255,35.75
67,68074.0,255,36.23
68,69074.0,255,36.23
69,70076.0,255,36.23
70,71076.0,255,36.23
71,72078.0,255,36.23
72,73079.0,255,36.23
73,74080.0,255,36.72
74,75081.0,255,36.72
75,76083.0,255,36.23
76,77083.0,255,36.23
77,78085.0,255,36.72
78,79086.0,255,36.72
79,80087.0,255,36.72
80,81088.0,255,36.72
81,82089.0,255,36.72
82,83090.0,255,36.72
83,84091.0,255,37.21
84,85093.0,255,36.72
85,86093.0,255,37.21
86,87095.0,255,37.21
87,88095.0,255,37.21
88,89097.0,255,37.21
89,90098.0,255,37.21
90,91099.0,255,37.21
91,92100.0,255,37.21
92,93102.0,255,37.21
93,94102.0,255,37.7
94,95104.0,255,37.7
95,96105.0,255,37.7
96,97105.0,255,37.7
97,98107.0,255,37.7
98,99108.0,255,37.7
99,100109.0,255,37.7
100,101110.0,255,37.7
101,102112.0,255,37.7
102,103112.0,255,38.19
103,104114.0,255,38.19
104,105115.0,255,38.19
105,106116.0,255,38.19
106,107117.0,255,38.19
107,108119.0,255,38.19
108,109119.0,255,38.68
109,110120.0,255,38.68
110,111122.0,255,38.68
111,112123.0,255,38.68
112,113124.0,255,38.68
113,114125.0,255,38.68
114,115127.0,255,38.68
115,116127.0,255,38.68
116,117129.0,255,38.68
117,118130.0,255,38.68
118,119131.0,255,39.17
119,120132.0,255,39.17
120,121134.0,255,39.17
121,122134.0,255,39.17
122,123136.0,255,39.17
123,124137.0,255,39.17
124,125138.0,255,39.17
125,126139.0,255,39.17
126,127140.0,255,39.66
127,128142.0,255,39.66
128,129142.0,255,39.66
129,130144.0,255,39.66
130,131145.0,255,39.66
131,132146.0,255,39.66
132,133147.0,255,40.14
133,134149.0,255,39.66
134,135149.0,255,39.66
135,136151.0,255,40.14
136,137152.0,255,39.66
137,138152.0,255,40.14
138,139154.0,255,40.14
139,140155.0,255,40.14
140,141157.0,255,40.14
141,142157.0,255,40.14
142,143159.0,255,40.14
143,144160.0,255,40.14
144,145161.0,255,40.14
145,146162.0,255,40.14
146,147164.0,255,40.63
147,148164.0,255,40.63
148,149166.0,255,40.63
149,150167.0,255,40.63
150,151168.0,255,40.63
151,152169.0,255,40.63
152,153170.0,255,40.63
153,154172.0,255,40.63
154,155172.0,255,40.63
155,156174.0,255,40.63
156,157175.0,255,40.63
157,158176.0,255,40.63
158,159177.0,255,40.63
159,160179.0,255,41.12
160,161179.0,255,41.12
161,162181.0,255,41.12
162,163182.0,255,41.12
163,164183.0,255,41.12
164,165184.0,255,41.12
165,166185.0,255,41.12
166,167186.0,255,41.12
167,168187.0,255,41.12
168,169189.0,255,41.12
169,170190.0,255,41.12
170,171191.0,255,41.12
171,172192.0,255,41.61
172,173194.0,255,41.61
173,174194.0,255,41.61
174,175196.0,255,41.61
175,176197.0,255,41.61
176,177198.0,255,41.61
177,178199.0,255,42.1
178,179201.0,255,41.61
179,180201.0,255,41.61
180,181202.0,255,41.61
181,182204.0,255,42.1
182,183205.0,255,42.1
183,184206.0,255,42.1
184,185207.0,255,42.1
185,186209.0,255,42.1
186,187209.0,255,42.1
187,188211.0,255,42.1
188,189212.0,255,42.1
189,190213.0,255,42.59
190,191214.0,255,42.1
191,192216.0,255,42.59
192,193216.0,255,42.59
193,194217.0,255,42.59
194,195219.0,255,42.59
195,196220.0,255,42.59
196,197221.0,255,42.59
197,198222.0,255,42.59
198,199224.0,255,42.59
199,200224.0,255,42.59
200,201226.0,255,42.59
201,202227.0,255,42.59
202,203228.0,255,42.59
203,204229.0,255,42.59
204,205231.0,255,42.59
205,206231.0,255,42.59
206,207233.0,255,42.59
207,208234.0,255,42.59
208,209234.0,255,42.59
209,210236.0,255,43.08
210,211237.0,255,43.08
211,212238.0,255,42.59
212,213239.0,255,43.08
213,214241.0,255,43.08
214,215242.0,255,43.08
215,216243.0,255,43.08
216,217244.0,255,43.08
217,218246.0,255,43.08
218,219246.0,255,43.08
219,220248.0,255,43.08
220,221249.0,255,43.08
221,222249.0,255,43.57
222,223251.0,255,43.57
223,224252.0,255,43.08
224,225253.0,255,43.08
225,226254.0,255,43.08
226,227256.0,255,43.08
227,228256.0,255,43.57
228,229258.0,255,43.57
229,230259.0,255,43.57
230,231260.0,255,43.57
231,232261.0,255,43.57
232,233263.0,255,43.57
233,234264.0,255,43.57
234,235265.0,255,43.57
235,236266.0,255,44.05
236,237267.0,255,44.05
237,238268.0,255,43.57
238,239269.0,255,43.57
239,240271.0,255,44.05
240,241271.0,255,44.05
241,242273.0,255,44.05
242,243274.0,255,44.05
243,244275.0,255,44.05
244,245276.0,255,44.05
245,246278.0,255,44.05
246,247278.0,255,44.54
247,248280.0,255,44.05
248,249281.0,255,44.05
249,250281.0,255,44.05
250,251283.0,255,44.54
251,252284.0,255,44.54
252,253286.0,255,44.54
253,254286.0,255,44.54
254,255288.0,255,44.54
255,256289.0,255,44.54
256,257290.0,255,44.54
257,258291.0,255,44.54
258,259293.0,255,44.54
259,260293.0,255,44.54
260,261295.0,255,44.54
261,262296.0,255,44.54
262,263297.0,255,44.54
263,264298.0,255,44.54
264,265299.0,255,44.54
265,266301.0,255,44.54
266,267301.0,255,44.54
267,268303.0,255,44.54
268,269304.0,255,44.54
269,270305.0,255,44.54
270,271306.0,255,45.03
271,272308.0,255,44.54
272,273308.0,255,44.54
273,274310.0,255,45.03
274,275311.0,255,45.03
275,276312.0,255,45.03
276,277313.0,255,45.03
277,278315.0,255,45.03
278,279315.0,255,45.03
279,280316.0,255,45.03
280,281318.0,255,45.03
281,282319.0,255,45.03
282,283320.0,255,45.03
283,284321.0,255,45.03
284,285323.0,255,45.03
285,286323.0,255,45.03
286,287325.0,255,45.03
287,288326.0,255,45.03
288,289327.0,255,45.52
289,290328.0,255,45.03
290,291330.0,255,45.03
291,292330.0,255,45.03
292,293331.0,255,45.52
293,294333.0,255,45.52
294,295333.0,255,45.52
295,296335.0,255,45.52
296,297336.0,255,45.52
297,298338.0,255,45.52
298,299338.0,255,45.52
299,300340.0,255,45.52
300,301341.0,255,45.52
301,302342.0,255,45.52
302,303343.0,255,45.52
303,304345.0,255,45.52
304,305345.0,255,45.52
305,306347.0,255,45.52
306,307348.0,255,45.52
307,308348.0,255,45.52
308,309350.0,255,46.01
309,310351.0,255,45.52
310,311352.0,255,46.01
311,312353.0,255,46.01
312,313355.0,255,45.52
313,314356.0,255,45.52
314,315357.0,255,46.01
315,316358.0,255,46.01
316,317360.0,255,46.01
317,318360.0,255,46.01
318,319362.0,255,46.01
319,320363.0,255,46.01
320,321363.0,255,46.01
321,322365.0,255,46.01
322,323366.0,255,46.01
323,324367.0,255,46.01
324,325368.0,255,46.01
325,326370.0,255,46.01
326,327370.0,255,46.01
327,328372.0,255,46.01
328,329373.0,255,46.01
329,330375.0,255,46.01
330,331375.0,255,46.01
331,332377.0,255,46.01
332,333378.0,255,46.01
333,334379.0,255,46.01
334,335380.0,255,46.01
335,336381.0,255,46.01
336,337382.0,255,46.01
337,338383.0,255,46.01
338,339385.0,255,46.01
339,340385.0,255,46.01
340,341387.0,255,46.01
341,342388.0,255,46.01
342,343389.0,255,46.01
343,344390.0,255,46.01
344,345392.0,255,46.01
345,346393.0,255,46.01
346,347394.0,255,46.01
347,348395.0,255,46.01
348,349396.0,255,46.01
349,350397.0,255,46.01
350,351398.0,255,46.01
351,352400.0,255,46.01
352,353400.0,255,46.01
353,354402.0,255,46.01
354,355403.0,255,46.01
355,356404.0,255,46.01
356,357405.0,255,46.01
357,358407.0,255,46.01
358,359407.0,255,46.01
359,360409.0,255,46.01
360,361410.0,255,46.01
361,362411.0,255,46.01
362,363412.0,255,46.01
363,364413.0,255,46.01
364,365415.0,255,46.01
