index,ms,calef,TempC,Tsp,cP,cI,cD
0,1999.0,255,39.67,55.0,1064.99,9.95,0.0
1,4000.0,255,48.03,55.0,314.9,2.94,0.0
2,5999.0,204,50.12,55.0,200.03,3.98,0.0
3,7999.0,173,50.82,55.0,166.23,7.12,0.0
4,10000.0,143,51.22,55.0,142.27,1.33,0.0
5,12000.0,138,51.31,59.0,137.56,1.29,0.0
6,13999.0,255,51.54,59.0,282.37,2.64,0.0
7,16000.0,255,51.73,59.0,274.38,2.56,0.0
8,18000.0,255,51.9,59.0,268.28,2.51,0.0
9,19999.0,255,52.11,59.0,260.8,2.44,0.0
10,21999.0,255,52.28,59.0,254.13,2.38,0.0
11,24000.0,252,52.43,59.0,248.06,4.66,0.0
12,26000.0,252,52.53,59.0,243.47,9.22,0.0
13,27999.0,253,52.63,59.0,240.03,13.72,0.0
