index,ms,calef,TempC
0,4999.0,0,53.22
1,9999.0,165,56.29
2,14999.0,194,57.2
3,19999.0,184,57.67
4,25000.0,220,57.98
5,29999.0,224,58.13
6,34999.0,207,58.3
7,39999.0,203,58.46
8,44999.0,206,58.63
9,49999.0,195,58.8
10,54999.0,206,58.93
11,59999.0,197,59.06
12,65000.0,189,59.19
13,69999.0,186,59.3
14,74999.0,188,59.43
15,79998.0,176,59.55
16,84999.0,169,59.66
17,89999.0,164,59.75
18,94999.0,180,59.79
19,99999.0,186,59.81
20,104999.0,173,59.84
21,109999.0,165,59.88
22,114999.0,163,59.92
23,119999.0,161,59.94
24,124999.0,158,59.99
25,129999.0,142,60.05
26,134999.0,143,60.09
27,139999.0,129,60.17
28,145000.0,132,60.23
29,149999.0,119,60.3
30,154999.0,105,60.35
31,159998.0,104,60.38
32,165000.0,93,60.4
33,169999.0,93,60.41
34,174999.0,98,60.43
35,180000.0,92,60.45
36,184999.0,82,60.46
37,189999.0,78,60.44
38,194999.0,77,60.41
39,199999.0,86,60.38
40,205000.0,81,60.35
41,209999.0,85,60.33
42,215000.0,83,60.31
43,219999.0,78,60.28
44,224999.0,86,60.23
45,229999.0,95,60.16
46,234999.0,102,60.13
47,239998.0,99,60.09
48,244999.0,97,60.05
49,249999.0,98,60.05
50,254999.0,109,60.02
51,259999.0,113,59.97
52,264999.0,118,59.93
53,269999.0,116,59.9
54,274999.0,121,59.87
55,279999.0,130,59.84
56,284999.0,136,59.78
57,290000.0,148,59.74
58,294999.0,147,59.73
59,299999.0,147,59.7
60,304999.0,146,59.68
61,309999.0,152,59.66
62,314999.0,217,59.48
63,320000.0,126,59.23
64,325000.0,149,59.03
65,329999.0,170,58.85
66,334999.0,173,58.75
67,339999.0,186,58.67
68,344999.0,198,58.65
69,350000.0,199,58.67
70,354999.0,213,58.7
71,359999.0,206,58.8
72,364999.0,208,58.88
73,369999.0,217,58.95
74,374999.0,208,59.03
75,379999.0,215,59.11
76,384999.0,211,59.19
77,389999.0,203,59.29
78,394999.0,204,59.39
79,400000.0,200,59.49
80,405000.0,184,59.61
81,410000.0,176,59.72
82,414999.0,168,59.83
83,420000.0,153,59.95
84,424999.0,142,60.07
85,429999.0,126,60.15
86,434999.0,123,60.22
87,439999.0,136,60.28
88,444999.0,123,60.33
89,449999.0,106,60.37
90,454999.0,99,60.4
91,459999.0,100,60.4
92,464999.0,105,60.41
93,469999.0,101,60.4
94,474999.0,98,60.41
95,479998.0,88,60.42
96,484999.0,87,60.44
97,489999.0,72,60.45
98,494999.0,74,60.43
99,499999.0,81,60.42
100,504999.0,79,60.4
101,509999.0,83,60.38
102,515000.0,76,60.35
103,519999.0,79,60.34
104,524999.0,74,60.32
105,529999.0,80,60.28
106,534999.0,81,60.25
107,539999.0,81,60.21
108,544999.0,73,60.17
109,549999.0,79,60.15
