index,ms,calef,TempC
0,2199.0,5,21.19
1,2199.0,5,20.74
2,4000.0,5,32.87
3,6001.0,5,37.3
4,8002.0,5,39.44
5,10004.0,5,40.74
6,12005.0,5,41.62
7,14006.0,5,42.18
8,16007.0,5,42.6
9,18009.0,5,42.99
10,20009.0,5,43.25
11,22010.0,5,43.51
12,24011.0,5,43.68
13,26013.0,5,43.83
14,28014.0,5,43.99
15,30015.0,5,44.17
16,32016.0,5,44.3
17,34017.0,5,44.41
18,36019.0,5,44.48
19,38020.0,5,44.6
20,40020.0,5,44.71
21,42021.0,5,44.78
22,44023.0,5,44.87
23,46024.0,5,44.95
24,48025.0,5,45.03
25,50026.0,5,45.1
26,52028.0,5,45.17
27,54029.0,5,45.25
28,56030.0,5,45.29
29,58031.0,5,45.32
30,60033.0,5,45.35
31,62033.0,5,45.38
32,64034.0,5,45.4
33,66035.0,5,45.43
34,68036.0,5,45.47
35,70038.0,5,45.51
36,72039.0,5,45.53
37,74040.0,5,45.57
38,76041.0,5,45.63
39,78043.0,5,45.66
40,80044.0,5,45.68
41,82044.0,5,45.71
42,84045.0,5,45.74
43,86047.0,5,45.75
44,88048.0,5,45.79
45,90049.0,5,45.82
46,92050.0,5,45.83
47,94051.0,5,45.83
48,96053.0,5,45.88
49,98054.0,5,45.9
50,100055.0,5,45.92
51,102055.0,5,45.96
52,104057.0,5,45.98
53,106058.0,5,46.01
54,108059.0,5,46.01
55,110061.0,5,46.05
56,112062.0,5,46.06
57,114063.0,5,46.08
58,116064.0,5,46.09
59,118066.0,5,46.11
60,120067.0,5,46.12
61,122067.0,5,46.15
62,124069.0,5,46.16
63,126070.0,5,46.18
64,128071.0,5,46.2
65,130072.0,5,46.23
66,132074.0,5,46.26
67,134075.0,5,46.28
68,136076.0,5,46.31
69,138078.0,5,46.33
70,140079.0,5,46.35
71,142080.0,5,46.36
72,144080.0,5,46.38
73,146082.0,5,46.4
74,148083.0,5,46.42
75,150084.0,5,46.46
76,152085.0,5,46.49
77,154087.0,5,46.52
78,156088.0,5,46.56
79,158089.0,5,46.57
80,160091.0,5,46.59
81,162092.0,5,46.6
82,164092.0,5,46.61
83,166093.0,5,46.63
84,168095.0,5,46.64
85,170096.0,5,46.65
86,172097.0,5,46.68
87,174099.0,5,46.71
88,176100.0,5,46.71
89,178101.0,5,46.72
90,180102.0,5,46.77
91,182104.0,5,46.77
92,184104.0,5,46.8
93,186105.0,5,46.82
94,188106.0,5,46.83
95,190108.0,5,46.85
96,192109.0,5,46.85
97,194110.0,5,46.87
98,196112.0,5,46.89
99,198113.0,5,46.91
100,200114.0,5,46.92
101,202115.0,5,46.94
102,204116.0,5,46.95
103,206117.0,5,46.97
104,208118.0,5,46.99
105,210120.0,5,47.01
106,212121.0,5,47.02
107,214122.0,5,47.05
108,216123.0,5,47.07
109,218125.0,5,47.1
110,220126.0,5,47.13
111,222127.0,5,47.12
112,224129.0,5,47.12
113,226129.0,5,47.13
114,228130.0,5,47.14
115,230131.0,5,47.15
116,232133.0,5,47.16
117,234134.0,5,47.17
118,236135.0,5,47.18
119,238136.0,5,47.19
120,240138.0,5,47.22
121,242139.0,5,47.25
122,244140.0,5,47.27
123,246141.0,5,47.28
124,248142.0,5,47.28
125,250143.0,5,47.29
126,252144.0,5,47.3
127,254146.0,5,47.3
128,256147.0,5,47.31
129,258148.0,5,47.31
130,260150.0,5,47.32
131,262151.0,5,47.32
132,264152.0,5,47.33
133,266152.0,5,47.33
134,268154.0,5,47.34
135,270155.0,5,47.34
136,272156.0,5,47.35
137,274157.0,5,47.35
138,276159.0,5,47.36
139,278160.0,5,47.36
140,280161.0,5,47.37
141,282163.0,5,47.37
142,284164.0,5,47.39
143,286164.0,5,47.39
144,288165.0,5,47.39
145,290167.0,5,47.41
146,292168.0,5,47.43
147,294169.0,5,47.45
148,296171.0,5,47.47
149,298172.0,5,47.48
150,300173.0,55,47.5
151,302174.0,55,47.5
152,304176.0,55,47.52
153,306177.0,55,47.55
154,308177.0,55,47.58
155,310179.0,55,47.59
156,312180.0,55,47.62
157,314181.0,55,47.65
158,316183.0,55,47.69
159,318184.0,55,47.72
160,320185.0,55,47.73
161,322187.0,55,47.75
162,324188.0,55,47.79
163,326189.0,55,47.81
164,328190.0,55,47.84
165,330191.0,55,47.86
166,332192.0,55,47.89
167,334194.0,55,47.91
168,336195.0,55,47.95
169,338196.0,55,47.98
170,340198.0,55,48.0
171,342199.0,55,48.03
172,344000.0,55,48.08
173,346001.0,55,48.16
174,348002.0,55,48.21
175,350004.0,55,48.27
176,352005.0,55,48.34
177,354006.0,55,48.4
178,356007.0,55,48.43
179,358008.0,55,48.5
180,360009.0,55,48.56
181,362011.0,55,48.61
182,364012.0,55,48.65
183,366013.0,55,48.7
184,368015.0,55,48.74
185,370016.0,55,48.78
186,372017.0,55,48.8
187,374019.0,55,48.84
188,376019.0,55,48.88
189,378020.0,55,48.91
190,380022.0,55,48.94
191,382023.0,55,48.99
192,384024.0,55,49.03
193,386026.0,55,49.07
194,388027.0,55,49.08
195,390028.0,55,49.1
196,392029.0,55,49.12
197,394031.0,55,49.13
198,396032.0,55,49.14
199,398032.0,55,49.17
200,400034.0,55,49.18
201,402035.0,55,49.19
202,404036.0,55,49.18
203,406038.0,55,49.2
204,408039.0,55,49.23
205,410040.0,55,49.27
206,412042.0,55,49.27
207,414043.0,55,49.3
208,416044.0,55,49.32
209,418045.0,55,49.34
210,420046.0,55,49.36
211,422047.0,55,49.36
212,424049.0,55,49.36
213,426050.0,55,49.38
214,428051.0,55,49.42
215,430053.0,55,49.42
216,432054.0,55,49.43
217,434055.0,55,49.47
218,436057.0,55,49.48
219,438057.0,55,49.48
220,440058.0,55,49.49
221,442060.0,55,49.53
222,444061.0,55,49.54
223,446062.0,55,49.57
224,448064.0,55,49.6
225,450065.0,55,49.61
226,452066.0,55,49.62
227,454068.0,55,49.65
228,456069.0,55,49.65
229,458070.0,55,49.66
230,460071.0,55,49.69
231,462072.0,55,49.7
232,464073.0,55,49.72
233,466075.0,55,49.73
234,468076.0,55,49.75
235,470077.0,55,49.77
236,472079.0,55,49.79
237,474080.0,55,49.81
238,476081.0,55,49.83
239,478083.0,55,49.87
240,480083.0,55,49.91
241,482084.0,55,49.94
242,484086.0,55,49.97
243,486087.0,55,50.0
244,488088.0,55,50.05
245,490090.0,55,50.08
246,492091.0,55,50.12
247,494092.0,55,50.17
248,496093.0,55,50.21
249,498095.0,55,50.25
250,500096.0,55,50.29
251,502096.0,55,50.34
252,504098.0,55,50.39
253,506099.0,55,50.41
254,508100.0,55,50.44
255,510102.0,55,50.47
256,512103.0,55,50.5
257,514104.0,55,50.52
258,516106.0,55,50.55
259,518107.0,55,50.58
260,520108.0,55,50.59
261,522109.0,55,50.61
262,524110.0,55,50.62
263,526111.0,55,50.65
264,528113.0,55,50.69
265,530114.0,55,50.73
266,532115.0,55,50.75
267,534117.0,55,50.77
268,536118.0,55,50.79
269,538119.0,55,50.83
270,540121.0,55,50.87
271,542121.0,55,50.88
272,544122.0,55,50.92
273,546124.0,55,50.95
274,548125.0,55,50.96
275,550126.0,55,51.0
276,552127.0,55,51.04
277,554129.0,55,51.07
278,556130.0,55,51.11
279,558131.0,55,51.16
280,560133.0,55,51.2
281,562134.0,55,51.22
282,564134.0,55,51.26
283,566136.0,55,51.28
284,568137.0,55,51.3
285,570138.0,55,51.3
286,572140.0,55,51.34
287,574141.0,55,51.36
288,576142.0,55,51.37
289,578144.0,55,51.39
290,580145.0,55,51.39
291,582146.0,55,51.41
292,584147.0,55,51.41
293,586148.0,55,51.42
294,588149.0,55,51.42
295,590151.0,55,51.42
296,592152.0,55,51.44
297,594153.0,55,51.45
298,596155.0,55,51.45
299,598156.0,55,51.46
300,600157.0,55,51.48
301,602159.0,55,51.47
302,604160.0,55,51.49
303,606160.0,55,51.48
304,608161.0,55,51.48
305,610163.0,55,51.48
306,612164.0,55,51.46
307,614165.0,55,51.44
308,616167.0,55,51.44
309,618168.0,55,51.43
310,620169.0,55,51.43
311,622171.0,55,51.45
312,624172.0,55,51.45
313,626172.0,55,51.44
314,628174.0,55,51.44
315,630175.0,55,51.46
316,632176.0,55,51.47
317,634178.0,55,51.47
318,636179.0,55,51.48
319,638180.0,55,51.49
320,640182.0,55,51.54
321,642183.0,55,51.57
322,644184.0,55,51.6
323,646185.0,55,51.65
324,648186.0,55,51.71
325,650187.0,55,51.77
326,652189.0,55,51.82
327,654190.0,55,51.89
328,656191.0,55,51.94
329,658193.0,55,52.0
330,660194.0,55,52.05
331,662195.0,55,52.09
332,664196.0,55,52.13
333,666198.0,55,52.16
334,668198.0,55,52.18
335,670000.0,55,52.22
336,672001.0,55,52.24
337,674002.0,55,52.26
338,676003.0,55,52.28
339,678004.0,55,52.3
340,680006.0,55,52.34
341,682007.0,55,52.37
342,684008.0,55,52.37
343,686010.0,55,52.37
344,688011.0,55,52.37
345,690012.0,55,52.39
346,692014.0,55,52.39
347,694014.0,55,52.38
348,696015.0,55,52.38
349,698017.0,55,52.38
350,700018.0,55,52.38
351,702019.0,55,52.38
352,704021.0,55,52.36
353,706022.0,55,52.36
354,708023.0,55,52.35
355,710025.0,55,52.35
356,712026.0,55,52.35
357,714027.0,55,52.35
358,716028.0,55,52.37
359,718029.0,55,52.38
360,720030.0,55,52.4
361,722032.0,55,52.41
362,724033.0,55,52.41
363,726034.0,55,52.43
364,728036.0,55,52.43
365,730037.0,55,52.44
366,732038.0,55,52.45
367,734040.0,55,52.47
368,736040.0,55,52.48
369,738041.0,55,52.48
370,740043.0,55,52.51
371,742044.0,55,52.53
372,744045.0,55,52.54
373,746047.0,55,52.55
374,748048.0,55,52.56
375,750049.0,55,52.54
376,752051.0,55,52.55
377,754052.0,55,52.56
378,756052.0,55,52.56
379,758054.0,55,52.55
380,760055.0,55,52.56
381,762056.0,55,52.55
382,764058.0,55,52.58
383,766059.0,55,52.57
384,768060.0,55,52.58
385,770062.0,55,52.59
386,772063.0,55,52.6
387,774064.0,55,52.61
388,776066.0,55,52.63
389,778066.0,55,52.64
390,780067.0,55,52.65
391,782069.0,55,52.65
392,784070.0,55,52.68
393,786071.0,55,52.7
394,788073.0,55,52.71
395,790074.0,55,52.73
396,792075.0,55,52.75
397,794077.0,55,52.75
398,796078.0,55,52.75
399,798078.0,55,52.76
400,800080.0,55,52.76
401,802081.0,55,52.76
402,804082.0,55,52.78
403,806084.0,55,52.79
404,808085.0,55,52.77
405,810086.0,55,52.77
406,812088.0,55,52.78
407,814089.0,55,52.8
408,816090.0,55,52.8
409,818092.0,55,52.8
410,820092.0,55,52.78
411,822093.0,55,52.8
412,824095.0,55,52.81
413,826096.0,55,52.81
414,828097.0,55,52.81
415,830099.0,55,52.79
416,832100.0,55,52.81
417,834101.0,55,52.83
418,836103.0,55,52.85
419,838104.0,55,52.85
420,840104.0,55,52.85
421,842106.0,55,52.83
422,844107.0,55,52.83
423,846108.0,55,52.83
424,848110.0,55,52.82
425,850111.0,55,52.8
426,852112.0,55,52.8
427,854114.0,55,52.82
428,856115.0,55,52.82
429,858116.0,55,52.81
430,860118.0,55,52.81
431,862118.0,55,52.83
432,864119.0,55,52.81
433,866121.0,55,52.81
434,868122.0,55,52.83
435,870123.0,55,52.83
436,872125.0,55,52.83
437,874126.0,55,52.83
438,876127.0,55,52.83
439,878129.0,55,52.82
440,880130.0,55,52.83
441,882130.0,55,52.82
442,884132.0,55,52.84
443,886133.0,55,52.82
444,888134.0,55,52.84
445,890136.0,55,52.84
446,892137.0,55,52.86
447,894138.0,55,52.84
448,896140.0,55,52.82
449,898141.0,55,52.82
450,900142.0,55,52.84
451,902144.0,55,52.86
452,904144.0,55,52.86
453,906145.0,55,52.86
454,908147.0,55,52.86
455,910148.0,55,52.87
456,912149.0,55,52.87
457,914151.0,55,52.87
458,916152.0,55,52.87
459,918153.0,55,52.87
460,920155.0,55,52.84
461,922156.0,55,52.82
462,924156.0,55,52.82
463,926158.0,55,52.81
464,928159.0,55,52.79
465,930160.0,55,52.78
466,932162.0,55,52.78
467,934163.0,55,52.78
468,936164.0,55,52.78
469,938166.0,55,52.79
470,940167.0,55,52.79
471,942168.0,55,52.77
472,944169.0,55,52.78
473,946170.0,55,52.76
474,948171.0,55,52.77
475,950173.0,55,52.75
476,952174.0,55,52.74
477,954175.0,55,52.73
478,956177.0,55,52.71
479,958178.0,55,52.72
480,960179.0,55,52.71
481,962181.0,55,52.71
482,964182.0,55,52.72
