index,ms,calef,TempC
0,5000.0,25,1.81
1,10001.0,25,13.18
2,15003.0,25,17.01
3,20004.0,25,18.98
4,25006.0,25,20.17
5,30007.0,100,21.05
6,35009.0,100,21.76
7,40010.0,100,22.29
8,45011.0,100,22.65
9,50014.0,100,22.99
10,55015.0,100,23.27
11,60016.0,100,23.42
12,65018.0,100,23.59
13,70020.0,100,23.73
