index,ms,calef,TempC
0,6001.0,5,20.82
1,2199.0,55,5.42
2,4000.0,5,16.46
3,6001.0,5,20.5
4,8003.0,5,22.57
5,10004.0,5,23.73
6,12005.0,5,24.59
7,14006.0,5,25.28
8,16007.0,5,25.67
9,18009.0,5,26.09
10,20009.0,5,26.38
11,22010.0,5,26.62
