index,ms,calef,TempC
0,7006.0,100,43.07
1,1200.0,100,21.19
2,2000.0,100,33.11
3,3001.0,100,37.62
4,4002.0,100,39.8
5,5004.0,100,41.13
6,6004.0,100,42.1
7,7006.0,100,42.8
8,8006.0,100,43.02
9,9008.0,100,43.08
10,10009.0,100,43.03
11,11010.0,100,42.9
12,12011.0,100,42.83
13,13012.0,100,42.85
14,14013.0,100,42.87
15,15014.0,100,42.92
16,16016.0,100,42.93
17,17016.0,100,43.0
18,18018.0,100,43.07
19,19018.0,100,43.09
20,20020.0,100,43.12
21,21021.0,100,43.23
22,22022.0,100,43.32
23,23023.0,100,43.39
24,24025.0,100,43.44
25,25025.0,100,43.52
26,26027.0,100,43.59
27,27028.0,100,43.66
28,28028.0,100,43.74
29,29030.0,100,43.85
30,30031.0,100,43.9
31,31032.0,100,43.95
32,32033.0,100,44.01
33,33034.0,100,44.1
34,34035.0,100,44.15
35,35037.0,100,44.19
36,36037.0,100,44.26
37,37039.0,100,44.35
38,38040.0,100,44.4
39,39041.0,100,44.46
40,40042.0,100,44.54
41,41043.0,100,44.59
42,42044.0,100,44.63
43,43045.0,100,44.68
44,44047.0,100,44.75
45,45047.0,100,44.83
46,46049.0,100,44.88
47,47050.0,100,44.94
48,48051.0,100,44.99
49,49052.0,100,45.06
50,50054.0,100,45.12
51,51054.0,100,45.15
52,52056.0,100,45.21
53,53056.0,100,45.26
54,54057.0,100,45.3
55,55059.0,100,45.35
56,56059.0,100,45.39
57,57061.0,100,45.43
58,58062.0,100,45.45
59,59063.0,100,45.48
60,60064.0,100,45.52
61,61066.0,100,45.55
62,62066.0,100,45.59
63,63068.0,100,45.62
64,64069.0,100,45.67
65,65070.0,100,45.68
66,66071.0,100,45.69
67,67073.0,100,45.72
68,68073.0,100,45.76
69,69074.0,100,45.79
70,70076.0,100,45.81
71,71076.0,100,45.85
72,72078.0,100,45.91
73,73078.0,100,45.93
74,74080.0,100,45.95
75,75081.0,100,45.98
76,76082.0,100,46.02
77,77083.0,100,46.05
78,78085.0,100,46.08
79,79085.0,100,46.15
80,80087.0,100,46.19
81,81088.0,100,46.25
82,82088.0,100,46.29
83,83090.0,100,46.35
84,84091.0,100,46.39
85,85092.0,100,46.44
86,86093.0,100,46.49
87,87095.0,100,46.54
88,88095.0,100,46.59
89,89097.0,100,46.62
90,90097.0,100,46.67
91,91099.0,100,46.73
92,92100.0,100,46.75
93,93101.0,100,46.8
94,94102.0,100,46.84
95,95104.0,100,46.89
96,96104.0,100,46.94
97,97105.0,100,46.96
98,98107.0,100,47.03
99,99107.0,100,47.11
100,100109.0,100,47.14
101,101110.0,100,47.18
102,102111.0,100,47.24
103,103112.0,100,47.3
104,104114.0,100,47.34
105,105114.0,100,47.39
106,106116.0,100,47.43
107,107117.0,100,47.46
108,108118.0,100,47.48
109,109119.0,100,47.53
110,110120.0,100,47.58
111,111122.0,100,47.64
112,112122.0,100,47.69
113,113124.0,100,47.71
114,114125.0,100,47.75
115,115126.0,100,47.81
116,116127.0,100,47.85
117,117129.0,100,47.89
118,118129.0,100,47.9
119,119131.0,100,47.94
120,120132.0,100,48.01
121,121133.0,100,48.02
122,122134.0,100,48.04
123,123136.0,100,48.07
124,124137.0,100,48.1
125,125137.0,100,48.13
126,126139.0,100,48.15
127,127140.0,100,48.18
128,128141.0,100,48.21
129,129142.0,100,48.23
130,130144.0,100,48.27
131,131144.0,100,48.29
132,132146.0,100,48.33
133,133147.0,100,48.37
134,134148.0,100,48.41
135,135149.0,100,48.42
136,136151.0,100,48.47
137,137152.0,100,48.51
138,138152.0,100,48.52
139,139154.0,100,48.54
140,140155.0,100,48.55
141,141156.0,100,48.58
142,142157.0,100,48.59
143,143159.0,100,48.6
144,144159.0,100,48.61
145,145161.0,100,48.64
146,146162.0,100,48.65
147,147163.0,100,48.66
148,148164.0,100,48.66
149,149166.0,100,48.7
150,150167.0,100,48.72
151,151168.0,100,48.73
152,152169.0,100,48.74
153,153170.0,100,48.78
154,154171.0,100,48.8
155,155172.0,100,48.82
156,156174.0,100,48.84
157,157174.0,100,48.86
158,158176.0,100,48.9
159,159177.0,100,48.9
160,160178.0,100,48.9
161,161179.0,100,48.92
162,162181.0,100,48.95
163,163182.0,100,48.97
164,164183.0,100,49.0
165,165184.0,100,49.03
166,166185.0,100,49.08
167,167186.0,100,49.11
168,168187.0,100,49.13
169,169189.0,100,49.14
170,170189.0,100,49.19
171,171191.0,100,49.23
172,172192.0,100,49.25
173,173193.0,100,49.26
174,174194.0,100,49.31
175,175196.0,100,49.37
176,176197.0,100,49.39
177,177198.0,100,49.4
178,178199.0,100,49.44
179,179000.0,100,49.47
180,180001.0,100,49.5
181,181003.0,100,49.52
182,182003.0,100,49.55
183,183005.0,100,49.59
184,184006.0,100,49.62
185,185007.0,100,49.65
186,186008.0,100,49.67
187,187010.0,100,49.71
188,188011.0,100,49.74
189,189011.0,100,49.76
190,190013.0,100,49.77
191,191014.0,100,49.8
192,192015.0,100,49.84
193,193016.0,100,49.86
194,194018.0,100,49.88
195,195018.0,100,49.9
196,196020.0,100,49.95
197,197021.0,100,49.96
198,198022.0,100,49.98
199,199023.0,100,50.01
200,200025.0,100,50.04
201,201025.0,100,50.05
202,202027.0,100,50.06
203,203028.0,100,50.07
204,204029.0,100,50.12
205,205030.0,100,50.13
206,206031.0,100,50.14
207,207033.0,100,50.13
208,208033.0,100,50.17
209,209035.0,100,50.18
210,210036.0,100,50.19
211,211037.0,100,50.21
212,212038.0,100,50.25
213,213040.0,100,50.29
214,214041.0,100,50.3
215,215042.0,100,50.3
216,216043.0,100,50.32
217,217044.0,100,50.34
218,218045.0,100,50.36
219,219046.0,100,50.38
220,220048.0,100,50.39
221,221048.0,100,50.41
222,222050.0,100,50.41
223,223051.0,100,50.39
224,224052.0,100,50.39
225,225053.0,100,50.41
226,226055.0,100,50.43
227,227056.0,100,50.46
228,228057.0,100,50.48
229,229058.0,100,50.49
230,230060.0,100,50.5
231,231060.0,100,50.5
232,232061.0,100,50.5
233,233063.0,100,50.53
234,234063.0,100,50.52
235,235065.0,100,50.52
236,236066.0,100,50.52
237,237067.0,100,50.53
238,238068.0,100,50.54
239,239070.0,100,50.54
240,240071.0,100,50.53
241,241072.0,100,50.53
242,242073.0,100,50.54
243,243075.0,100,50.54
244,244075.0,100,50.51
245,245076.0,100,50.49
246,246078.0,100,50.49
247,247078.0,100,50.51
248,248080.0,100,50.5
249,249081.0,100,50.48
250,250083.0,100,50.5
251,251083.0,100,50.53
252,252085.0,100,50.56
253,253086.0,100,50.55
254,254087.0,100,50.58
255,255088.0,100,50.61
256,256090.0,100,50.63
257,257090.0,100,50.64
258,258092.0,100,50.67
259,259093.0,100,50.69
260,260093.0,100,50.71
261,261095.0,100,50.72
262,262096.0,100,50.74
263,263097.0,100,50.78
264,264098.0,100,50.8
265,265100.0,100,50.82
266,266101.0,100,50.86
267,267102.0,100,50.89
268,268103.0,100,50.93
269,269105.0,100,50.94
270,270105.0,100,50.96
271,271107.0,100,51.0
272,272108.0,100,51.05
273,273108.0,100,51.06
274,274110.0,100,51.07
275,275111.0,100,51.12
276,276112.0,100,51.14
277,277113.0,100,51.17
278,278115.0,100,51.17
279,279116.0,100,51.21
280,280117.0,100,51.27
281,281118.0,100,51.29
282,282120.0,100,51.31
283,283120.0,100,51.35
284,284122.0,100,51.36
285,285123.0,100,51.38
286,286124.0,100,51.4
287,287125.0,100,51.38
288,288126.0,100,51.38
289,289127.0,100,51.4
290,290128.0,100,51.4
291,291130.0,100,51.41
292,292131.0,100,51.43
293,293132.0,100,51.44
294,294133.0,100,51.44
295,295135.0,100,51.46
296,296135.0,100,51.47
297,297137.0,100,51.5
298,298138.0,100,51.5
299,299139.0,100,51.51
300,300140.0,180,51.51
301,301142.0,180,51.52
302,302142.0,180,51.55
303,303143.0,180,51.56
304,304145.0,180,51.58
305,305145.0,180,51.63
306,306147.0,180,51.65
307,307148.0,180,51.66
308,308150.0,180,51.68
309,309150.0,180,51.72
310,310152.0,180,51.75
311,311153.0,180,51.75
312,312154.0,180,51.75
313,313155.0,180,51.77
314,314157.0,180,51.79
315,315157.0,180,51.8
316,316158.0,180,51.82
317,317160.0,180,51.83
318,318160.0,180,51.84
319,319162.0,180,51.85
320,320163.0,180,51.85
321,321164.0,180,51.86
322,322165.0,180,51.89
323,323167.0,180,51.89
324,324167.0,180,51.89
325,325169.0,180,51.92
326,326170.0,180,51.94
327,327171.0,180,51.95
328,328172.0,180,51.95
329,329174.0,180,51.98
330,330174.0,180,51.99
331,331175.0,180,52.0
332,332177.0,180,52.0
333,333177.0,180,52.01
334,334179.0,180,52.02
335,335180.0,180,52.04
336,336181.0,180,52.03
337,337182.0,180,52.06
338,338184.0,180,52.08
339,339184.0,180,52.11
340,340186.0,180,52.12
341,341187.0,180,52.13
342,342189.0,180,52.17
343,343189.0,180,52.19
344,344190.0,180,52.2
345,345192.0,180,52.24
346,346192.0,180,52.26
347,347194.0,180,52.29
348,348195.0,180,52.3
349,349196.0,180,52.31
350,350197.0,180,52.33
351,351199.0,180,52.35
352,352000.0,180,52.35
353,353001.0,180,52.38
354,354001.0,180,52.42
355,355003.0,180,52.43
356,356004.0,180,52.45
357,357005.0,180,52.46
358,358006.0,180,52.49
359,359008.0,180,52.52
360,360008.0,180,52.53
361,361010.0,180,52.56
362,362011.0,180,52.58
363,363012.0,180,52.61
364,364013.0,180,52.62
365,365015.0,180,52.64
366,366015.0,180,52.65
367,367016.0,180,52.67
368,368018.0,180,52.66
369,369019.0,180,52.68
370,370020.0,180,52.71
371,371021.0,180,52.73
372,372023.0,180,52.73
373,373023.0,180,52.75
374,374025.0,180,52.77
375,375026.0,180,52.83
376,376027.0,180,52.86
377,377028.0,180,52.88
378,378030.0,180,52.91
379,379030.0,180,52.94
380,380032.0,180,52.99
381,381033.0,180,53.0
382,382033.0,180,53.04
383,383035.0,180,53.09
384,384036.0,180,53.11
385,385037.0,180,53.12
386,386038.0,180,53.18
387,387040.0,180,53.21
388,388040.0,180,53.25
389,389042.0,180,53.27
390,390043.0,180,53.32
391,391044.0,180,53.36
392,392045.0,180,53.39
393,393047.0,180,53.42
394,394047.0,180,53.47
395,395048.0,180,53.51
396,396050.0,180,53.54
397,397050.0,180,53.55
398,398052.0,180,53.58
399,399053.0,180,53.6
400,400055.0,180,53.63
401,401055.0,180,53.65
402,402057.0,180,53.66
403,403058.0,180,53.68
404,404059.0,180,53.68
405,405060.0,180,53.67
406,406062.0,180,53.68
407,407062.0,180,53.68
408,408064.0,180,53.69
409,409065.0,180,53.69
410,410065.0,180,53.71
411,411067.0,180,53.73
412,412068.0,180,53.74
413,413069.0,180,53.74
414,414070.0,180,53.73
415,415072.0,180,53.75
416,416072.0,180,53.77
417,417074.0,180,53.77
418,418075.0,180,53.77
419,419076.0,180,53.77
420,420077.0,180,53.79
421,421079.0,180,53.78
422,422079.0,180,53.76
423,423080.0,180,53.78
424,424082.0,180,53.8
425,425082.0,180,53.82
426,426084.0,180,53.82
427,427085.0,180,53.82
428,428086.0,180,53.83
429,429087.0,180,53.87
430,430089.0,180,53.86
431,431090.0,180,53.88
432,432091.0,180,53.9
433,433092.0,180,53.91
434,434094.0,180,53.91
435,435094.0,180,53.9
436,436096.0,180,53.93
437,437097.0,180,53.95
438,438097.0,180,53.94
439,439099.0,180,53.96
440,440100.0,180,53.99
441,441101.0,180,54.0
442,442102.0,180,53.99
443,443104.0,180,54.0
444,444104.0,180,54.01
445,445106.0,180,54.04
446,446107.0,180,54.03
447,447108.0,180,54.06
448,448109.0,180,54.07
449,449111.0,180,54.08
450,450111.0,180,54.07
451,451112.0,180,54.09
452,452114.0,180,54.12
453,453114.0,180,54.12
454,454116.0,180,54.1
455,455117.0,180,54.1
456,456118.0,180,54.11
457,457119.0,180,54.12
458,458121.0,180,54.11
459,459121.0,180,54.1
460,460123.0,180,54.12
461,461124.0,180,54.13
462,462126.0,180,54.12
463,463126.0,180,54.11
464,464128.0,180,54.13
465,465129.0,180,54.14
466,466129.0,180,54.15
467,467131.0,180,54.14
468,468132.0,180,54.14
469,469133.0,180,54.15
470,470134.0,180,54.15
471,471136.0,180,54.16
472,472136.0,180,54.18
473,473138.0,180,54.2
474,474139.0,180,54.21
475,475140.0,180,54.21
476,476141.0,180,54.25
477,477143.0,180,54.27
478,478143.0,180,54.27
479,479144.0,180,54.25
480,480146.0,180,54.27
481,481146.0,180,54.31
482,482148.0,180,54.34
483,483149.0,180,54.36
484,484150.0,180,54.39
485,485151.0,180,54.38
486,486153.0,180,54.4
487,487154.0,180,54.4
488,488155.0,180,54.41
489,489156.0,180,54.42
490,490158.0,180,54.44
491,491158.0,180,54.43
492,492160.0,180,54.45
493,493161.0,180,54.47
494,494161.0,180,54.5
495,495163.0,180,54.5
496,496164.0,180,54.49
497,497165.0,180,54.52
498,498166.0,180,54.51
499,499168.0,180,54.5
500,500168.0,180,54.5
501,501170.0,180,54.51
502,502171.0,180,54.5
503,503172.0,180,54.5
504,504173.0,180,54.49
505,505175.0,180,54.5
506,506175.0,180,54.51
507,507176.0,180,54.52
508,508178.0,180,54.51
509,509178.0,180,54.54
510,510180.0,180,54.55
511,511181.0,180,54.56
512,512183.0,180,54.53
513,513183.0,180,54.53
514,514185.0,180,54.54
515,515186.0,180,54.54
516,516187.0,180,54.54
517,517188.0,180,54.55
518,518190.0,180,54.54
519,519190.0,180,54.56
520,520192.0,180,54.54
521,521193.0,180,54.56
522,522193.0,180,54.56
523,523195.0,180,54.56
524,524196.0,180,54.56
525,525197.0,180,54.58
526,526198.0,180,54.61
527,527200.0,180,54.63
528,528001.0,180,54.62
529,529002.0,180,54.62
530,530002.0,180,54.63
531,531004.0,180,54.64
532,532005.0,180,54.63
533,533006.0,180,54.63
534,534007.0,180,54.65
535,535009.0,180,54.66
536,536010.0,180,54.67
537,537011.0,180,54.65
538,538012.0,180,54.68
539,539014.0,180,54.68
540,540014.0,180,54.67
541,541016.0,180,54.66
542,542017.0,180,54.66
543,543017.0,180,54.68
544,544019.0,180,54.69
545,545020.0,180,54.67
546,546021.0,180,54.69
547,547022.0,180,54.72
548,548024.0,180,54.72
549,549024.0,180,54.72
550,550026.0,180,54.74
551,551027.0,180,54.76
552,552028.0,180,54.76
553,553029.0,180,54.73
554,554031.0,180,54.75
555,555031.0,180,54.75
556,556033.0,180,54.77
557,557034.0,180,54.75
558,558034.0,180,54.77
559,559036.0,180,54.79
560,560037.0,180,54.79
561,561038.0,180,54.79
562,562039.0,180,54.78
563,563041.0,180,54.78
564,564041.0,180,54.78
565,565043.0,180,54.76
566,566044.0,180,54.76
567,567046.0,180,54.76
568,568046.0,180,54.77
569,569048.0,180,54.77
570,570049.0,180,54.77
571,571049.0,180,54.79
572,572051.0,180,54.79
573,573052.0,180,54.77
574,574053.0,180,54.79
575,575054.0,180,54.79
576,576056.0,180,54.79
577,577056.0,180,54.77
578,578058.0,180,54.76
579,579059.0,180,54.74
580,580060.0,180,54.73
581,581061.0,180,54.73
582,582063.0,180,54.72
583,583063.0,180,54.72
584,584065.0,180,54.72
585,585066.0,180,54.73
586,586066.0,180,54.71
587,587068.0,180,54.7
588,588069.0,180,54.72
589,589070.0,180,54.72
590,590071.0,180,54.71
591,591073.0,180,54.73
592,592073.0,180,54.73
593,593075.0,180,54.73
594,594076.0,180,54.72
595,595078.0,180,54.72
596,596078.0,180,54.73
597,597080.0,180,54.75
598,598081.0,180,54.73
599,599081.0,180,54.73
600,600083.0,180,54.72
601,601084.0,180,54.74
602,602085.0,180,54.72
603,603086.0,180,54.73
604,604088.0,180,54.73
605,605088.0,180,54.73
606,606090.0,180,54.72
607,607091.0,180,54.74
608,608092.0,180,54.76
609,609093.0,180,54.76
610,610095.0,180,54.74
611,611095.0,180,54.73
612,612097.0,180,54.73
613,613098.0,180,54.73
614,614098.0,180,54.74
615,615100.0,180,54.71
616,616101.0,180,54.71
617,617102.0,180,54.7
618,618103.0,180,54.68
619,619105.0,180,54.67
620,620106.0,180,54.66
621,621107.0,180,54.65
622,622108.0,180,54.64
623,623110.0,180,54.61
624,624110.0,180,54.6
625,625112.0,180,54.61
626,626113.0,180,54.61
627,627113.0,180,54.6
628,628115.0,180,54.61
629,629116.0,180,54.63
630,630117.0,180,54.66
631,631118.0,180,54.66
632,632120.0,180,54.67
633,633120.0,180,54.69
634,634122.0,180,54.71
635,635123.0,180,54.68
636,636124.0,180,54.7
637,637125.0,180,54.7
638,638127.0,180,54.71
639,639127.0,180,54.69
640,640129.0,180,54.7
641,641130.0,180,54.7
642,642130.0,180,54.7
643,643132.0,180,54.67
644,644133.0,180,54.68
645,645134.0,180,54.67
646,646135.0,180,54.64
647,647137.0,180,54.63
648,648138.0,180,54.62
649,649139.0,180,54.59
650,650140.0,180,54.58
651,651142.0,180,54.54
652,652142.0,180,54.5
653,653144.0,180,54.48
654,654145.0,180,54.44
655,655145.0,180,54.38
656,656147.0,180,54.33
657,657148.0,180,54.32
658,658149.0,180,54.28
659,659150.0,180,54.25
660,660152.0,180,54.22
661,661152.0,180,54.21
662,662154.0,180,54.19
663,663155.0,180,54.18
664,664156.0,180,54.15
665,665157.0,180,54.14
666,666159.0,180,54.13
667,667159.0,180,54.12
668,668161.0,180,54.09
669,669162.0,180,54.07
670,670162.0,180,54.06
671,671164.0,180,54.07
672,672165.0,180,54.03
673,673166.0,180,54.01
674,674167.0,180,54.02
675,675169.0,180,54.01
676,676170.0,180,53.97
677,677171.0,180,53.95
678,678172.0,180,53.93
679,679174.0,180,53.89
680,680174.0,180,53.84
681,681176.0,180,53.81
682,682177.0,180,53.77
683,683177.0,180,53.73
684,684179.0,180,53.7
685,685180.0,180,53.68
686,686181.0,180,53.66
687,687182.0,180,53.61
688,688184.0,180,53.59
689,689184.0,180,53.55
690,690186.0,180,53.49
691,691187.0,180,53.45
692,692188.0,180,53.4
693,693189.0,180,53.35
694,694191.0,180,53.3
695,695191.0,180,53.23
696,696193.0,180,53.17
697,697194.0,180,53.13
698,698194.0,180,53.07
699,699196.0,180,53.01
700,700197.0,180,52.94
701,701198.0,180,52.87
702,702000.0,180,52.79
703,703000.0,180,52.71
704,704002.0,180,52.61
705,705003.0,180,52.54
706,706004.0,180,52.46
707,707005.0,180,52.35
708,708006.0,180,52.23
709,709008.0,180,52.14
710,710008.0,180,52.03
711,711010.0,180,51.91
712,712011.0,180,51.81
713,713012.0,180,51.71
714,714013.0,180,51.62
715,715015.0,180,51.52
716,716015.0,180,51.44
717,717017.0,180,51.35
718,718018.0,180,51.27
719,719019.0,180,51.18
720,720020.0,180,51.08
721,721021.0,180,50.94
722,722022.0,180,50.74
723,723023.0,180,50.55
724,724025.0,180,50.33
725,725025.0,180,50.15
726,726027.0,180,49.98
727,727028.0,180,49.79
728,728029.0,180,49.62
729,729030.0,180,49.46
730,730032.0,180,49.31
731,731032.0,180,49.15
732,732034.0,180,48.99
