index,ms,calef,TempC
0,8000.0,255,31.86
1,1999.0,0,22.08
2,3999.0,255,29.76
3,6000.0,255,32.35
4,8000.0,255,33.27
5,9999.0,255,33.73
6,11999.0,255,34.29
7,14000.0,255,34.81
8,16000.0,255,35.13
9,18000.0,255,35.39
10,20000.0,255,35.64
11,21999.0,255,35.77
12,23999.0,255,35.99
13,25999.0,255,36.2
14,28000.0,255,36.44
15,29999.0,255,36.54
16,31998.0,255,36.71
17,33999.0,255,36.88
18,36000.0,255,37.11
19,38000.0,255,37.27
20,39999.0,255,37.38
21,41999.0,255,37.55
22,44000.0,255,37.77
23,45999.0,255,37.89
24,47998.0,255,38.06
25,49999.0,255,38.25
26,52000.0,255,38.46
27,53999.0,255,38.56
28,55999.0,255,38.73
29,57999.0,255,38.88
30,59999.0,255,39.02
31,62000.0,255,39.23
32,63998.0,255,39.32
33,66000.0,255,39.53
34,68000.0,255,39.68
35,69999.0,255,39.78
36,71999.0,255,39.93
37,73999.0,255,40.07
38,75999.0,255,40.21
39,77999.0,255,40.37
40,79998.0,255,40.51
41,81999.0,255,40.65
42,83999.0,255,40.79
43,85999.0,255,40.93
44,87999.0,255,41.06
45,89999.0,255,41.19
46,91999.0,255,41.3
47,93999.0,255,41.43
48,95998.0,255,41.55
49,97999.0,255,41.69
50,99999.0,255,41.82
51,101999.0,255,41.94
52,103999.0,255,42.06
53,105999.0,255,42.19
54,107999.0,255,42.3
55,109999.0,255,42.41
56,111998.0,255,42.53
57,114000.0,255,42.65
58,116000.0,255,42.77
59,118000.0,255,42.89
60,119999.0,255,43.02
61,121999.0,255,43.14
62,123999.0,255,43.27
63,125999.0,255,43.38
64,127998.0,255,43.5
65,130000.0,255,43.62
66,132000.0,255,43.73
67,134000.0,255,43.84
68,135999.0,255,43.95
69,137999.0,255,44.07
70,139999.0,255,44.17
71,141999.0,255,44.28
72,143998.0,255,44.4
73,146000.0,255,44.49
74,148000.0,255,44.59
75,149999.0,255,44.7
76,151999.0,255,44.8
77,153999.0,255,44.89
78,155999.0,255,44.98
79,157999.0,255,45.07
80,159998.0,255,45.16
81,162000.0,255,45.25
82,164000.0,255,45.34
83,165999.0,255,45.42
84,167999.0,255,45.49
85,169999.0,255,45.57
86,171999.0,255,45.64
87,173999.0,255,45.71
88,176000.0,255,45.79
89,177999.0,255,45.86
90,180000.0,255,45.95
91,181999.0,255,46.05
92,183999.0,255,46.13
93,185999.0,255,46.19
94,187999.0,255,46.25
95,189999.0,255,46.32
96,191998.0,255,46.37
97,194000.0,255,46.43
98,195999.0,255,46.46
99,197999.0,255,46.5
100,199999.0,255,46.55
101,201999.0,255,46.6
102,203999.0,255,46.65
103,205999.0,255,46.7
104,207998.0,255,46.74
105,210000.0,255,46.78
106,212000.0,255,46.81
107,213999.0,255,46.86
108,216000.0,255,46.89
109,217999.0,255,46.94
110,219999.0,255,47.0
111,221999.0,255,47.04
112,224000.0,255,47.09
113,225999.0,255,47.15
114,228000.0,255,47.2
115,229999.0,255,47.25
116,231999.0,255,47.3
117,233999.0,255,47.34
118,235999.0,255,47.38
119,237999.0,255,47.43
120,240000.0,255,47.49
121,242000.0,247,47.55
122,243999.0,255,47.6
123,245999.0,255,47.64
124,248000.0,237,47.69
125,250000.0,235,47.75
126,251999.0,250,47.77
127,253999.0,255,47.8
128,255998.0,223,47.83
129,258000.0,222,47.87
130,260000.0,239,47.88
131,262000.0,239,47.91
132,264000.0,237,47.96
133,266000.0,242,47.99
134,267999.0,245,48.02
135,269999.0,249,48.06
136,272000.0,255,48.1
137,273999.0,194,48.12
138,276000.0,203,48.15
139,278000.0,196,48.2
140,279999.0,199,48.22
141,281999.0,202,48.27
142,284000.0,210,48.31
143,286000.0,201,48.37
144,288000.0,196,48.43
145,289999.0,212,48.47
146,291999.0,198,48.53
147,294000.0,198,48.59
148,296000.0,198,48.64
149,298000.0,192,48.71
150,300000.0,200,48.77
151,302000.0,189,48.82
152,304000.0,188,48.88
153,305999.0,197,48.94
154,308000.0,185,49.0
155,310000.0,183,49.06
156,312000.0,193,49.1
157,313999.0,186,49.16
158,315999.0,183,49.22
159,318000.0,170,49.27
160,319998.0,178,49.33
161,322000.0,175,49.38
162,324000.0,167,49.43
163,326000.0,176,49.44
164,327999.0,172,49.48
165,329999.0,175,49.5
166,331999.0,170,49.51
167,333999.0,170,49.54
168,335998.0,180,49.56
169,338000.0,170,49.58
170,340000.0,163,49.62
171,342000.0,173,49.62
172,344000.0,162,49.66
173,346000.0,171,49.68
174,348000.0,165,49.69
175,350000.0,165,49.71
176,352000.0,180,49.71
177,354000.0,172,49.71
178,356000.0,167,49.71
179,358000.0,183,49.72
180,360000.0,168,49.74
181,361999.0,168,49.73
182,364000.0,168,49.75
183,366000.0,178,49.77
184,367998.0,173,49.77
185,370000.0,166,49.8
186,372000.0,166,49.81
187,374000.0,165,49.84
188,375999.0,158,49.87
189,377999.0,155,49.89
190,379999.0,159,49.91
191,381999.0,162,49.94
192,383998.0,151,49.93
193,386000.0,150,49.95
194,387999.0,155,49.95
195,389999.0,153,49.98
196,392000.0,146,50.0
197,393999.0,145,50.0
198,395999.0,159,50.02
199,398000.0,153,50.03
200,399998.0,142,50.03
201,402000.0,147,50.03
