index,ms,calef,TempC
0,4003.0,100,45.31
1,5005.0,100,45.93
2,1000.0,100,40.77
3,2000.0,100,44.56
4,3002.0,100,46.42
5,4003.0,100,47.36
6,5005.0,100,47.87
7,6006.0,100,48.29
8,7007.0,100,48.71
9,8008.0,100,49.02
10,9010.0,100,49.3
11,10011.0,100,49.48
12,11013.0,100,49.67
13,12013.0,100,49.85
14,13015.0,100,50.06
15,14016.0,100,50.25
16,15017.0,100,50.39
17,16019.0,100,50.49
18,17019.0,0,50.6
19,18021.0,0,50.7
20,19022.0,0,50.8
21,20024.0,0,50.91
22,21024.0,0,51.0
23,22026.0,0,51.1
24,23027.0,0,51.17
25,24029.0,0,51.25
26,25029.0,0,51.34
27,26031.0,0,51.41
28,27032.0,0,51.5
29,28034.0,0,51.57
30,29034.0,0,51.63
31,30035.0,0,51.69
32,31037.0,0,51.75
33,32038.0,0,51.8
34,33039.0,0,51.84
35,34040.0,0,51.89
36,35042.0,0,51.93
37,36043.0,0,51.97
38,37044.0,0,52.01
39,38045.0,0,52.05
40,39047.0,0,52.1
41,40048.0,0,52.14
42,41049.0,0,52.19
43,42050.0,0,52.24
44,43052.0,0,52.28
45,44053.0,0,52.33
46,45054.0,0,52.37
47,46055.0,0,52.41
48,47056.0,0,52.44
49,48058.0,0,52.48
50,49059.0,0,52.51
51,50060.0,0,52.54
52,51061.0,0,52.57
53,52063.0,0,52.6
54,53064.0,0,52.63
55,54065.0,0,52.67
56,55066.0,0,52.7
57,56068.0,0,52.73
58,57069.0,0,52.76
59,58070.0,0,52.79
60,59071.0,0,52.82
61,60072.0,0,52.86
62,61074.0,0,52.89
63,62074.0,0,52.92
64,63076.0,0,52.96
65,64077.0,0,52.99
66,65079.0,0,53.03
67,66079.0,0,53.06
68,67081.0,0,53.09
69,68082.0,0,53.12
70,69084.0,0,53.14
71,70084.0,0,53.17
72,71086.0,0,53.2
73,72087.0,0,53.23
74,73089.0,0,53.28
75,74089.0,0,53.31
76,75090.0,0,53.33
77,76092.0,0,53.36
78,77093.0,0,53.39
79,78094.0,0,53.42
80,79095.0,0,53.45
81,80097.0,0,53.49
