index,ms,calef,TempC
0,5000.0,25,5.42
1,10001.0,25,17.4
2,15002.0,25,21.93
3,20004.0,25,24.49
4,25006.0,25,26.33
5,30007.0,25,27.65
6,35009.0,25,28.6
7,40010.0,25,29.56
8,45011.0,25,30.37
9,50013.0,25,31.13
10,55015.0,25,31.7
11,60016.0,25,32.26
12,65017.0,25,32.86
13,70020.0,25,33.64
