index,ms,calef,TempC
0,5000.0,100,19.39
1,10001.0,100,31.47
2,15003.0,100,35.87
3,20004.0,100,37.89
4,25006.0,100,39.11
5,30008.0,100,40.01
6,35009.0,100,40.66
7,40010.0,100,41.15
8,45012.0,100,41.59
