index,ms,calef,TempC
0,2199.0,5,4.52
1,4000.0,5,15.75
2,6001.0,5,19.55
3,8003.0,5,21.49
4,10004.0,5,22.67
5,12005.0,5,23.46
6,14006.0,5,24.03
7,16008.0,5,24.52
8,18009.0,5,24.85
9,20009.0,5,25.12
10,22010.0,5,25.33
11,24012.0,5,25.52
12,26013.0,5,25.67
13,28014.0,5,25.81
14,30015.0,5,25.92
15,32017.0,5,26.03
16,34018.0,5,26.12
17,36019.0,5,26.23
18,38020.0,5,26.3
19,40022.0,5,26.36
20,42022.0,5,26.42
21,44023.0,5,26.48
22,46024.0,5,26.53
23,48026.0,5,26.6
24,50027.0,5,26.64
25,52028.0,5,26.68
26,54030.0,5,26.71
27,56031.0,5,26.74
28,58032.0,5,26.77
29,60033.0,5,26.8
30,62034.0,5,26.83
31,64035.0,5,26.86
32,66036.0,5,26.88
33,68037.0,5,26.9
34,70039.0,5,26.93
35,72040.0,5,26.95
36,74041.0,5,26.97
37,76042.0,5,26.98
38,78044.0,5,27.0
39,80045.0,5,27.02
40,82045.0,5,27.03
41,84047.0,5,27.05
42,86048.0,5,27.06
43,88049.0,5,27.08
44,90050.0,5,27.09
45,92052.0,5,27.1
46,94053.0,5,27.12
47,96054.0,5,27.13
48,98055.0,5,27.14
49,100057.0,5,27.15
50,102057.0,5,27.16
51,104058.0,5,27.17
52,106060.0,5,27.18
53,108061.0,5,27.19
54,110062.0,5,27.2
55,112064.0,5,27.21
56,114065.0,5,27.21
57,116066.0,5,27.22
58,118067.0,5,27.23
59,120069.0,5,27.24
60,122070.0,5,27.24
61,124070.0,5,27.25
62,126072.0,5,27.26
63,128073.0,5,27.26
64,130074.0,5,27.27
65,132076.0,5,27.27
66,134077.0,5,27.28
67,136078.0,5,27.29
68,138080.0,5,27.29
69,140081.0,5,27.3
70,142082.0,5,27.3
71,144083.0,5,27.31
72,146084.0,5,27.29
73,148085.0,5,27.3
74,150086.0,5,27.3
75,152088.0,5,27.31
