index,ms,calef,TempC
0,6001.0,0,25.89
1,2199.0,0,11.28
2,4000.0,0,23.02
3,6001.0,0,27.16
4,8003.0,0,29.27
5,10004.0,0,30.55
6,12005.0,0,31.42
7,14006.0,0,32.11
8,16008.0,0,32.69
9,18009.0,0,33.2
10,20009.0,0,33.61
11,22010.0,0,33.95
12,24012.0,0,34.23
13,26013.0,0,34.51
14,28014.0,0,34.76
15,30015.0,0,34.93
16,32017.0,0,35.12
17,34018.0,0,35.32
18,36019.0,0,35.53
19,38020.0,0,35.71
20,40022.0,0,35.88
21,42022.0,0,36.06
22,44023.0,0,36.23
23,46024.0,0,36.38
24,48026.0,0,36.54
25,50027.0,0,36.72
26,52028.0,0,36.86
27,54029.0,0,36.99
28,56031.0,0,37.15
29,58032.0,0,37.29
30,60033.0,0,37.41
31,62034.0,0,37.55
32,64035.0,0,37.68
33,66036.0,0,37.8
34,68037.0,0,37.92
35,70039.0,0,38.05
36,72040.0,0,38.17
37,74041.0,0,38.29
38,76042.0,0,38.4
39,78044.0,0,38.51
40,80045.0,0,38.63
41,82045.0,0,38.72
42,84046.0,0,38.83
43,86048.0,0,38.92
44,88049.0,0,39.04
45,90050.0,0,39.17
46,92051.0,0,39.26
47,94053.0,0,39.34
48,96054.0,0,39.46
49,98055.0,0,39.56
50,100056.0,0,39.67
51,102057.0,0,39.75
52,104058.0,0,39.86
53,106059.0,0,39.95
54,108061.0,0,40.05
55,110062.0,0,40.15
56,112063.0,0,40.26
57,114064.0,0,40.36
58,116066.0,0,40.44
59,118067.0,0,40.53
60,120068.0,0,40.62
61,122070.0,0,40.7
62,124070.0,0,40.79
63,126071.0,0,40.88
64,128073.0,0,40.96
65,130074.0,0,41.03
66,132075.0,0,41.1
67,134077.0,0,41.17
68,136078.0,0,41.24
69,138079.0,0,41.3
70,140080.0,0,41.38
71,142082.0,0,41.45
72,144082.0,0,41.54
73,146083.0,0,41.61
74,148085.0,0,41.68
75,150086.0,0,41.78
76,152087.0,0,41.85
77,154089.0,0,41.91
78,156090.0,0,41.99
79,158091.0,0,42.06
80,160092.0,0,42.13
81,162094.0,0,42.21
82,164094.0,0,42.29
83,166095.0,0,42.35
84,168097.0,0,42.42
85,170098.0,0,42.49
86,172099.0,0,42.55
87,174101.0,0,42.63
88,176102.0,0,42.71
89,178103.0,0,42.81
90,180104.0,0,42.9
91,182106.0,0,42.97
92,184107.0,0,43.04
93,186107.0,0,43.11
94,188109.0,0,43.18
95,190110.0,0,43.26
96,192111.0,0,43.33
97,194113.0,0,43.39
98,196114.0,0,43.45
99,198115.0,0,43.5
100,200117.0,0,43.55
101,202118.0,0,43.6
102,204119.0,0,43.63
103,206119.0,0,43.68
104,208121.0,0,43.71
105,210122.0,0,43.77
106,212123.0,0,43.83
107,214125.0,0,43.87
108,216126.0,0,43.93
109,218127.0,0,43.97
110,220129.0,0,44.0
111,222130.0,0,44.04
112,224131.0,0,44.09
113,226131.0,0,44.14
114,228133.0,0,44.18
115,230134.0,0,44.23
116,232135.0,0,44.25
117,234137.0,0,44.3
118,236138.0,0,44.34
119,238139.0,0,44.38
120,240141.0,0,44.43
121,242142.0,0,44.45
122,244143.0,0,44.47
123,246145.0,0,44.53
124,248145.0,0,44.56
125,250146.0,0,44.61
126,252147.0,0,44.67
127,254149.0,0,44.73
128,256150.0,0,44.78
129,258151.0,0,44.84
130,260153.0,0,44.89
131,262154.0,0,44.93
132,264155.0,0,44.97
133,266157.0,0,45.0
134,268157.0,0,45.02
135,270158.0,0,45.05
136,272159.0,0,45.1
137,274161.0,0,45.12
138,276162.0,0,45.15
139,278163.0,0,45.18
140,280165.0,0,45.2
141,282166.0,0,45.25
142,284167.0,0,45.27
143,286169.0,0,45.3
144,288169.0,0,45.34
145,290170.0,0,45.38
146,292172.0,0,45.42
147,294173.0,0,45.47
148,296174.0,0,45.52
149,298175.0,0,45.54
150,300177.0,15,45.59
151,302178.0,15,45.62
152,304179.0,15,45.65
