index,ms,calef,TempC
0,60016.0,25,35.17
1,5000.0,25,10.83
2,10001.0,25,22.32
3,15002.0,25,26.36
4,20004.0,25,28.43
5,25006.0,25,29.4
6,30007.0,25,30.13
7,35009.0,25,30.51
8,40010.0,25,30.8
9,45011.0,25,30.97
10,50014.0,25,31.06
11,55015.0,25,31.09
12,60016.0,25,31.11
13,65018.0,25,31.17
14,70020.0,25,31.15
15,75021.0,25,31.13
16,80022.0,25,31.07
17,85024.0,25,31.03
18,90025.0,25,30.96
19,95027.0,25,30.92
20,100029.0,25,30.86
21,105030.0,25,30.81
22,110031.0,25,30.71
23,115034.0,25,30.62
24,120035.0,25,30.55
25,125036.0,25,30.47
26,130038.0,25,30.38
27,135040.0,25,30.28
28,140041.0,25,30.22
