index,ms,calef,TempC
0,1000.0,255,42.36
1,2000.0,255,45.91
2,1000.0,255,42.83
3,2000.0,255,46.39
4,3002.0,255,48.01
5,4003.0,255,48.86
6,5005.0,255,49.45
7,6006.0,255,49.9
8,7007.0,255,50.26
9,8008.0,0,50.51
10,9010.0,0,50.65
11,10010.0,0,50.75
12,11012.0,0,50.91
13,12013.0,0,51.03
14,13015.0,0,51.17
15,14015.0,0,51.24
16,15016.0,0,51.29
17,16018.0,0,51.38
18,17019.0,0,51.44
19,18020.0,0,51.49
20,19021.0,0,51.52
21,20023.0,0,51.57
22,21024.0,0,51.59
23,22025.0,0,51.62
24,23026.0,0,51.66
25,24028.0,0,51.69
26,25029.0,0,51.72
27,26030.0,0,51.79
28,27031.0,0,51.8
29,28033.0,0,51.83
30,29034.0,0,51.85
31,30034.0,0,51.87
32,31036.0,0,51.91
33,32037.0,0,51.95
34,33039.0,0,51.97
35,34039.0,0,51.98
36,35041.0,0,51.99
37,36042.0,0,52.0
38,37044.0,0,52.01
39,38044.0,0,52.01
40,39046.0,0,52.02
41,40047.0,0,52.01
42,41049.0,0,51.99
43,42049.0,0,52.0
44,43051.0,0,51.99
45,44052.0,0,51.97
46,45053.0,0,51.96
47,46054.0,0,51.93
48,47055.0,0,51.89
49,48057.0,0,51.87
50,49058.0,0,51.86
51,50059.0,0,51.83
52,51060.0,0,51.79
53,52062.0,0,51.76
54,53063.0,0,51.72
55,54064.0,0,51.68
56,55065.0,0,51.65
57,56067.0,0,51.61
58,57068.0,0,51.59
59,58068.0,0,51.56
60,59070.0,0,51.53
61,60071.0,0,51.5
62,61073.0,0,51.48
63,62073.0,0,51.46
64,63075.0,0,51.43
65,64076.0,0,51.41
66,65078.0,0,51.39
67,66078.0,0,51.37
68,67080.0,0,51.36
69,68081.0,0,51.33
70,69083.0,0,51.32
71,70083.0,0,51.29
72,71085.0,0,51.27
73,72086.0,0,51.25
74,73088.0,0,51.24
75,74088.0,0,51.23
76,75089.0,0,51.21
77,76091.0,0,51.19
78,77092.0,0,51.19
79,78093.0,0,51.18
80,79094.0,0,51.17
81,80096.0,0,51.17
82,81097.0,0,51.17
83,82098.0,0,51.17
84,83099.0,0,51.17
85,84101.0,0,51.18
86,85102.0,0,51.18
87,86103.0,0,51.19
88,87104.0,0,51.21
89,88105.0,0,51.22
90,89107.0,0,51.24
91,90107.0,0,51.26
92,91109.0,0,51.28
93,92110.0,0,51.28
94,93112.0,0,51.3
95,94112.0,0,51.32
96,95114.0,0,51.33
97,96115.0,0,51.35
98,97117.0,0,51.37
99,98117.0,0,51.39
100,99119.0,0,51.42
101,100120.0,0,51.43
102,101122.0,0,51.45
103,102123.0,0,51.47
104,103123.0,0,51.5
105,104125.0,0,51.52
106,105126.0,0,51.54
107,106128.0,0,51.57
108,107128.0,0,51.59
109,108130.0,0,51.61
110,109131.0,0,51.62
111,110133.0,0,51.64
112,111134.0,0,51.65
113,112135.0,0,51.66
114,113136.0,0,51.66
115,114138.0,0,51.65
116,115139.0,0,51.65
117,116141.0,0,51.64
118,117141.0,0,51.64
119,118142.0,0,51.63
120,119144.0,0,51.62
121,120145.0,0,51.6
122,121147.0,0,51.57
123,122147.0,0,51.55
124,123149.0,0,51.52
125,124150.0,0,51.48
126,125152.0,0,51.45
127,126153.0,0,51.4
128,127154.0,0,51.35
129,128155.0,0,51.3
130,129157.0,0,51.24
131,130158.0,0,51.17
132,131160.0,0,51.11
133,132160.0,0,51.04
134,133161.0,0,50.98
135,134163.0,0,50.91
136,135164.0,0,50.81
137,136166.0,0,50.71
138,137166.0,0,50.6
139,138168.0,0,50.49
140,139169.0,0,50.39
141,140171.0,0,50.29
142,141171.0,0,50.19
143,142173.0,0,50.08
144,143174.0,0,49.97
145,144176.0,0,49.87
146,145177.0,0,49.76
147,146178.0,0,49.65
148,147179.0,0,49.54
149,148180.0,255,49.45
150,149182.0,255,49.35
151,150183.0,255,49.26
152,151184.0,255,49.18
153,152185.0,255,49.09
154,153187.0,255,49.01
155,154188.0,255,48.93
156,155190.0,255,48.85
157,156191.0,255,48.78
158,157193.0,255,48.71
159,158194.0,255,48.63
160,159196.0,255,48.58
161,160196.0,255,48.52
162,161198.0,255,48.47
163,162199.0,255,48.41
164,163201.0,255,48.36
165,164202.0,255,48.31
166,165203.0,255,48.27
167,166205.0,255,48.24
168,167206.0,255,48.2
169,168207.0,255,48.17
170,169208.0,255,48.14
171,170210.0,255,48.11
172,171211.0,255,48.07
173,172213.0,255,48.04
174,173214.0,255,48.02
175,174216.0,255,48.0
176,175217.0,255,47.98
177,176219.0,255,47.96
178,177219.0,255,47.94
179,178221.0,255,47.93
180,179222.0,255,47.91
181,180224.0,255,47.9
182,181225.0,255,47.9
183,182226.0,255,47.9
184,183228.0,255,47.9
185,184229.0,255,47.9
186,185230.0,255,47.9
187,186231.0,255,47.9
188,187233.0,255,47.9
189,188234.0,255,47.9
190,189236.0,255,47.91
191,190237.0,255,47.92
192,191239.0,255,47.93
193,192240.0,255,47.94
194,193241.0,255,47.96
195,194242.0,255,47.98
196,195244.0,255,48.0
197,196245.0,255,48.02
198,197246.0,255,48.05
199,198248.0,255,48.09
200,199249.0,255,48.11
201,200251.0,255,48.15
202,201251.0,255,48.18
203,202253.0,255,48.21
204,203254.0,255,48.24
205,204256.0,255,48.27
206,205257.0,255,48.31
207,206259.0,255,48.35
208,207260.0,255,48.39
209,208262.0,255,48.43
210,209263.0,255,48.46
211,210264.0,255,48.5
212,211265.0,255,48.53
213,212267.0,255,48.57
214,213268.0,255,48.6
215,214269.0,255,48.65
216,215271.0,255,48.69
217,216272.0,255,48.73
218,217274.0,255,48.77
219,218274.0,255,48.81
220,219276.0,255,48.86
221,220277.0,255,48.9
222,221279.0,255,48.94
223,222280.0,255,48.98
224,223282.0,255,49.02
225,224283.0,255,49.06
226,225285.0,255,49.1
227,226285.0,255,49.14
228,227287.0,255,49.18
229,228288.0,255,49.22
230,229289.0,255,49.26
231,230291.0,255,49.3
232,231292.0,255,49.34
233,232294.0,255,49.38
234,233295.0,255,49.43
235,234297.0,255,49.48
236,235297.0,255,49.51
237,236299.0,255,49.56
238,237300.0,255,49.59
239,238302.0,255,49.63
240,239303.0,255,49.68
241,240305.0,255,49.72
242,241306.0,255,49.76
243,242307.0,255,49.81
244,243308.0,255,49.85
245,244310.0,255,49.9
246,245311.0,255,49.94
247,246312.0,255,49.99
248,247314.0,255,50.04
249,248315.0,255,50.09
250,249316.0,255,50.13
251,250317.0,255,50.16
252,251319.0,255,50.2
253,252320.0,255,50.25
254,253322.0,255,50.29
255,254323.0,255,50.34
256,255325.0,255,50.39
257,256326.0,255,50.44
258,257327.0,255,50.49
259,258328.0,0,50.53
260,259330.0,0,50.57
261,260331.0,0,50.61
262,261332.0,0,50.64
263,262333.0,0,50.67
264,263334.0,0,50.72
265,264336.0,0,50.76
266,265337.0,0,50.8
267,266339.0,0,50.83
268,267339.0,0,50.86
269,268341.0,0,50.9
270,269342.0,0,50.94
271,270344.0,0,50.98
272,271345.0,0,51.02
273,272346.0,0,51.06
274,273347.0,0,51.09
275,274349.0,0,51.12
276,275350.0,0,51.16
277,276352.0,0,51.19
278,277352.0,0,51.23
279,278353.0,0,51.28
280,279355.0,0,51.32
281,280356.0,0,51.35
282,281358.0,0,51.39
283,282358.0,0,51.43
284,283360.0,0,51.46
285,284361.0,0,51.5
286,285363.0,0,51.54
287,286363.0,0,51.57
288,287365.0,0,51.6
289,288366.0,0,51.64
290,289368.0,0,51.67
291,290369.0,0,51.7
292,291369.0,0,51.74
293,292371.0,0,51.78
294,293372.0,0,51.81
295,294374.0,0,51.84
296,295375.0,0,51.87
297,296376.0,0,51.91
298,297377.0,0,51.94
299,298379.0,0,51.97
300,299380.0,0,52.01
301,300382.0,0,52.04
302,301382.0,0,52.07
303,302384.0,0,52.11
304,303385.0,0,52.14
305,304387.0,0,52.18
306,305388.0,0,52.21
307,306388.0,0,52.24
308,307390.0,0,52.28
309,308391.0,0,52.31
310,309393.0,0,52.35
311,310394.0,0,52.37
312,311395.0,0,52.4
313,312396.0,0,52.43
314,313398.0,0,52.45
315,314399.0,0,52.48
316,315401.0,0,52.51
317,316401.0,0,52.53
318,317403.0,0,52.57
319,318404.0,0,52.61
320,319406.0,0,52.64
321,320407.0,0,52.67
322,321408.0,0,52.69
323,322409.0,0,52.73
324,323410.0,0,52.76
325,324412.0,0,52.8
326,325412.0,0,52.83
327,326414.0,0,52.86
328,327415.0,0,52.89
329,328417.0,0,52.93
330,329418.0,0,52.95
331,330419.0,0,52.98
332,331420.0,0,53.0
333,332422.0,0,53.03
334,333423.0,0,53.06
335,334425.0,0,53.08
336,335425.0,0,53.11
337,336427.0,0,53.14
338,337428.0,0,53.16
339,338429.0,0,53.19
340,339431.0,0,53.21
341,340431.0,0,53.23
342,341433.0,0,53.25
343,342434.0,0,53.27
344,343436.0,0,53.29
345,344437.0,0,53.31
346,345438.0,0,53.33
347,346439.0,0,53.35
348,347441.0,0,53.37
349,348442.0,0,53.39
350,349444.0,0,53.41
351,350444.0,0,53.42
352,351446.0,0,53.43
353,352447.0,0,53.44
354,353448.0,0,53.44
355,354450.0,0,53.45
356,355450.0,0,53.46
357,356452.0,0,53.47
358,357453.0,0,53.48
359,358455.0,0,53.49
360,359456.0,0,53.49
361,360457.0,0,53.5
362,361458.0,0,53.51
363,362460.0,0,53.51
364,363461.0,0,53.51
365,364463.0,0,53.52
366,365463.0,0,53.52
367,366465.0,0,53.53
368,367466.0,0,53.53
369,368467.0,0,53.54
370,369469.0,0,53.55
371,370469.0,0,53.56
372,371471.0,0,53.57
373,372472.0,0,53.58
374,373474.0,0,53.59
375,374474.0,0,53.6
376,375476.0,0,53.6
377,376477.0,0,53.61
378,377479.0,0,53.62
379,378480.0,0,53.63
380,379481.0,0,53.63
381,380482.0,0,53.64
382,381484.0,0,53.65
383,382485.0,0,53.67
384,383486.0,0,53.68
385,384487.0,0,53.7
386,385488.0,0,53.7
387,386490.0,0,53.71
388,387491.0,0,53.71
389,388493.0,0,53.72
390,389493.0,0,53.74
391,390495.0,0,53.75
392,391496.0,0,53.76
393,392498.0,0,53.77
394,393499.0,0,53.78
395,394000.0,0,53.78
396,395001.0,0,53.78
397,396002.0,0,53.79
398,397003.0,0,53.81
399,398005.0,0,53.82
400,399006.0,0,53.83
401,400008.0,0,53.84
402,401008.0,0,53.86
403,402010.0,0,53.87
404,403011.0,0,53.9
405,404013.0,0,53.92
406,405014.0,0,53.94
407,406014.0,0,53.96
408,407016.0,0,53.98
409,408017.0,0,54.0
410,409019.0,0,54.02
411,410020.0,0,54.04
412,411021.0,0,54.05
413,412022.0,0,54.08
414,413024.0,0,54.09
415,414025.0,0,54.11
416,415027.0,0,54.12
417,416027.0,0,54.14
418,417029.0,0,54.15
419,418030.0,0,54.16
420,419032.0,0,54.19
421,420033.0,0,54.21
422,421033.0,0,54.22
423,422035.0,0,54.23
424,423036.0,0,54.24
425,424038.0,0,54.25
426,425039.0,0,54.26
427,426040.0,0,54.27
428,427041.0,0,54.28
429,428043.0,0,54.29
430,429044.0,0,54.3
431,430046.0,0,54.32
432,431046.0,0,54.33
433,432048.0,0,54.34
434,433049.0,0,54.35
435,434051.0,0,54.36
436,435052.0,0,54.38
437,436052.0,0,54.39
438,437054.0,0,54.42
439,438055.0,0,54.44
440,439057.0,0,54.46
441,440058.0,0,54.48
442,441059.0,0,54.5
443,442060.0,0,54.52
444,443062.0,0,54.53
445,444063.0,0,54.54
446,445065.0,0,54.56
447,446065.0,0,54.57
448,447067.0,0,54.59
449,448068.0,0,54.6
450,449070.0,0,54.61
451,450070.0,0,54.63
452,451072.0,0,54.64
453,452073.0,0,54.64
454,453074.0,0,54.65
455,454076.0,0,54.66
456,455076.0,0,54.66
457,456078.0,0,54.66
458,457079.0,0,54.67
459,458081.0,0,54.67
460,459082.0,0,54.67
461,460083.0,0,54.68
462,461084.0,0,54.68
463,462086.0,0,54.69
464,463087.0,0,54.69
465,464089.0,0,54.69
466,465089.0,0,54.69
467,466091.0,0,54.7
468,467092.0,0,54.71
469,468093.0,0,54.71
470,469095.0,0,54.72
471,470095.0,0,54.72
472,471097.0,0,54.72
473,472098.0,0,54.72
474,473100.0,0,54.73
475,474101.0,0,54.73
476,475102.0,0,54.74
477,476103.0,0,54.74
478,477105.0,0,54.75
479,478106.0,0,54.76
480,479108.0,0,54.77
481,480108.0,0,54.77
482,481110.0,0,54.78
483,482111.0,0,54.79
484,483112.0,0,54.81
485,484114.0,0,54.82
486,485114.0,0,54.84
487,486116.0,0,54.86
488,487117.0,0,54.87
489,488119.0,0,54.88
490,489120.0,0,54.9
491,490121.0,0,54.91
492,491122.0,0,54.93
493,492124.0,0,54.94
494,493125.0,0,54.95
495,494127.0,0,54.97
496,495127.0,0,54.99
497,496129.0,0,55.01
498,497130.0,0,55.03
499,498131.0,0,55.04
500,499133.0,0,55.06
501,500133.0,0,55.09
502,501135.0,0,55.11
503,502136.0,0,55.13
504,503138.0,0,55.15
505,504139.0,0,55.18
506,505140.0,0,55.2
507,506141.0,0,55.22
508,507143.0,0,55.24
509,508144.0,0,55.26
510,509146.0,0,55.27
511,510146.0,0,55.28
512,511148.0,0,55.3
513,512149.0,0,55.31
514,513150.0,0,55.32
515,514151.0,0,55.32
516,515152.0,0,55.34
517,516154.0,0,55.35
518,517155.0,0,55.36
519,518157.0,0,55.36
520,519157.0,0,55.37
521,520159.0,0,55.37
522,521160.0,0,55.37
523,522162.0,0,55.37
524,523163.0,0,55.37
525,524164.0,0,55.37
526,525165.0,0,55.37
527,526167.0,0,55.37
528,527168.0,0,55.38
529,528169.0,0,55.39
530,529170.0,0,55.39
531,530171.0,0,55.39
532,531173.0,0,55.38
533,532174.0,0,55.37
534,533176.0,0,55.37
535,534176.0,0,55.37
536,535178.0,0,55.37
537,536179.0,0,55.36
538,537181.0,0,55.36
539,538182.0,0,55.35
540,539183.0,0,55.35
541,540184.0,0,55.34
542,541186.0,0,55.34
543,542187.0,0,55.34
544,543188.0,0,55.34
545,544189.0,0,55.34
546,545190.0,0,55.33
547,546192.0,0,55.34
548,547193.0,0,55.33
549,548195.0,0,55.33
550,549195.0,0,55.33
551,550197.0,0,55.34
552,551198.0,0,55.35
553,552200.0,0,55.35
554,553201.0,0,55.35
555,554202.0,0,55.35
556,555203.0,0,55.36
557,556205.0,0,55.38
558,557206.0,0,55.38
559,558208.0,0,55.39
560,559208.0,0,55.4
561,560209.0,0,55.41
562,561211.0,0,55.41
563,562212.0,0,55.42
564,563214.0,0,55.42
565,564214.0,0,55.43
566,565216.0,0,55.44
567,566217.0,0,55.45
568,567219.0,0,55.45
569,568220.0,0,55.45
570,569221.0,0,55.45
571,570222.0,0,55.45
572,571224.0,0,55.45
573,572225.0,0,55.45
574,573227.0,0,55.46
575,574227.0,0,55.45
576,575228.0,0,55.46
577,576230.0,0,55.46
578,577231.0,0,55.46
579,578233.0,0,55.47
580,579233.0,0,55.47
581,580235.0,0,55.47
582,581236.0,0,55.47
583,582238.0,0,55.48
584,583238.0,0,55.48
585,584240.0,0,55.48
586,585241.0,0,55.47
587,586243.0,0,55.47
588,587244.0,0,55.48
589,588244.0,0,55.48
590,589246.0,0,55.49
591,590247.0,0,55.48
592,591249.0,0,55.48
593,592250.0,0,55.47
594,593251.0,0,55.46
595,594252.0,0,55.46
596,595254.0,0,55.46
597,596255.0,0,55.46
598,597257.0,0,55.45
599,598257.0,0,55.45
600,599259.0,0,55.44
601,600260.0,0,55.43
602,601262.0,0,55.43
603,602263.0,0,55.43
604,603264.0,0,55.43
605,604265.0,0,55.43
606,605266.0,0,55.44
607,606268.0,0,55.44
608,607269.0,0,55.44
609,608270.0,0,55.44
610,609271.0,0,55.44
611,610273.0,0,55.45
612,611274.0,0,55.46
613,612276.0,0,55.46
614,613276.0,0,55.46
615,614278.0,0,55.45
616,615279.0,0,55.45
617,616281.0,0,55.45
618,617281.0,0,55.45
619,618283.0,0,55.44
620,619284.0,0,55.42
621,620285.0,0,55.4
622,621287.0,0,55.38
623,622287.0,0,55.37
624,623289.0,0,55.34
625,624290.0,0,55.32
626,625292.0,0,55.3
627,626293.0,0,55.27
628,627294.0,0,55.25
629,628295.0,0,55.22
630,629297.0,0,55.17
631,630298.0,0,55.13
632,631300.0,0,55.08
633,632300.0,0,55.03
634,633302.0,0,54.97
635,634303.0,0,54.93
636,635304.0,0,54.88
637,636306.0,0,54.82
638,637306.0,0,54.77
639,638308.0,0,54.71
640,639309.0,0,54.66
641,640311.0,0,54.6
642,641312.0,0,54.53
643,642313.0,0,54.46
644,643314.0,0,54.39
645,644316.0,0,54.31
646,645317.0,0,54.25
647,646319.0,0,54.16
648,647319.0,0,54.08
649,648321.0,0,54.0
650,649322.0,0,53.92
651,650323.0,0,53.83
652,651325.0,0,53.75
653,652325.0,0,53.65
654,653327.0,0,53.55
655,654328.0,0,53.45
656,655330.0,0,53.34
657,656331.0,0,53.25
658,657332.0,0,53.14
659,658333.0,0,53.03
660,659335.0,0,52.92
661,660336.0,0,52.82
662,661337.0,0,52.71
663,662338.0,0,52.59
664,663340.0,0,52.49
665,664341.0,0,52.38
666,665342.0,0,52.26
667,666343.0,0,52.14
668,667344.0,0,52.01
669,668346.0,0,51.89
670,669347.0,0,51.76
671,670349.0,0,51.63
672,671349.0,0,51.51
673,672351.0,0,51.38
674,673352.0,0,51.25
675,674354.0,0,51.13
676,675355.0,0,51.01
677,676356.0,0,50.88
678,677357.0,0,50.76
679,678359.0,0,50.62
680,679360.0,0,50.51
681,680361.0,0,50.38
682,681362.0,0,50.26
683,682363.0,0,50.13
684,683365.0,0,50.01
685,684366.0,0,49.87
686,685367.0,0,49.74
687,686368.0,0,49.6
688,687370.0,255,49.48
689,688371.0,255,49.36
690,689373.0,255,49.24
691,690374.0,255,49.11
692,691375.0,255,48.99
693,692376.0,255,48.87
694,693378.0,255,48.75
695,694379.0,255,48.63
696,695380.0,255,48.5
697,696382.0,255,48.38
698,697383.0,255,48.26
699,698385.0,255,48.14
700,699385.0,255,48.02
701,700387.0,255,47.91
702,701388.0,255,47.78
703,702390.0,255,47.66
704,703391.0,255,47.55
705,704393.0,255,47.44
706,705394.0,255,47.34
707,706396.0,255,47.23
708,707397.0,255,47.12
709,708398.0,255,47.02
710,709399.0,255,46.9
711,710401.0,255,46.79
712,711402.0,255,46.68
713,712403.0,255,46.58
714,713405.0,255,46.46
715,714406.0,255,46.35
716,715408.0,255,46.24
717,716408.0,255,46.14
718,717410.0,255,46.03
719,718411.0,255,45.92
720,719413.0,255,45.8
721,720414.0,255,45.69
722,721416.0,255,45.58
723,722417.0,255,45.46
724,723419.0,255,45.35
725,724419.0,255,45.23
726,725421.0,255,45.11
727,726422.0,255,45.0
728,727424.0,255,44.89
729,728425.0,255,44.77
730,729426.0,255,44.66
731,730428.0,255,44.54
732,731429.0,255,44.42
733,732430.0,255,44.31
734,733431.0,255,44.19
735,734433.0,255,44.09
736,735434.0,255,43.97
737,736436.0,255,43.87
738,737437.0,255,43.75
739,738439.0,255,43.64
740,739440.0,255,43.54
741,740441.0,255,43.43
742,741442.0,255,43.33
743,742444.0,255,43.23
744,743445.0,255,43.13
745,744446.0,255,43.03
746,745448.0,255,42.92
747,746449.0,255,42.83
748,747451.0,255,42.73
749,748452.0,255,42.63
750,749453.0,255,42.54
751,750454.0,255,42.45
752,751456.0,255,42.35
753,752457.0,255,42.25
754,753459.0,255,42.16
755,754460.0,255,42.06
756,755462.0,255,41.96
757,756463.0,255,41.87
758,757464.0,255,41.78
759,758465.0,255,41.68
760,759467.0,255,41.59
761,760468.0,255,41.49
762,761469.0,255,41.39
763,762471.0,255,41.31
764,763472.0,255,41.22
765,764474.0,255,41.12
766,765475.0,255,41.02
767,766476.0,255,40.93
768,767477.0,255,40.84
769,768479.0,255,40.75
770,769480.0,255,40.67
771,770482.0,255,40.59
772,771483.0,255,40.49
773,772485.0,255,40.4
774,773486.0,255,40.32
775,774487.0,255,40.23
776,775488.0,255,40.15
777,776489.0,255,40.06
778,777491.0,255,39.98
779,778492.0,255,39.89
780,779494.0,255,39.82
781,780495.0,255,39.74
782,781497.0,255,39.66
783,782498.0,255,39.58
784,783499.0,255,39.5
785,784001.0,255,39.46
786,785002.0,255,39.38
787,786002.0,255,39.3
788,787004.0,255,39.23
789,788005.0,255,39.16
790,789007.0,255,39.08
791,790008.0,255,39.0
792,791010.0,255,38.92
793,792011.0,255,38.84
794,793013.0,255,38.76
795,794014.0,255,38.68
796,795015.0,255,38.6
797,796016.0,255,38.54
798,797018.0,255,38.45
799,798019.0,255,38.37
800,799021.0,255,38.29
801,800022.0,255,38.21
802,801024.0,255,38.14
803,802025.0,255,38.07
804,803025.0,255,37.99
805,804027.0,255,37.93
806,805028.0,255,37.86
807,806030.0,255,37.79
808,807031.0,255,37.72
809,808033.0,255,37.66
810,809034.0,255,37.59
811,810036.0,255,37.53
812,811036.0,255,37.46
813,812038.0,255,37.39
814,813039.0,255,37.33
815,814041.0,255,37.26
816,815042.0,255,37.19
817,816044.0,255,37.13
818,817045.0,255,37.07
819,818046.0,255,37.0
820,819048.0,255,36.93
821,820048.0,255,36.86
822,821050.0,255,36.79
823,822051.0,255,36.72
824,823053.0,255,36.66
825,824054.0,255,36.6
826,825056.0,255,36.53
827,826057.0,255,36.47
828,827059.0,255,36.41
829,828059.0,255,36.35
830,829061.0,255,36.28
831,830062.0,255,36.23
832,831064.0,255,36.16
833,832065.0,255,36.11
834,833067.0,255,36.04
835,834068.0,255,36.0
836,835069.0,255,35.94
837,836071.0,255,35.9
838,837071.0,255,35.85
839,838073.0,255,35.82
840,839074.0,255,35.78
841,840076.0,255,35.75
842,841077.0,255,35.72
843,842079.0,255,35.69
844,843080.0,255,35.67
845,844082.0,255,35.65
